a.vcd
$date
	Sat Jun 28 09:43:33 2025
$end
$version
	Icarus Verilog
$end
$timescale
	1s
$end
$scope module sccomp_tb $end
$var wire 32 ! reg_data [31:0] $end
$var reg 1 " clk $end
$var reg 5 # reg_sel [4:0] $end
$var reg 1 $ rstn $end
$var integer 32 % counter [31:0] $end
$var integer 32 & debug_output [31:0] $end
$var integer 32 ' foutput [31:0] $end
$var integer 32 ( pc_output [31:0] $end
$scope module U_SCCOMP $end
$var wire 1 " clk $end
$var wire 5 ) reg_sel [4:0] $end
$var wire 1 * rst $end
$var wire 1 $ rstn $end
$var wire 32 + reg_data [31:0] $end
$var wire 32 , instr [31:0] $end
$var wire 32 - dm_dout [31:0] $end
$var wire 32 . dm_din [31:0] $end
$var wire 32 / dm_addr [31:0] $end
$var wire 32 0 PC [31:0] $end
$var wire 1 1 MemWrite $end
$var wire 3 2 DMType [2:0] $end
$scope module U_DM $end
$var wire 9 3 addr [8:0] $end
$var wire 1 " clk $end
$var wire 32 4 din [31:0] $end
$var wire 1 1 DMWr $end
$var wire 3 5 DMType [2:0] $end
$var reg 32 6 dout [31:0] $end
$upscope $end
$scope module U_IM $end
$var wire 30 7 addr [31:2] $end
$var wire 32 8 dout [31:0] $end
$upscope $end
$scope module U_SCPU $end
$var wire 3 9 DMType_out [2:0] $end
$var wire 32 : Data_in [31:0] $end
$var wire 32 ; Data_out [31:0] $end
$var wire 2 < GPRSel [1:0] $end
$var wire 1 " clk $end
$var wire 32 = inst_in [31:0] $end
$var wire 1 1 mem_w $end
$var wire 5 > reg_sel [4:0] $end
$var wire 1 * reset $end
$var wire 20 ? uimm [19:0] $end
$var wire 12 @ simm [11:0] $end
$var wire 5 A rs2 [4:0] $end
$var wire 5 B rs1 [4:0] $end
$var wire 32 C reg_data [31:0] $end
$var wire 5 D rd [4:0] $end
$var wire 32 E not_used [31:0] $end
$var wire 20 F jimm [19:0] $end
$var wire 32 G jalr_next [31:0] $end
$var wire 32 H immout [31:0] $end
$var wire 5 I iimm_shamt [4:0] $end
$var wire 12 J iimm [11:0] $end
$var wire 12 K bimm [11:0] $end
$var wire 32 L aluout [31:0] $end
$var wire 32 M alu_B_ID [31:0] $end
$var wire 32 N alu_B [31:0] $end
$var wire 1 O Zero $end
$var wire 2 P WDSel [1:0] $end
$var wire 1 Q RegWrite $end
$var wire 32 R RD2 [31:0] $end
$var wire 32 S RD1 [31:0] $end
$var wire 32 T PC_out [31:0] $end
$var wire 7 U Op [6:0] $end
$var wire 3 V NPCOp [2:0] $end
$var wire 32 W NPC [31:0] $end
$var wire 1 X MemWrite $end
$var wire 12 Y Imm12 [11:0] $end
$var wire 20 Z IMM [19:0] $end
$var wire 7 [ Funct7 [6:0] $end
$var wire 3 \ Funct3 [2:0] $end
$var wire 4 ] ForwardB [3:0] $end
$var wire 4 ^ ForwardA [3:0] $end
$var wire 6 _ EXTOp [5:0] $end
$var wire 3 ` DMType [2:0] $end
$var wire 1 a Can_Branch $end
$var wire 32 b B [31:0] $end
$var wire 32 c Addr_out [31:0] $end
$var wire 1 d ALUSrc $end
$var wire 5 e ALUOp [4:0] $end
$var reg 32 f ALU_A [31:0] $end
$var reg 32 g ALU_A_Btype [31:0] $end
$var reg 32 h ALU_B [31:0] $end
$var reg 32 i ALU_B_Btype [31:0] $end
$var reg 32 j EX_MEM_ALUResult [31:0] $end
$var reg 3 k EX_MEM_DMType [2:0] $end
$var reg 32 l EX_MEM_Inst [31:0] $end
$var reg 1 m EX_MEM_MemWrite $end
$var reg 3 n EX_MEM_NPCOp [2:0] $end
$var reg 32 o EX_MEM_PC [31:0] $end
$var reg 32 p EX_MEM_RD2 [31:0] $end
$var reg 1 q EX_MEM_RegWrite $end
$var reg 2 r EX_MEM_WDSel [1:0] $end
$var reg 5 s EX_MEM_rd [4:0] $end
$var reg 1 t EX_MEM_valid $end
$var reg 5 u ID_EX_ALUOp [4:0] $end
$var reg 1 v ID_EX_ALUSrc $end
$var reg 3 w ID_EX_DMType [2:0] $end
$var reg 32 x ID_EX_Imm [31:0] $end
$var reg 32 y ID_EX_Inst [31:0] $end
$var reg 1 z ID_EX_MemWrite $end
$var reg 3 { ID_EX_NPCOp [2:0] $end
$var reg 32 | ID_EX_PC [31:0] $end
$var reg 32 } ID_EX_RD1 [31:0] $end
$var reg 32 ~ ID_EX_RD2 [31:0] $end
$var reg 1 !" ID_EX_RegWrite $end
$var reg 2 "" ID_EX_WDSel [1:0] $end
$var reg 5 #" ID_EX_rd [4:0] $end
$var reg 5 $" ID_EX_rs1 [4:0] $end
$var reg 5 %" ID_EX_rs2 [4:0] $end
$var reg 1 &" ID_EX_valid $end
$var reg 1 '" IF_Flush $end
$var reg 32 (" IF_ID_Inst [31:0] $end
$var reg 32 )" IF_ID_PC [31:0] $end
$var reg 1 *" IF_ID_valid $end
$var reg 32 +" MEM_WB_ALUResult [31:0] $end
$var reg 32 ," MEM_WB_Inst [31:0] $end
$var reg 32 -" MEM_WB_MemData [31:0] $end
$var reg 1 ." MEM_WB_MemWrite $end
$var reg 32 /" MEM_WB_PC [31:0] $end
$var reg 32 0" MEM_WB_RD2 [31:0] $end
$var reg 1 1" MEM_WB_RegWrite $end
$var reg 2 2" MEM_WB_WDSel [1:0] $end
$var reg 5 3" MEM_WB_rd [4:0] $end
$var reg 1 4" MEM_WB_valid $end
$var reg 32 5" RD1_For_Jalr [31:0] $end
$var reg 3 6" True_NPCOp [2:0] $end
$var reg 32 7" True_PC_for_next [31:0] $end
$var reg 32 8" WD [31:0] $end
$scope module U_EXT $end
$var wire 12 9" bimm [11:0] $end
$var wire 12 :" iimm [11:0] $end
$var wire 5 ;" iimm_shamt [4:0] $end
$var wire 20 <" jimm [19:0] $end
$var wire 12 =" simm [11:0] $end
$var wire 20 >" uimm [19:0] $end
$var wire 6 ?" EXTOp [5:0] $end
$var reg 32 @" immout [31:0] $end
$upscope $end
$scope module U_Forward_unit $end
$var wire 1 A" EX_MEM_ForwardA $end
$var wire 1 B" EX_MEM_ForwardB $end
$var wire 1 q EX_MEM_RegWrite $end
$var wire 5 C" EX_MEM_rd [4:0] $end
$var wire 1 D" ID_EX_ForwardA $end
$var wire 1 E" ID_EX_ForwardB $end
$var wire 5 F" ID_EX_rs1 [4:0] $end
$var wire 5 G" ID_EX_rs2 [4:0] $end
$var wire 1 H" ID_MEM_ForwardA $end
$var wire 1 I" ID_MEM_ForwardB $end
$var wire 1 J" MEM_WB_ForwardA $end
$var wire 1 K" MEM_WB_ForwardB $end
$var wire 1 1" MEM_WB_RegWrite $end
$var wire 5 L" MEM_WB_rd [4:0] $end
$var wire 5 M" rs1 [4:0] $end
$var wire 5 N" rs2 [4:0] $end
$var wire 3 O" NPCOp [2:0] $end
$var wire 4 P" ForwardB [3:0] $end
$var wire 4 Q" ForwardA [3:0] $end
$upscope $end
$scope module U_NPC $end
$var wire 32 R" IMM [31:0] $end
$var wire 3 S" NPCOp [2:0] $end
$var wire 32 T" PC [31:0] $end
$var wire 32 U" aluout [31:0] $end
$var wire 32 V" PCPLUS4 [31:0] $end
$var reg 32 W" NPC [31:0] $end
$upscope $end
$scope module U_PC $end
$var wire 32 X" NPC [31:0] $end
$var wire 1 " clk $end
$var wire 1 * rst $end
$var reg 32 Y" PC [31:0] $end
$upscope $end
$scope module U_RF $end
$var wire 5 Z" A1 [4:0] $end
$var wire 5 [" A2 [4:0] $end
$var wire 5 \" A3 [4:0] $end
$var wire 1 1" RFWr $end
$var wire 32 ]" WD [31:0] $end
$var wire 1 " clk $end
$var wire 5 ^" reg_sel [4:0] $end
$var wire 1 * rst $end
$var wire 32 _" reg_data [31:0] $end
$var wire 32 `" RD2 [31:0] $end
$var wire 32 a" RD1 [31:0] $end
$var integer 32 b" i [31:0] $end
$upscope $end
$scope module U_alu $end
$var wire 32 c" A [31:0] $end
$var wire 5 d" ALUOp [4:0] $end
$var wire 32 e" B [31:0] $end
$var wire 32 f" PC [31:0] $end
$var wire 1 O Zero $end
$var reg 32 g" C [31:0] $end
$upscope $end
$scope module U_alu_Btype $end
$var wire 32 h" A [31:0] $end
$var wire 32 i" B [31:0] $end
$var wire 32 j" PC [31:0] $end
$var wire 1 a Zero $end
$var wire 5 k" ALUOp [4:0] $end
$var reg 32 l" C [31:0] $end
$upscope $end
$scope module U_ctrl $end
$var wire 1 d ALUSrc $end
$var wire 3 m" Funct3 [2:0] $end
$var wire 7 n" Funct7 [6:0] $end
$var wire 2 o" GPRSel [1:0] $end
$var wire 1 X MemWrite $end
$var wire 7 p" Op [6:0] $end
$var wire 1 Q RegWrite $end
$var wire 1 O Zero $end
$var wire 1 q" is_add $end
$var wire 1 r" is_addi $end
$var wire 1 s" is_and $end
$var wire 1 t" is_andi $end
$var wire 1 u" is_beq $end
$var wire 1 v" is_bge $end
$var wire 1 w" is_bgeu $end
$var wire 1 x" is_blt $end
$var wire 1 y" is_bltu $end
$var wire 1 z" is_bne $end
$var wire 1 {" is_lb $end
$var wire 1 |" is_lbu $end
$var wire 1 }" is_lh $end
$var wire 1 ~" is_lhu $end
$var wire 1 !# is_lw $end
$var wire 1 "# is_or $end
$var wire 1 ## is_ori $end
$var wire 1 $# is_sb $end
$var wire 1 %# is_sh $end
$var wire 1 &# is_sll $end
$var wire 1 '# is_slli $end
$var wire 1 (# is_slt $end
$var wire 1 )# is_slti $end
$var wire 1 *# is_sltiu $end
$var wire 1 +# is_sltu $end
$var wire 1 ,# is_sra $end
$var wire 1 -# is_srai $end
$var wire 1 .# is_srl $end
$var wire 1 /# is_srli $end
$var wire 1 0# is_sub $end
$var wire 1 1# is_sw $end
$var wire 1 2# is_xor $end
$var wire 1 3# is_xori $end
$var wire 1 4# is_stype $end
$var wire 1 5# is_sbtype $end
$var wire 1 6# is_rtype $end
$var wire 1 7# is_lui $end
$var wire 1 8# is_jalr $end
$var wire 1 9# is_jal $end
$var wire 1 :# is_itype_r $end
$var wire 1 ;# is_itype_l $end
$var wire 1 <# is_auipc $end
$var wire 2 =# WDSel [1:0] $end
$var wire 3 ># NPCOp [2:0] $end
$var wire 6 ?# EXTOp [5:0] $end
$var wire 3 @# DMType [2:0] $end
$var wire 5 A# ALUOp [4:0] $end
$upscope $end
$upscope $end
$upscope $end
$upscope $end
$enddefinitions $end
$comment Show the parameter values. $end
$dumpall
$end
#0
$dumpvars
bx A#
bx @#
bx ?#
bx >#
bx =#
x<#
x;#
x:#
x9#
x8#
x7#
x6#
x5#
x4#
x3#
x2#
x1#
x0#
x/#
x.#
x-#
x,#
x+#
x*#
x)#
x(#
x'#
x&#
x%#
x$#
x##
x"#
x!#
x~"
x}"
x|"
x{"
xz"
xy"
xx"
xw"
xv"
xu"
xt"
xs"
xr"
xq"
bx p"
bz o"
bx n"
bx m"
bx l"
bx k"
bx j"
bx i"
bx h"
bx g"
bx f"
bx e"
bx d"
bx c"
bx b"
bx a"
bx `"
bx _"
bx ^"
bx ]"
bx \"
bx ["
bx Z"
bx Y"
bx X"
bx W"
bx V"
bx U"
bx T"
bx S"
bx R"
bx Q"
bx P"
bx O"
bx N"
bx M"
bx L"
xK"
xJ"
xI"
xH"
bx G"
bx F"
xE"
xD"
bx C"
xB"
xA"
bx @"
bx ?"
bx >"
bx ="
bx <"
bx ;"
bx :"
bx 9"
bx 8"
bx 7"
bx 6"
bx 5"
x4"
bx 3"
bx 2"
x1"
bx 0"
bx /"
x."
bx -"
bx ,"
bx +"
1*"
bx )"
bx ("
x'"
x&"
bx %"
bx $"
bx #"
bx ""
x!"
bx ~
bx }
bx |
bx {
xz
bx y
bx x
bx w
xv
bx u
xt
bx s
bx r
xq
bx p
bx o
bx n
xm
bx l
bx k
bx j
bx i
bx h
bx g
bx f
bx e
xd
bx c
bx b
xa
bx `
bx _
bx ^
bx ]
bx \
bx [
bx Z
bx Y
xX
bx W
bx V
bx U
bx T
bx S
bx R
xQ
bx P
xO
bx N
bx M
bx L
bx K
bx J
bx I
bx H
bx G
bx F
bx E
bx D
bx C
bx B
bx A
bx @
bx ?
bx >
bx =
bz <
bx ;
bx :
bx 9
bx 8
bx 7
bx 6
bx 5
bx 4
bx 3
bx 2
x1
bx 0
bx /
bx .
bx -
bx ,
bx +
0*
bx )
b1000 (
b10 '
b100 &
b0 %
1$
bx #
1"
bx !
$end
#5
b100 W
b100 W"
b100 X"
b0 6"
b0 S"
b100 V"
b0 7"
b0 T"
b100000000001010010011 ,
b100000000001010010011 8
b100000000001010010011 =
b0 7
b0 0
b0 T
b0 Y"
b100000 b"
1*
0$
#25
0*
1$
#50
0"
#100
b1000 W
b1000 W"
b1000 X"
b1000 V"
b100 7"
b100 T"
0a
b1 E
b1 l"
b1 i
b1 i"
b1 M
b1 b
1Q
1d
b11 e
b11 k"
b11 A#
0I"
0H"
b0xx ]
b0xx P"
0E"
b0xx ^
b0xx Q"
0D"
b0 g
b0 h"
b1 G
b1 U"
b0 5"
b1 H
b1 @"
b1 R"
0'"
0q"
00#
0"#
0s"
02#
0&#
0(#
0+#
0,#
0.#
0'#
0-#
0/#
0!#
0{"
0}"
b0 `
b0 @#
0|"
0~"
1r"
0##
0t"
03#
0)#
0*#
01#
0$#
0%#
0u"
0x"
0y"
0z"
0v"
0w"
b0 S
b0 a"
b1 I
b1 ;"
b1 J
b1 :"
b101 @
b101 ="
b10000000010 K
b10000000010 9"
b100000000 ?
b100000000 >"
b10000000000 F
b10000000000 <"
06#
b0 P
b0 =#
0;#
1:#
0X
04#
05#
b10000 _
b10000 ?"
b10000 ?#
09#
b0 V
b0 O"
b0 >#
08#
07#
0<#
b10011 U
b10011 p"
b0 [
b0 n"
b0 \
b0 m"
b0 B
b0 M"
b0 Z"
b1 A
b1 N"
b1 ["
b101 D
b1 Y
b100000000 Z
b1000000000001100010011 ,
b1000000000001100010011 8
b1000000000001100010011 =
b1 7
1&"
b100000000001010010011 ("
b0 )"
b0 j"
b100 0
b100 T
b100 Y"
b1 %
1"
#150
0"
#200
0O
b1 L
b1 g"
b1100 W
b1100 W"
b1100 X"
b1 h
b1 e"
b0 f
b0 c"
b1100 V"
b1000 7"
b1000 T"
b10 E
b10 l"
b10 i
b10 i"
b10 M
b10 b
b10 G
b10 U"
b10 H
b10 @"
b10 R"
b10 I
b10 ;"
b10 J
b10 :"
b110 @
b110 ="
b11 K
b11 9"
b1000000000 ?
b1000000000 >"
b1 F
b1 <"
b10 A
b10 N"
b10 ["
b110 D
b10 Y
b1000000000 Z
b1 N
b11000101000001110110011 ,
b11000101000001110110011 8
b11000101000001110110011 =
b10 7
b1000000000001100010011 ("
b100 )"
b100 j"
b0 {
0z
b0 w
b0 ""
1!"
1v
b11 u
b11 d"
b101 #"
b1 %"
b1 G"
b0 $"
b0 F"
b1 x
b0 }
b0 |
b0 f"
b100000000001010010011 y
b0 n
1t
b1000 0
b1000 T
b1000 Y"
b10 %
1"
#250
0"
#300
b10 L
b10 g"
b10000 W
b10000 W"
b10000 X"
b10 h
b10 e"
b10000 V"
b1100 7"
b1100 T"
b11 e
b11 k"
b11 A#
b0 _
b0 ?"
b0 ?#
0d
bx i
bx i"
xa
bx E
bx l"
bx M
bx b
1q"
bx 5"
bx g
bx h"
bx G
bx U"
b0 H
b0 @"
b0 R"
0r"
bx S
bx a"
b0x ^
b0x Q"
0A"
b0x ]
b0x P"
0B"
b1 3
b10 N
b110 I
b110 ;"
b110 J
b110 :"
b111 @
b111 ="
b10000000011 K
b10000000011 9"
b11000101000 ?
b11000101000 >"
b10100000000000011 F
b10100000000000011 <"
16#
0:#
b110011 U
b110011 p"
b101 B
b101 M"
b101 Z"
b110 A
b110 N"
b110 ["
b111 D
b110 Y
b11000101000 Z
b11000111000010000110011 ,
b11000111000010000110011 8
b11000111000010000110011 =
b11 7
14"
b0 2
b0 5
b0 9
b0 k
b0 r
01
0m
1q
b101 s
b101 C"
b1 /
b1 c
b1 j
b0 o
b100000000001010010011 l
b110 #"
b10 %"
b10 G"
b10 x
b100 |
b100 f"
b1000000000001100010011 y
b11000101000001110110011 ("
b1000 )"
b1000 j"
b1100 0
b1100 T
b1100 Y"
b11 %
1"
#350
0"
#400
b11 L
b11 g"
b10100 W
b10100 W"
b10100 X"
b10 h
b10 e"
b1 f
b1 c"
b10100 V"
b10000 7"
b10000 T"
1a
b0 E
b0 l"
b0 i
b0 i"
b0 g
b0 h"
b0 G
b0 U"
b0 5"
b0 M
b0 b
1B"
b1 ^
b1 Q"
1J"
b10 ]
b10 P"
0K"
b0 S
b0 a"
b0 R
b0 `"
b1000 @
b1000 ="
b100 K
b100 9"
b11000111000 ?
b11000111000 >"
b11100000000000011 F
b11100000000000011 <"
b111 B
b111 M"
b111 Z"
b1000 D
b11000111000 Z
bx N
b10 3
b1 8"
b1 ]"
b100000000010000000100011 ,
b100000000010000000100011 8
b100000000010000000100011 =
b100 7
b11000111000010000110011 ("
b1100 )"
b1100 j"
0v
b111 #"
b110 %"
b110 G"
b101 $"
b101 F"
b0 x
bx }
b1000 |
b1000 f"
b11000101000001110110011 y
b110 s
b110 C"
b10 /
b10 c
b10 j
b100 o
b1000000000001100010011 l
0."
b0 2"
11"
b101 3"
b101 L"
b101 \"
b1 +"
b0 /"
b100000000001010010011 ,"
b10000 0
b10000 T
b10000 Y"
b100 %
1"
#450
0"
#500
b101 L
b101 g"
b11000 W
b11000 W"
b11000 X"
b10 h
b10 e"
b11 f
b11 c"
b11000 V"
b10100 7"
b10100 T"
1a
b0 E
b0 l"
b11 e
b11 k"
b11 A#
0Q
1d
1K"
0J"
0q"
b10 ^
b10 Q"
1A"
b1 ]
b1 P"
0B"
11#
b10 8"
b10 ]"
b11 3
b0 N
b1000 I
b1000 ;"
b1000 J
b1000 :"
b0 @
b0 ="
b0 K
b0 9"
b100000000010 ?
b100000000010 >"
b1000000000100 F
b1000000000100 <"
06#
b1000 _
b1000 ?"
b1000 ?#
1X
14#
b100011 U
b100011 p"
b10 \
b10 m"
b0 B
b0 M"
b0 Z"
b1000 A
b1000 N"
b1000 ["
b0 D
b1000 Y
b100000000010 Z
b10010010000011 ,
b10010010000011 8
b10010010000011 =
b101 7
b110 3"
b110 L"
b110 \"
b10 +"
b100 /"
b1000000000001100010011 ,"
b111 s
b111 C"
b11 /
b11 c
b11 j
b1000 o
b11000101000001110110011 l
b1000 #"
b111 $"
b111 F"
b0 ~
b0 }
b1100 |
b1100 f"
b11000111000010000110011 y
b100000000010000000100011 ("
b10000 )"
b10000 j"
b10100 0
b10100 T
b10100 Y"
b101 %
1"
#550
0"
#600
b11100 W
b11100 W"
b11100 X"
b101 h
b101 e"
b0 f
b0 c"
b11100 V"
b11000 7"
b11000 T"
b11 e
b11 k"
b11 A#
0K"
1Q
1!#
01#
b10 ]
b10 P"
1B"
b0 ^
b0 Q"
0A"
b0 I
b0 ;"
b0 J
b0 :"
b1001 @
b1001 ="
b10000000100 K
b10000000100 9"
b10 ?
b10 >"
b1000000000000 F
b1000000000000 <"
b1 P
b1 =#
1;#
b10000 _
b10000 ?"
b10000 ?#
0X
04#
b11 U
b11 p"
b0 A
b0 N"
b0 ["
b1001 D
b0 Y
b10 Z
b101 3
b11 8"
b11 ]"
b100100000010001000100011 ,
b100100000010001000100011 8
b100100000010001000100011 =
b110 7
b10010010000011 ("
b10100 )"
b10100 j"
1z
0!"
1v
b0 #"
b1000 %"
b1000 G"
b0 $"
b0 F"
b10000 |
b10000 f"
b100000000010000000100011 y
b1000 s
b1000 C"
b0 .
b0 4
b0 ;
b0 p
b101 /
b101 c
b101 j
b1100 o
b11000111000010000110011 l
b111 3"
b111 L"
b111 \"
b11 +"
b1000 /"
b11000101000001110110011 ,"
b11000 0
b11000 T
b11000 Y"
b110 %
1"
#650
0"
#700
1O
b0 L
b0 g"
b100000 W
b100000 W"
b100000 X"
b0 h
b0 e"
b100000 V"
b11100 7"
b11100 T"
0a
b100 E
b100 l"
b100 i
b100 i"
b100 M
b100 b
b100 G
b100 U"
b100 H
b100 @"
b100 R"
1d
0Q
0!#
11#
b101 8"
b101 ]"
b0 ]
b0 P"
0B"
b1001 I
b1001 ;"
b1001 J
b1001 :"
b100 @
b100 ="
b10 K
b10 9"
b100100000010 ?
b100100000010 >"
b1010000000100 F
b1010000000100 <"
b0 P
b0 =#
0;#
b1000 _
b1000 ?"
b1000 ?#
1X
14#
b100011 U
b100011 p"
b1001 A
b1001 N"
b1001 ["
b100 D
b1001 Y
b100100000010 Z
b10000000010010100000011 ,
b10000000010010100000011 8
b10000000010010100000011 =
b111 7
b0 0"
b1000 3"
b1000 L"
b1000 \"
b101 +"
b1100 /"
b11000111000010000110011 ,"
11
1m
0q
b0 s
b0 C"
b10000 o
b100000000010000000100011 l
0z
b1 ""
1!"
b1001 #"
b0 %"
b0 G"
b10100 |
b10100 f"
b10010010000011 y
b100100000010001000100011 ("
b11000 )"
b11000 j"
b11100 0
b11100 T
b11100 Y"
b111 %
1"
#750
0"
#800
b100100 W
b100100 W"
b100100 X"
b100100 V"
b100000 7"
b100000 T"
b11 e
b11 k"
b11 A#
0a
b100 E
b100 l"
b100 i
b100 i"
b100 M
b100 b
1Q
1!#
b100 G
b100 U"
b100 H
b100 @"
b100 R"
01#
b100 I
b100 ;"
b100 J
b100 :"
b1010 @
b1010 ="
b101 K
b101 9"
b10000000010 ?
b10000000010 >"
b1000000000010 F
b1000000000010 <"
b1 P
b1 =#
1;#
b10000 _
b10000 ?"
b10000 ?#
0X
04#
b11 U
b11 p"
b100 A
b100 N"
b100 ["
b1010 D
b100 Y
b10000000010 Z
b100 N
b10 ]
b10 P"
1B"
b0 3
bx -
bx 6
bx :
b1100000000001010010011 ,
b1100000000001010010011 8
b1100000000001010010011 =
b1000 7
b10000000010010100000011 ("
b11100 )"
b11100 j"
1z
b0 ""
0!"
b100 #"
b1001 %"
b1001 G"
b100 x
b11000 |
b11000 f"
b100100000010001000100011 y
b1 r
01
0m
1q
b1001 s
b1001 C"
b0 /
b0 c
b0 j
b10100 o
b10010010000011 l
1."
01"
b0 3"
b0 L"
b0 \"
b10000 /"
b100000000010000000100011 ,"
b100000 0
b100000 T
b100000 Y"
b1000 %
1"
#850
0"
#900
0O
b100 L
b100 g"
b101000 W
b101000 W"
b101000 X"
b100 h
b100 e"
b101000 V"
b100100 7"
b100100 T"
0a
b11 E
b11 l"
b11 i
b11 i"
1d
b11 M
b11 b
b11 G
b11 U"
b11 H
b11 @"
b11 R"
1Q
0!#
1r"
bx 8"
bx ]"
b0 ]
b0 P"
0B"
b11 I
b11 ;"
b11 J
b11 :"
b101 @
b101 ="
b10000000010 K
b10000000010 9"
b1100000000 ?
b1100000000 >"
b10000000001 F
b10000000001 <"
b0 P
b0 =#
0;#
1:#
b10011 U
b10011 p"
b0 \
b0 m"
b11 A
b11 N"
b11 ["
b101 D
b11 Y
b1100000000 Z
b1100000000001100010011 ,
b1100000000001100010011 8
b1100000000001100010011 =
b1001 7
0."
b1 2"
11"
b1001 3"
b1001 L"
b1001 \"
b0 +"
b10100 /"
b10010010000011 ,"
b0 r
11
1m
0q
b100 s
b100 C"
b11000 o
b100100000010001000100011 l
0z
b1 ""
1!"
b1010 #"
b100 %"
b100 G"
b11100 |
b11100 f"
b10000000010010100000011 y
b1100000000001010010011 ("
b100000 )"
b100000 j"
b100100 0
b100100 T
b100100 Y"
b1001 %
1"
#950
0"
#1000
b11 L
b11 g"
b101100 W
b101100 W"
b101100 X"
b11 h
b11 e"
b101100 V"
b101000 7"
b101000 T"
b110 @
b110 ="
b11 K
b11 9"
b110 D
b11 N
b100 3
b0 8"
b0 ]"
b0xxxxxxxx -
b0xxxxxxxx 6
b0xxxxxxxx :
b10011 ,
b10011 8
b10011 =
b1010 7
b1100000000001100010011 ("
b100100 )"
b100100 j"
b0 ""
b101 #"
b11 %"
b11 G"
b11 x
b100000 |
b100000 f"
b1100000000001010010011 y
b1 r
01
0m
1q
b1010 s
b1010 C"
b100 /
b100 c
b100 j
b11100 o
b10000000010010100000011 l
1."
b0 2"
01"
b100 3"
b100 L"
b100 \"
b11000 /"
b100100000010001000100011 ,"
b101000 0
b101000 T
b101000 Y"
b1010 %
1"
#1025
b11 !
b11 +
b11 C
b11 _"
b111 #
b111 )
b111 >
b111 ^"
#1050
0"
#1100
b110000 W
b110000 W"
b110000 X"
b110000 V"
b101100 7"
b101100 T"
1a
b0 E
b0 l"
b0 i
b0 i"
b0 M
b0 b
b0xxxxxxxx00000000 -
b0xxxxxxxx00000000 6
b0xxxxxxxx00000000 :
b0 G
b0 U"
b0 H
b0 @"
b0 R"
b0xxxxxxxx 8"
b0xxxxxxxx ]"
b11 3
b0 I
b0 ;"
b0 J
b0 :"
b0 @
b0 ="
b0 K
b0 9"
b0 ?
b0 >"
b0 F
b0 <"
b0 A
b0 N"
b0 ["
b0 D
b0 Y
b0 Z
b11000101000011001100011 ,
b11000101000011001100011 8
b11000101000011001100011 =
b1011 7
0."
b1 2"
11"
b1010 3"
b1010 L"
b1010 \"
b100 +"
b0xxxxxxxx -"
b11100 /"
b10000000010010100000011 ,"
b0 r
b101 s
b101 C"
b11 /
b11 c
b11 j
b100000 o
b1100000000001010010011 l
b110 #"
b100100 |
b100100 f"
b1100000000001100010011 y
b10011 ("
b101000 )"
b101000 j"
b101100 0
b101100 T
b101100 Y"
b1011 %
1"
#1150
0"
#1200
1O
b0 L
b0 g"
b111000 W
b111000 W"
b111000 X"
b1 6"
b1 S"
b0 h
b0 e"
b110000 V"
b101100 7"
b101100 T"
1a
b0 E
b0 l"
b100 _
b100 ?"
b100 ?#
0d
0Q
b100 ^
b100 Q"
1H"
b11 i
b11 i"
b1000 ]
b1000 P"
1E"
b10 M
b10 b
b100 e
b100 k"
b100 A#
b11 g
b11 h"
b11 5"
b1111 G
b1111 U"
b1100 H
b1100 @"
b1100 R"
0r"
1'"
1u"
b11 S
b11 a"
b10 R
b10 `"
b110 I
b110 ;"
b110 J
b110 :"
b1100 @
b1100 ="
b110 K
b110 9"
b11000101000 ?
b11000101000 >"
b10100000000000011 F
b10100000000000011 <"
0:#
b1 V
b1 O"
b1 >#
15#
b1100011 U
b1100011 p"
b101 B
b101 M"
b101 Z"
b110 A
b110 N"
b110 ["
b1100 D
b110 Y
b11000101000 Z
b0 N
b11 8"
b11 ]"
b101000000000010100010011 ,
b101000000000010100010011 8
b101000000000010100010011 =
b1100 7
b11000101000011001100011 ("
b101100 )"
b101100 j"
b0 #"
b0 %"
b0 G"
b0 x
b101000 |
b101000 f"
b10011 y
b110 s
b110 C"
b100100 o
b1100000000001100010011 l
b0 2"
b101 3"
b101 L"
b101 \"
b11 +"
b0xxxxxxxx00000000 -"
b100000 /"
b1100000000001010010011 ,"
b110000 0
b110000 T
b110000 Y"
b1100 %
1"
#1250
0"
#1300
b11 h
b11 e"
b0 6"
b0 S"
b11 f
b11 c"
b111100 V"
b111000 7"
b111000 T"
1d
1Q
b0 g
b0 h"
b0 5"
b0 ^
b0 Q"
0H"
1K"
b1 ]
b1 P"
0E"
b111100 W
b111100 W"
b111100 X"
b11 e
b11 k"
b11 A#
b0 M
b0 b
1a
b0 E
b0 l"
b0 -
b0 6
b0 :
b0 G
b0 U"
b0 H
b0 @"
b0 R"
1r"
0'"
b10000 _
b10000 ?"
b10000 ?#
0u"
b0 S
b0 a"
b0 R
b0 `"
b0 i
b0 i"
b0 3
b10 N
b0 I
b0 ;"
b0 J
b0 :"
b0 @
b0 ="
b0 K
b0 9"
b0 ?
b0 >"
b0 F
b0 <"
1:#
b0 V
b0 O"
b0 >#
05#
b10011 U
b10011 p"
b0 B
b0 M"
b0 Z"
b0 A
b0 N"
b0 ["
b0 D
b0 Y
b0 Z
b11010000000000010110010011 ,
b11010000000000010110010011 8
b11010000000000010110010011 =
b1110 7
b110 3"
b110 L"
b110 \"
b100100 /"
b1100000000001100010011 ,"
b0 s
b0 C"
b1 n
b0 /
b0 c
b0 j
b101000 o
b10011 l
b1 {
0!"
0v
b100 u
b100 d"
b1100 #"
b110 %"
b110 G"
b101 $"
b101 F"
b1100 x
b10 ~
b11 }
b101100 |
b101100 f"
b11000101000011001100011 y
b10011 ("
b11111111111111111111111111111111 )"
b11111111111111111111111111111111 j"
b111000 0
b111000 T
b111000 Y"
b1101 %
1"
#1350
0"
#1400
b1000000 W
b1000000 W"
b1000000 X"
b0 h
b0 e"
b0 f
b0 c"
b1000000 V"
b111100 7"
b111100 T"
0a
b110100 E
b110100 l"
b110100 i
b110100 i"
b110100 M
b110100 b
b0 ]
b0 P"
0K"
b110100 G
b110100 U"
b110100 H
b110100 @"
b110100 R"
b10100 I
b10100 ;"
b110100 J
b110100 :"
b101011 @
b101011 ="
b10000010101 K
b10000010101 9"
b11010000000000 ?
b11010000000000 >"
b11010 F
b11010 <"
b1 [
b1 n"
b10100 A
b10100 N"
b10100 ["
b1011 D
b110100 Y
b11010000000000 Z
b0 N
1O
b0 L
b0 g"
b0 8"
b0 ]"
b10011 ,
b10011 8
b10011 =
b1111 7
b11010000000000010110010011 ("
b111000 )"
b111000 j"
b0 {
1!"
1v
b11 u
b11 d"
b0 #"
b0 %"
b0 G"
b0 $"
b0 F"
b0 x
b0 ~
b0 }
b11111111111111111111111111111111 |
b11111111111111111111111111111111 f"
b10011 y
0q
b1100 s
b1100 C"
b10 .
b10 4
b10 ;
b10 p
b0 n
b101100 o
b11000101000011001100011 l
b0 3"
b0 L"
b0 \"
b0 +"
b0 -"
b101000 /"
b10011 ,"
b111100 0
b111100 T
b111100 Y"
b1110 %
1"
#1450
0"
