a.vcd
$date
	Thu Jun 26 16:14:15 2025
$end
$version
	Icarus Verilog
$end
$timescale
	1s
$end
$scope module sccomp_tb $end
$var wire 32 ! reg_data [31:0] $end
$var reg 1 " clk $end
$var reg 5 # reg_sel [4:0] $end
$var reg 1 $ rstn $end
$var integer 32 % counter [31:0] $end
$var integer 32 & debug_output [31:0] $end
$var integer 32 ' foutput [31:0] $end
$scope module U_SCCOMP $end
$var wire 1 " clk $end
$var wire 5 ( reg_sel [4:0] $end
$var wire 1 ) rst $end
$var wire 1 $ rstn $end
$var wire 32 * reg_data [31:0] $end
$var wire 32 + instr [31:0] $end
$var wire 32 , dm_dout [31:0] $end
$var wire 32 - dm_din [31:0] $end
$var wire 32 . dm_addr [31:0] $end
$var wire 32 / PC [31:0] $end
$var wire 1 0 MemWrite $end
$var wire 3 1 DMType [2:0] $end
$scope module U_DM $end
$var wire 7 2 addr [8:2] $end
$var wire 1 " clk $end
$var wire 32 3 word [31:0] $end
$var wire 32 4 din [31:0] $end
$var wire 1 0 DMWr $end
$var wire 3 5 DMType [2:0] $end
$var reg 32 6 dout [31:0] $end
$upscope $end
$scope module U_IM $end
$var wire 7 7 addr [8:2] $end
$var wire 32 8 dout [31:0] $end
$upscope $end
$scope module U_SCPU $end
$var wire 3 9 DMType_out [2:0] $end
$var wire 32 : Data_in [31:0] $end
$var wire 32 ; Data_out [31:0] $end
$var wire 2 < GPRSel [1:0] $end
$var wire 1 " clk $end
$var wire 32 = inst_in [31:0] $end
$var wire 1 0 mem_w $end
$var wire 5 > reg_sel [4:0] $end
$var wire 1 ) reset $end
$var wire 20 ? uimm [19:0] $end
$var wire 12 @ simm [11:0] $end
$var wire 5 A rs2 [4:0] $end
$var wire 5 B rs1 [4:0] $end
$var wire 32 C reg_data [31:0] $end
$var wire 5 D rd [4:0] $end
$var wire 20 E jimm [19:0] $end
$var wire 32 F immout [31:0] $end
$var wire 5 G iimm_shamt [4:0] $end
$var wire 12 H iimm [11:0] $end
$var wire 12 I bimm [11:0] $end
$var wire 32 J aluout [31:0] $end
$var wire 32 K alu_B [31:0] $end
$var wire 1 L Zero $end
$var wire 2 M WDSel [1:0] $end
$var wire 1 N RegWrite $end
$var wire 32 O RD2 [31:0] $end
$var wire 32 P RD1 [31:0] $end
$var wire 32 Q PC_out [31:0] $end
$var wire 7 R Op [6:0] $end
$var wire 3 S NPCOp [2:0] $end
$var wire 32 T NPC [31:0] $end
$var wire 1 U MemWrite $end
$var wire 12 V Imm12 [11:0] $end
$var wire 20 W IMM [19:0] $end
$var wire 7 X Funct7 [6:0] $end
$var wire 3 Y Funct3 [2:0] $end
$var wire 6 Z EXTOp [5:0] $end
$var wire 3 [ DMType [2:0] $end
$var wire 32 \ B [31:0] $end
$var wire 32 ] Addr_out [31:0] $end
$var wire 1 ^ ALUSrc $end
$var wire 5 _ ALUOp [4:0] $end
$var reg 32 ` EX_MEM_ALUResult [31:0] $end
$var reg 3 a EX_MEM_DMType [2:0] $end
$var reg 1 b EX_MEM_MemWrite $end
$var reg 32 c EX_MEM_PC [31:0] $end
$var reg 32 d EX_MEM_RD2 [31:0] $end
$var reg 1 e EX_MEM_RegWrite $end
$var reg 2 f EX_MEM_WDSel [1:0] $end
$var reg 5 g EX_MEM_rd [4:0] $end
$var reg 1 h EX_MEM_valid $end
$var reg 5 i ID_EX_ALUOp [4:0] $end
$var reg 1 j ID_EX_ALUSrc $end
$var reg 3 k ID_EX_DMType [2:0] $end
$var reg 32 l ID_EX_Imm [31:0] $end
$var reg 1 m ID_EX_MemWrite $end
$var reg 32 n ID_EX_PC [31:0] $end
$var reg 32 o ID_EX_RD1 [31:0] $end
$var reg 32 p ID_EX_RD2 [31:0] $end
$var reg 1 q ID_EX_RegWrite $end
$var reg 2 r ID_EX_WDSel [1:0] $end
$var reg 5 s ID_EX_rd [4:0] $end
$var reg 5 t ID_EX_rs1 [4:0] $end
$var reg 5 u ID_EX_rs2 [4:0] $end
$var reg 1 v ID_EX_valid $end
$var reg 32 w IF_ID_Inst [31:0] $end
$var reg 32 x IF_ID_PC [31:0] $end
$var reg 1 y IF_ID_valid $end
$var reg 32 z MEM_WB_ALUResult [31:0] $end
$var reg 32 { MEM_WB_MemData [31:0] $end
$var reg 1 | MEM_WB_MemWrite $end
$var reg 32 } MEM_WB_PC [31:0] $end
$var reg 32 ~ MEM_WB_RD2 [31:0] $end
$var reg 1 !" MEM_WB_RegWrite $end
$var reg 2 "" MEM_WB_WDSel [1:0] $end
$var reg 5 #" MEM_WB_rd [4:0] $end
$var reg 1 $" MEM_WB_valid $end
$var reg 32 %" WD [31:0] $end
$scope module U_EXT $end
$var wire 12 &" bimm [11:0] $end
$var wire 12 '" iimm [11:0] $end
$var wire 5 (" iimm_shamt [4:0] $end
$var wire 20 )" jimm [19:0] $end
$var wire 12 *" simm [11:0] $end
$var wire 20 +" uimm [19:0] $end
$var wire 6 ," EXTOp [5:0] $end
$var reg 32 -" immout [31:0] $end
$upscope $end
$scope module U_NPC $end
$var wire 32 ." IMM [31:0] $end
$var wire 32 /" aluout [31:0] $end
$var wire 32 0" PCPLUS4 [31:0] $end
$var wire 32 1" PC [31:0] $end
$var wire 3 2" NPCOp [2:0] $end
$var reg 32 3" NPC [31:0] $end
$upscope $end
$scope module U_PC $end
$var wire 32 4" NPC [31:0] $end
$var wire 1 " clk $end
$var wire 1 ) rst $end
$var reg 32 5" PC [31:0] $end
$upscope $end
$scope module U_RF $end
$var wire 5 6" A1 [4:0] $end
$var wire 5 7" A2 [4:0] $end
$var wire 5 8" A3 [4:0] $end
$var wire 1 !" RFWr $end
$var wire 32 9" WD [31:0] $end
$var wire 1 " clk $end
$var wire 5 :" reg_sel [4:0] $end
$var wire 1 ) rst $end
$var wire 32 ;" reg_data [31:0] $end
$var wire 32 <" RD2 [31:0] $end
$var wire 32 =" RD1 [31:0] $end
$var integer 32 >" i [31:0] $end
$upscope $end
$scope module U_alu $end
$var wire 32 ?" A [31:0] $end
$var wire 5 @" ALUOp [4:0] $end
$var wire 32 A" B [31:0] $end
$var wire 32 B" PC [31:0] $end
$var wire 1 L Zero $end
$var reg 32 C" C [31:0] $end
$upscope $end
$scope module U_ctrl $end
$var wire 1 ^ ALUSrc $end
$var wire 3 D" Funct3 [2:0] $end
$var wire 7 E" Funct7 [6:0] $end
$var wire 2 F" GPRSel [1:0] $end
$var wire 1 U MemWrite $end
$var wire 7 G" Op [6:0] $end
$var wire 1 N RegWrite $end
$var wire 1 L Zero $end
$var wire 1 H" i_add $end
$var wire 1 I" i_addi $end
$var wire 1 J" i_and $end
$var wire 1 K" i_beq $end
$var wire 1 L" i_jal $end
$var wire 1 M" i_jalr $end
$var wire 1 N" i_or $end
$var wire 1 O" i_ori $end
$var wire 1 P" i_sub $end
$var wire 1 Q" i_sw $end
$var wire 1 R" itype_l $end
$var wire 1 S" itype_r $end
$var wire 1 T" lb $end
$var wire 1 U" lbu $end
$var wire 1 V" lh $end
$var wire 1 W" lhu $end
$var wire 1 X" lw $end
$var wire 1 Y" rtype $end
$var wire 1 Z" sb $end
$var wire 1 [" sbtype $end
$var wire 1 \" sh $end
$var wire 1 ]" stype $end
$var wire 1 ^" sw $end
$var wire 1 _" lui $end
$var wire 1 `" auipc $end
$var wire 2 a" WDSel [1:0] $end
$var wire 3 b" NPCOp [2:0] $end
$var wire 6 c" EXTOp [5:0] $end
$var wire 3 d" DMType [2:0] $end
$var wire 5 e" ALUOp [4:0] $end
$upscope $end
$upscope $end
$upscope $end
$upscope $end
$enddefinitions $end
$comment Show the parameter values. $end
$dumpall
$end
#0
$dumpvars
b0xxxx e"
bx d"
b0xxxxx c"
bx b"
bx a"
x`"
x_"
x^"
x]"
x\"
x["
xZ"
xY"
xX"
xW"
xV"
xU"
xT"
xS"
xR"
xQ"
xP"
xO"
xN"
xM"
xL"
xK"
xJ"
xI"
xH"
bx G"
bz F"
bx E"
bx D"
bx C"
bx B"
bx A"
b0xxxx @"
bx ?"
bx >"
bx ="
bx <"
bx ;"
bx :"
bx 9"
bx 8"
bx 7"
bx 6"
bx 5"
bx 4"
bx 3"
bx 2"
bx 1"
bx 0"
bx /"
b0 ."
b0 -"
b0xxxxx ,"
bx +"
bx *"
bx )"
bx ("
bx '"
bx &"
bx %"
x$"
bx #"
bx ""
x!"
bx ~
bx }
x|
bx {
bx z
1y
bx x
bx w
xv
bx u
bx t
bx s
bx r
xq
bx p
bx o
bx n
xm
b0 l
bx k
xj
b0xxxx i
xh
bx g
bx f
xe
bx d
bx c
xb
bx a
bx `
b0xxxx _
x^
bx ]
bx \
bx [
b0xxxxx Z
bx Y
bx X
bx W
bx V
xU
bx T
bx S
bx R
bx Q
bx P
bx O
xN
bx M
xL
bx K
bx J
bx I
bx H
bx G
b0 F
bx E
bx D
bx C
bx B
bx A
bx @
bx ?
bx >
bx =
bz <
bx ;
bx :
bx 9
bx 8
bx 7
bx 6
bx 5
bx 4
bx 3
bx 2
bx 1
x0
bx /
bx .
bx -
bx ,
bx +
bx *
0)
bx (
b10 '
b100 &
b0 %
1$
bx #
1"
bx !
$end
#5
b11110001111100101111001010110111 +
b11110001111100101111001010110111 8
b11110001111100101111001010110111 =
b0 7
b100 T
b100 3"
b100 4"
b100 0"
b0 /
b0 Q
b0 1"
b0 5"
b100000 >"
1)
0$
#25
0)
1$
#50
0"
#100
0J"
0M"
b11110001111100101111000000000000 F
b11110001111100101111000000000000 -"
b11110001111100101111000000000000 ."
0Y"
b0 M
b0 a"
0R"
0S"
0U
0]"
0["
b0 S
b0 2"
b0 b"
0L"
0H"
0P"
0N"
0I"
0O"
0Q"
0K"
1^
1N
b11110001111100101111000000000000 \
b1 _
b1 e"
b10 Z
b10 ,"
b10 c"
0X"
0T"
0V"
b0 [
b0 d"
0U"
0W"
0^"
0Z"
0\"
b0 P
b0 ="
b0 O
b0 <"
b11111 G
b11111 ("
b111100011111 H
b111100011111 '"
b111100000101 @
b111100000101 *"
b111110000010 I
b111110000010 &"
b11110001111100101111 ?
b11110001111100101111 +"
b10010111111110001111 E
b10010111111110001111 )"
1_"
0`"
b110111 R
b110111 G"
b1111000 X
b1111000 E"
b111 Y
b111 D"
b101 B
b101 6"
b11111 A
b11111 7"
b101 D
b111100011111 V
b11110001111100101111 W
b110001100010111 +
b110001100010111 8
b110001100010111 =
b1 7
b1000 T
b1000 3"
b1000 4"
1v
b11110001111100101111001010110111 w
b0 x
b1000 0"
b100 /
b100 Q
b100 1"
b100 5"
b1 %
1"
#150
0"
#200
b110000000000000 \
b110000000000000 F
b110000000000000 -"
b110000000000000 ."
b10 _
b10 e"
0L
b11110001111100101111000000000000 J
b11110001111100101111000000000000 /"
b11110001111100101111000000000000 C"
b0 G
b0 ("
b0 H
b0 '"
b110 @
b110 *"
b11 I
b11 &"
b110 ?
b110 +"
b11000000000000 E
b11000000000000 )"
0_"
1`"
b10111 R
b10111 G"
b0 X
b0 E"
b110 Y
b110 D"
b0 B
b0 6"
b0 A
b0 7"
b110 D
b0 V
b110 W
b11110001111100101111000000000000 K
b11110001111100101111000000000000 A"
b10011 +
b10011 8
b10011 =
b10 7
b1100 T
b1100 3"
b1100 4"
b110001100010111 w
b100 x
0m
b0 k
b0 r
1q
1j
b1 i
b1 @"
b101 s
b11111 u
b101 t
b11110001111100101111000000000000 l
b0 p
b0 o
b0 ?"
b0 n
b0 B"
1h
b1100 0"
b1000 /
b1000 Q
b1000 1"
b1000 5"
b10 %
1"
#250
0"
#300
1I"
1S"
b0 \
b0 F
b0 -"
b0 ."
b11 _
b11 e"
b10000 Z
b10000 ,"
b10000 c"
1^
1N
b110000000000000 K
b110000000000000 A"
b110000000000100 J
b110000000000100 /"
b110000000000100 C"
b0 @
b0 *"
b0 I
b0 &"
b0 ?
b0 +"
b0 E
b0 )"
0`"
b10011 R
b10011 G"
b0 Y
b0 D"
b0 D
b0 W
b11 7
b10000 T
b10000 3"
b10000 4"
1$"
b0 1
b0 5
b0 9
b0 a
b0 f
0b
1e
b101 g
b0 d
b11110001111100101111000000000000 `
b0 c
b10 i
b10 @"
b110 s
b0 u
b0 t
b110000000000000 l
b100 n
b100 B"
b10011 w
b1000 x
b10000 0"
b1100 /
b1100 Q
b1100 1"
b1100 5"
b11 %
1"
#350
0"
#400
1L
b0 K
b0 A"
b0 J
b0 /"
b0 C"
b0 2
b11110001111100101111000000000000 %"
b11110001111100101111000000000000 9"
b100 7
b10100 T
b10100 3"
b10100 4"
b1100 x
b11 i
b11 @"
b0 s
b0 l
b1000 n
b1000 B"
b110 g
b110000000000100 `
b100 c
00
0|
b0 ""
1!"
b0 -
b0 4
b0 ;
b0 ~
b101 #"
b101 8"
b11110001111100101111000000000000 .
b11110001111100101111000000000000 ]
b11110001111100101111000000000000 z
b0 }
b10100 0"
b10000 /
b10000 Q
b10000 1"
b10000 5"
b100 %
1"
#450
0"
#500
b1 2
b110000000000100 %"
b110000000000100 9"
b111111010000101000001010010011 +
b111111010000101000001010010011 8
b111111010000101000001010010011 =
b101 7
b11000 T
b11000 3"
b11000 4"
b110 #"
b110 8"
b110000000000100 .
b110000000000100 ]
b110000000000100 z
b100 }
b0 g
b0 `
b1000 c
b1100 n
b1100 B"
b10000 x
b11000 0"
b10100 /
b10100 Q
b10100 1"
b10100 5"
b101 %
1"
#550
0"
#600
b1111110100 \
b1111110100 F
b1111110100 -"
b1111110100 ."
b11110001111100101111000000000000 P
b11110001111100101111000000000000 ="
b10100 G
b10100 ("
b1111110100 H
b1111110100 '"
b1111100101 @
b1111100101 *"
b10111110010 I
b10111110010 &"
b111111010000101000 ?
b111111010000101000 +"
b10100000111111010 E
b10100000111111010 )"
b11111 X
b11111 E"
b101 B
b101 6"
b10100 A
b10100 7"
b101 D
b1111110100 V
b111111010000101000 W
b0 2
b0 %"
b0 9"
b10011 +
b10011 8
b10011 =
b110 7
b11100 T
b11100 3"
b11100 4"
b111111010000101000001010010011 w
b10100 x
b10000 n
b10000 B"
b1100 c
b0 #"
b0 8"
b0 .
b0 ]
b0 z
b1000 }
b11100 0"
b11000 /
b11000 Q
b11000 1"
b11000 5"
b110 %
1"
#650
0"
#700
b0 \
b0 F
b0 -"
b0 ."
b0 P
b0 ="
b1111110100 K
b1111110100 A"
0L
b11110001111100101111001111110100 J
b11110001111100101111001111110100 /"
b11110001111100101111001111110100 C"
b0 G
b0 ("
b0 H
b0 '"
b0 @
b0 *"
b0 I
b0 &"
b0 ?
b0 +"
b0 E
b0 )"
b0 X
b0 E"
b0 B
b0 6"
b0 A
b0 7"
b0 D
b0 V
b0 W
b111 7
b100000 T
b100000 3"
b100000 4"
b1100 }
b10000 c
b101 s
b10100 u
b101 t
b1111110100 l
b11110001111100101111000000000000 o
b11110001111100101111000000000000 ?"
b10100 n
b10100 B"
b10011 w
b11000 x
b100000 0"
b11100 /
b11100 Q
b11100 1"
b11100 5"
b111 %
1"
#750
0"
#800
1L
b0 K
b0 A"
b0 J
b0 /"
b0 C"
b1000 7
b100100 T
b100100 3"
b100100 4"
b11100 x
b0 s
b0 u
b0 t
b0 l
b0 o
b0 ?"
b11000 n
b11000 B"
b101 g
b11110001111100101111001111110100 `
b10100 c
b10000 }
b100100 0"
b100000 /
b100000 Q
b100000 1"
b100000 5"
b1000 %
1"
#850
0"
#900
b1111101 2
b11110001111100101111001111110100 %"
b11110001111100101111001111110100 9"
b1001 7
b101000 T
b101000 3"
b101000 4"
b101 #"
b101 8"
b11110001111100101111001111110100 .
b11110001111100101111001111110100 ]
b11110001111100101111001111110100 z
b10100 }
b0 g
b0 `
b11000 c
b11100 n
b11100 B"
b100000 x
b101000 0"
b100100 /
b100100 Q
b100100 1"
b100100 5"
b1001 %
1"
#950
0"
#1000
b0 2
b0 %"
b0 9"
b10100000000000000100011 +
b10100000000000000100011 8
b10100000000000000100011 =
b1010 7
b101100 T
b101100 3"
b101100 4"
b100100 x
b100000 n
b100000 B"
b11100 c
b0 #"
b0 8"
b0 .
b0 ]
b0 z
b11000 }
b101100 0"
b101000 /
b101000 Q
b101000 1"
b101000 5"
b1010 %
1"
#1025
b0 !
b0 *
b0 C
b0 ;"
b111 #
b111 (
b111 >
b111 :"
#1050
0"
#1100
0N
b11 [
b11 d"
0I"
0T"
1Z"
b0 M
b0 a"
0R"
1U
b1000 Z
b1000 ,"
b1000 c"
1]"
0S"
b0 \
b0 F
b0 -"
b0 ."
b11110001111100101111001111110100 O
b11110001111100101111001111110100 <"
b101 G
b101 ("
b101 H
b101 '"
b10100000000 ?
b10100000000 +"
b10000000010 E
b10000000010 )"
b100011 R
b100011 G"
b101 A
b101 7"
b101 V
b10100000000 W
b10100000000000010100011 +
b10100000000000010100011 8
b10100000000000010100011 =
b1011 7
b110000 T
b110000 3"
b110000 4"
b11100 }
b100000 c
b100100 n
b100100 B"
b10100000000000000100011 w
b101000 x
b110000 0"
b101100 /
b101100 Q
b101100 1"
b101100 5"
b1011 %
1"
#1150
0"
#1200
b1 \
b1 F
b1 -"
b1 ."
b1 @
b1 *"
b10000000000 I
b10000000000 &"
b1 D
b10100000001000100100011 +
b10100000001000100100011 8
b10100000001000100100011 =
b1100 7
b110100 T
b110100 3"
b110100 4"
b10100000000000010100011 w
b101100 x
1m
b11 k
0q
b101 u
b11110001111100101111001111110100 p
b101000 n
b101000 B"
b100100 c
b100000 }
b110100 0"
b110000 /
b110000 Q
b110000 1"
b110000 5"
b1100 %
1"
#1250
0"
#1300
b1 [
b1 d"
b10 \
0L
b1 J
b1 /"
b1 C"
b10 F
b10 -"
b10 ."
0Z"
1\"
b1 K
b1 A"
b10 @
b10 *"
b1 I
b1 &"
b10100000001 ?
b10100000001 +"
b110000000010 E
b110000000010 )"
b1 Y
b1 D"
b10 D
b10100000001 W
b10100000010001000100011 +
b10100000010001000100011 8
b10100000010001000100011 =
b1101 7
b111000 T
b111000 3"
b111000 4"
b100100 }
b11 1
b11 5
b11 9
b11 a
1b
0e
b11110001111100101111001111110100 d
b101000 c
b1 s
b1 l
b101100 n
b101100 B"
b10100000001000100100011 w
b110000 x
b111000 0"
b110100 /
b110100 Q
b110100 1"
b110100 5"
b1101 %
1"
#1350
0"
#1400
b0 [
b0 d"
1Q"
b100 \
b100 F
b100 -"
b100 ."
1^"
0\"
b10 J
b10 /"
b10 C"
b100 @
b100 *"
b10 I
b10 &"
b10100000010 ?
b10100000010 +"
b1010000000010 E
b1010000000010 )"
b10 Y
b10 D"
b100 D
b10100000010 W
b10 K
b10 A"
b10011 +
b10011 8
b10011 =
b1110 7
b111100 T
b111100 3"
b111100 4"
b10100000010001000100011 w
b110100 x
b1 k
b10 s
b10 l
b110000 n
b110000 B"
b1 g
b1 `
b101100 c
10
1|
0!"
b11110001111100101111001111110100 -
b11110001111100101111001111110100 4
b11110001111100101111001111110100 ;
b11110001111100101111001111110100 ~
b101000 }
b111100 0"
b111000 /
b111000 Q
b111000 1"
b111000 5"
b1110 %
1"
#1450
0"
#1500
0H"
1^
b11 _
b11 e"
1N
1I"
1S"
0U
b10000 Z
b10000 ,"
b10000 c"
0]"
0Y"
0Q"
b0 [
b0 d"
b0 \
b100 J
b100 /"
b100 C"
b0 F
b0 -"
b0 ."
0^"
0Z"
b0 O
b0 <"
b1 %"
b1 9"
b100 K
b100 A"
b0 G
b0 ("
b0 H
b0 '"
b0 @
b0 *"
b0 I
b0 &"
b0 ?
b0 +"
b0 E
b0 )"
b10011 R
b10011 G"
b0 Y
b0 D"
b0 A
b0 7"
b0 D
b0 V
b0 W
b1111 7
b1000000 T
b1000000 3"
b1000000 4"
b11110100xxxxxxxxxxxxxxxxxxxxxxxx 3
b1 #"
b1 8"
b1 .
b1 ]
b1 z
b101100 }
b1 1
b1 5
b1 9
b1 a
b10 g
b10 `
b110000 c
b0 k
b100 s
b100 l
b110100 n
b110100 B"
b10011 w
b111000 x
b1000000 0"
b111100 /
b111100 Q
b111100 1"
b111100 5"
b1111 %
1"
#1550
0"
#1600
1L
b0 J
b0 /"
b0 C"
b0 K
b0 A"
b10 %"
b10 9"
b1111001111110100xxxxxxxxxxxxxxxx ,
b1111001111110100xxxxxxxxxxxxxxxx 6
b1111001111110100xxxxxxxxxxxxxxxx :
b10000 7
b1000100 T
b1000100 3"
b1000100 4"
b111100 x
0m
1q
b0 s
b0 u
b0 l
b0 p
b111000 n
b111000 B"
b0 1
b0 5
b0 9
b0 a
b100 g
b100 `
b110100 c
b10 #"
b10 8"
b10 .
b10 ]
b10 z
b110000 }
b1111001111110100xxxxxxxxxxxxxxxx 3
b1000100 0"
b1000000 /
b1000000 Q
b1000000 1"
b1000000 5"
b10000 %
1"
#1650
0"
#1700
bx ,
bx 6
bx :
b1 2
b100 %"
b100 9"
b10001 7
b1001000 T
b1001000 3"
b1001000 4"
bx 3
b100 #"
b100 8"
b100 .
b100 ]
b100 z
b1111001111110100xxxxxxxxxxxxxxxx {
b110100 }
0b
1e
b0 g
b0 d
b0 `
b111000 c
b111100 n
b111100 B"
b1000000 x
b1001000 0"
b1000100 /
b1000100 Q
b1000100 1"
b1000100 5"
b10001 %
1"
#1750
0"
#1800
b0 2
b0 %"
b0 9"
b11110001111100101111001111110100 ,
b11110001111100101111001111110100 6
b11110001111100101111001111110100 :
b10000000000001110000011 +
b10000000000001110000011 8
b10000000000001110000011 =
b10010 7
b1001100 T
b1001100 3"
b1001100 4"
b1000100 x
b1000000 n
b1000000 B"
b111100 c
00
0|
1!"
b0 -
b0 4
b0 ;
b0 ~
b0 #"
b0 8"
b0 .
b0 ]
b0 z
bx {
b111000 }
b11110001111100101111001111110100 3
b1001100 0"
b1001000 /
b1001000 Q
b1001000 1"
b1001000 5"
b10010 %
1"
#1850
0"
#1900
0N
0^
b0 Z
b0 ,"
b0 c"
b11 [
b11 d"
0I"
1T"
b1 M
b1 a"
1R"
0S"
b0 \
b0 F
b0 -"
b0 ."
b100 G
b100 ("
b100 H
b100 '"
b111 @
b111 *"
b10000000011 I
b10000000011 &"
b10000000000 ?
b10000000000 +"
b10 E
b10 )"
b11 R
b11 G"
b100 A
b100 7"
b111 D
b100 V
b10000000000 W
b10100000000010000000011 +
b10100000000010000000011 8
b10100000000010000000011 =
b10011 7
b1010000 T
b1010000 3"
b1010000 4"
b11110001111100101111001111110100 {
b111100 }
b1000000 c
b1000100 n
b1000100 B"
b10000000000001110000011 w
b1001000 x
b1010000 0"
b1001100 /
b1001100 Q
b1001100 1"
b1001100 5"
b10011 %
1"
#1950
0"
#2000
b11110001111100101111001111110100 \
b11110001111100101111001111110100 O
b11110001111100101111001111110100 <"
b101 G
b101 ("
b101 H
b101 '"
b1000 @
b1000 *"
b100 I
b100 &"
b10100000000 ?
b10100000000 +"
b10000000010 E
b10000000010 )"
b101 A
b101 7"
b1000 D
b101 V
b10100000000 W
b11000000000010010000011 +
b11000000000010010000011 8
b11000000000010010000011 =
b10100 7
b1010100 T
b1010100 3"
b1010100 4"
b10100000000010000000011 w
b1001100 x
b11 k
b1 r
0q
0j
b111 s
b100 u
b1001000 n
b1001000 B"
b1000100 c
b1000000 }
b1010100 0"
b1010000 /
b1010000 Q
b1010000 1"
b1010000 5"
b10100 %
1"
#2050
0"
#2100
b110000000000100 \
0L
b11110001111100101111001111110100 J
b11110001111100101111001111110100 /"
b11110001111100101111001111110100 C"
b110000000000100 O
b110000000000100 <"
b11111111111111111111111111110100 ,
b11111111111111111111111111110100 6
b11111111111111111111111111110100 :
b11110001111100101111001111110100 K
b11110001111100101111001111110100 A"
b110 G
b110 ("
b110 H
b110 '"
b1001 @
b1001 *"
b10000000100 I
b10000000100 &"
b11000000000 ?
b11000000000 +"
b11 E
b11 )"
b110 A
b110 7"
b1001 D
b110 V
b11000000000 W
b11100000000010100000011 +
b11100000000010100000011 8
b11100000000010100000011 =
b10101 7
b1011000 T
b1011000 3"
b1011000 4"
b1000100 }
b11 1
b11 5
b11 9
b11 a
b1 f
0e
b111 g
b1001000 c
b1000 s
b101 u
b11110001111100101111001111110100 p
b1001100 n
b1001100 B"
b11000000000010010000011 w
b1010000 x
b1011000 0"
b1010100 /
b1010100 Q
b1010100 1"
b1010100 5"
b10101 %
1"
#2150
0"
#2200
b0 \
b0 O
b0 <"
b110000000000100 J
b110000000000100 /"
b110000000000100 C"
b111 G
b111 ("
b111 H
b111 '"
b1010 @
b1010 *"
b101 I
b101 &"
b11100000000 ?
b11100000000 +"
b10000000011 E
b10000000011 )"
b111 A
b111 7"
b1010 D
b111 V
b11100000000 W
b110000000000100 K
b110000000000100 A"
b11111111111111111111111111110100 %"
b11111111111111111111111111110100 9"
b1010110000011 +
b1010110000011 8
b1010110000011 =
b10110 7
b1011100 T
b1011100 3"
b1011100 4"
b11100000000010100000011 w
b1010100 x
b1001 s
b110 u
b110000000000100 p
b1010000 n
b1010000 B"
b1000 g
b11110001111100101111001111110100 d
b11110001111100101111001111110100 `
b1001100 c
b1 ""
0!"
b111 #"
b111 8"
b11111111111111111111111111110100 {
b1001000 }
b1011100 0"
b1011000 /
b1011000 Q
b1011000 1"
b1011000 5"
b10110 %
1"
#2250
0"
#2300
b1 [
b1 d"
bx ,
bx 6
bx :
1L
b0 J
b0 /"
b0 C"
0T"
1V"
bx 3
b1111101 2
b0 K
b0 A"
b0 G
b0 ("
b0 H
b0 '"
b1011 @
b1011 *"
b10000000101 I
b10000000101 &"
b1 ?
b1 +"
b100000000000 E
b100000000000 )"
b1 Y
b1 D"
b0 A
b0 7"
b1011 D
b0 V
b1 W
b1000000001011000000011 +
b1000000001011000000011 8
b1000000001011000000011 =
b10111 7
b1100000 T
b1100000 3"
b1100000 4"
b11110001111100101111001111110100 -
b11110001111100101111001111110100 4
b11110001111100101111001111110100 ;
b11110001111100101111001111110100 ~
b1000 #"
b1000 8"
b11110001111100101111001111110100 .
b11110001111100101111001111110100 ]
b11110001111100101111001111110100 z
b1001100 }
b1001 g
b110000000000100 d
b110000000000100 `
b1010000 c
b1010 s
b111 u
b0 p
b1010100 n
b1010100 B"
b1010110000011 w
b1011000 x
b1100000 0"
b1011100 /
b1011100 Q
b1011100 1"
b1011100 5"
b10111 %
1"
#2350
0"
#2400
b11111111111111111111111111110100 ,
b11111111111111111111111111110100 6
b11111111111111111111111111110100 :
b10 G
b10 ("
b10 H
b10 '"
b1100 @
b1100 *"
b110 I
b110 &"
b1000000001 ?
b1000000001 +"
b100000000001 E
b100000000001 )"
b10 A
b10 7"
b1100 D
b10 V
b1000000001 W
b11110001111100101111001111110100 3
b1 2
bx %"
bx 9"
b10000000010011010000011 +
b10000000010011010000011 8
b10000000010011010000011 =
b11000 7
b1100100 T
b1100100 3"
b1100100 4"
b1000000001011000000011 w
b1011100 x
b1 k
b1011 s
b0 u
b1011000 n
b1011000 B"
b1010 g
b0 d
b0 `
b1010100 c
b110000000000100 -
b110000000000100 4
b110000000000100 ;
b110000000000100 ~
b1001 #"
b1001 8"
b110000000000100 .
b110000000000100 ]
b110000000000100 z
bx {
b1010000 }
b1100100 0"
b1100000 /
b1100000 Q
b1100000 1"
b1100000 5"
b11000 %
1"
#2450
0"
#2500
b0 [
b0 d"
1X"
0V"
b0 2
b11111111111111111111111111110100 %"
b11111111111111111111111111110100 9"
b11111111111111111111001111110100 ,
b11111111111111111111001111110100 6
b11111111111111111111001111110100 :
b100 G
b100 ("
b100 H
b100 '"
b1101 @
b1101 *"
b10000000110 I
b10000000110 &"
b10000000010 ?
b10000000010 +"
b1000000000010 E
b1000000000010 )"
b10 Y
b10 D"
b100 A
b100 7"
b1101 D
b100 V
b10000000010 W
b100011100000011 +
b100011100000011 8
b100011100000011 =
b11001 7
b1101000 T
b1101000 3"
b1101000 4"
b0 -
b0 4
b0 ;
b0 ~
b1010 #"
b1010 8"
b0 .
b0 ]
b0 z
b11111111111111111111111111110100 {
b1010100 }
b1 1
b1 5
b1 9
b1 a
b1011 g
b1011000 c
b1100 s
b10 u
b1011100 n
b1011100 B"
b10000000010011010000011 w
b1100000 x
b1101000 0"
b1100100 /
b1100100 Q
b1100100 1"
b1100100 5"
b11001 %
1"
#2550
0"
#2600
0X"
b100 [
b100 d"
1U"
b0 G
b0 ("
b0 H
b0 '"
b1110 @
b1110 *"
b111 I
b111 &"
b100 ?
b100 +"
b10000000000000 E
b10000000000000 )"
b100 Y
b100 D"
b0 A
b0 7"
b1110 D
b0 V
b100 W
b11111111111111111111001111110100 %"
b11111111111111111111001111110100 9"
b100000100011110000011 +
b100000100011110000011 8
b100000100011110000011 =
b11010 7
b1101100 T
b1101100 3"
b1101100 4"
b100011100000011 w
b1100100 x
b0 k
b1101 s
b100 u
b1100000 n
b1100000 B"
b1100 g
b1011100 c
b1011 #"
b1011 8"
b11111111111111111111001111110100 {
b1011000 }
b1101100 0"
b1101000 /
b1101000 Q
b1101000 1"
b1101000 5"
b11010 %
1"
#2650
0"
#2700
b11110001111100101111001111110100 ,
b11110001111100101111001111110100 6
b11110001111100101111001111110100 :
b1 G
b1 ("
b1 H
b1 '"
b1111 @
b1111 *"
b10000000111 I
b10000000111 &"
b100000100 ?
b100000100 +"
b10010000000000 E
b10010000000000 )"
b1 A
b1 7"
b1111 D
b1 V
b100000100 W
b1000000100100000000011 +
b1000000100100000000011 8
b1000000100100000000011 =
b11011 7
b1110000 T
b1110000 3"
b1110000 4"
b1100 #"
b1100 8"
b1011100 }
b0 1
b0 5
b0 9
b0 a
b1101 g
b1100000 c
b100 k
b1110 s
b0 u
b1100100 n
b1100100 B"
b100000100011110000011 w
b1101000 x
b1110000 0"
b1101100 /
b1101100 Q
b1101100 1"
b1101100 5"
b11011 %
1"
#2750
0"
