a.vcd
$date
	Wed Jul 02 15:32:35 2025
$end
$version
	Icarus Verilog
$end
$timescale
	1s
$end
$scope module sccomp_tb $end
$var wire 32 ! reg_data [31:0] $end
$var reg 1 " clk $end
$var reg 5 # reg_sel [4:0] $end
$var reg 1 $ rstn $end
$var integer 32 % counter [31:0] $end
$var integer 32 & debug_output [31:0] $end
$var integer 32 ' foutput [31:0] $end
$var integer 32 ( pc_output [31:0] $end
$scope module U_SCCOMP $end
$var wire 1 " clk $end
$var wire 1 ) clk_used $end
$var wire 32 * reg_data [31:0] $end
$var wire 5 + reg_sel [4:0] $end
$var wire 1 , rst $end
$var wire 1 $ rstn $end
$var wire 16 - sw_i [15:0] $end
$var wire 1 . rom_disp $end
$var wire 1 / rf_pause $end
$var wire 32 0 rf_disp_data [31:0] $end
$var wire 1 1 rf_disp $end
$var wire 5 2 rf_addr [4:0] $end
$var wire 1 3 pc_pause $end
$var wire 1 4 pc_disp $end
$var wire 32 5 instr [31:0] $end
$var wire 4 6 initial_addr_sel [3:0] $end
$var wire 1 7 imm_disp $end
$var wire 1 8 fast_disp $end
$var wire 1 9 dm_pause $end
$var wire 32 : dm_dout [31:0] $end
$var wire 5 ; dm_disp_addr [4:0] $end
$var wire 1 < dm_disp $end
$var wire 32 = dm_din [31:0] $end
$var wire 32 > dm_addr [31:0] $end
$var wire 8 ? disp_seg_o [7:0] $end
$var wire 8 @ disp_an_o [7:0] $end
$var wire 1 A clk_slow $end
$var wire 1 B clk_fast $end
$var wire 1 C clk_disp $end
$var wire 1 D clk_addr $end
$var wire 1 E alu_pause $end
$var wire 1 F alu_disp $end
$var wire 32 G PC [31:0] $end
$var wire 1 H MemWrite $end
$var wire 1 I MemRead $end
$var wire 3 J DMType [2:0] $end
$var reg 32 K disp_data [31:0] $end
$scope module U_DM $end
$var wire 9 L addr [8:0] $end
$var wire 1 ) clk $end
$var wire 32 M din [31:0] $end
$var wire 1 H DMWr $end
$var wire 3 N DMType [2:0] $end
$var wire 1 I DMRd $end
$var reg 32 O dout [31:0] $end
$upscope $end
$scope module U_IM $end
$var wire 30 P addr [31:2] $end
$var wire 32 Q dout [31:0] $end
$upscope $end
$scope module U_SCPU $end
$var wire 3 R DMType_out [2:0] $end
$var wire 32 S Data_in [31:0] $end
$var wire 32 T Data_out [31:0] $end
$var wire 2 U GPRSel [1:0] $end
$var wire 1 I MemRead_out $end
$var wire 1 ) clk $end
$var wire 32 V inst_in [31:0] $end
$var wire 1 H mem_w $end
$var wire 1 , reset $end
$var wire 20 W uimm [19:0] $end
$var wire 12 X simm [11:0] $end
$var wire 5 Y rs2 [4:0] $end
$var wire 5 Z rs1 [4:0] $end
$var wire 5 [ reg_sel [4:0] $end
$var wire 32 \ reg_data [31:0] $end
$var wire 5 ] rd [4:0] $end
$var wire 32 ^ not_used [31:0] $end
$var wire 20 _ jimm [19:0] $end
$var wire 32 ` jalr_next [31:0] $end
$var wire 32 a immout [31:0] $end
$var wire 5 b iimm_shamt [4:0] $end
$var wire 12 c iimm [11:0] $end
$var wire 12 d bimm [11:0] $end
$var wire 32 e aluout [31:0] $end
$var wire 1 f Zero $end
$var wire 2 g WDSel [1:0] $end
$var wire 1 h Stall $end
$var wire 1 i RegWrite $end
$var wire 32 j RD2 [31:0] $end
$var wire 32 k RD1 [31:0] $end
$var wire 32 l PC_out [31:0] $end
$var wire 7 m Op [6:0] $end
$var wire 3 n NPCOp [2:0] $end
$var wire 32 o NPC [31:0] $end
$var wire 1 p MemWrite $end
$var wire 1 q MemRead $end
$var wire 12 r Imm12 [11:0] $end
$var wire 20 s IMM [19:0] $end
$var wire 7 t Funct7 [6:0] $end
$var wire 3 u Funct3 [2:0] $end
$var wire 4 v ForwardB [3:0] $end
$var wire 4 w ForwardA [3:0] $end
$var wire 6 x EXTOp [5:0] $end
$var wire 3 y DMType [2:0] $end
$var wire 1 z Can_Branch $end
$var wire 32 { B [31:0] $end
$var wire 32 | Addr_out [31:0] $end
$var wire 1 } ALUSrc $end
$var wire 5 ~ ALUOp [4:0] $end
$var reg 32 !" ALU_A [31:0] $end
$var reg 32 "" ALU_A_Btype [31:0] $end
$var reg 32 #" ALU_B [31:0] $end
$var reg 32 $" ALU_B_Btype [31:0] $end
$var reg 32 %" ALU_RD2 [31:0] $end
$var reg 32 &" ALU_RD2_Btype [31:0] $end
$var reg 32 '" EX_MEM_ALUResult [31:0] $end
$var reg 3 (" EX_MEM_DMType [2:0] $end
$var reg 32 )" EX_MEM_Inst [31:0] $end
$var reg 1 *" EX_MEM_MemRead $end
$var reg 1 +" EX_MEM_MemWrite $end
$var reg 3 ," EX_MEM_NPCOp [2:0] $end
$var reg 32 -" EX_MEM_PC [31:0] $end
$var reg 32 ." EX_MEM_RD2 [31:0] $end
$var reg 1 /" EX_MEM_RegWrite $end
$var reg 2 0" EX_MEM_WDSel [1:0] $end
$var reg 5 1" EX_MEM_rd [4:0] $end
$var reg 1 2" EX_MEM_valid $end
$var reg 5 3" ID_EX_ALUOp [4:0] $end
$var reg 1 4" ID_EX_ALUSrc $end
$var reg 3 5" ID_EX_DMType [2:0] $end
$var reg 32 6" ID_EX_Imm [31:0] $end
$var reg 32 7" ID_EX_Inst [31:0] $end
$var reg 1 8" ID_EX_MemRead $end
$var reg 1 9" ID_EX_MemWrite $end
$var reg 3 :" ID_EX_NPCOp [2:0] $end
$var reg 32 ;" ID_EX_PC [31:0] $end
$var reg 32 <" ID_EX_RD1 [31:0] $end
$var reg 32 =" ID_EX_RD2 [31:0] $end
$var reg 1 >" ID_EX_RegWrite $end
$var reg 2 ?" ID_EX_WDSel [1:0] $end
$var reg 5 @" ID_EX_rd [4:0] $end
$var reg 5 A" ID_EX_rs1 [4:0] $end
$var reg 5 B" ID_EX_rs2 [4:0] $end
$var reg 1 C" ID_EX_valid $end
$var reg 1 D" IF_Flush $end
$var reg 32 E" IF_ID_Inst [31:0] $end
$var reg 32 F" IF_ID_PC [31:0] $end
$var reg 1 G" IF_ID_valid $end
$var reg 32 H" MEM_WB_ALUResult [31:0] $end
$var reg 32 I" MEM_WB_Inst [31:0] $end
$var reg 32 J" MEM_WB_MemData [31:0] $end
$var reg 1 K" MEM_WB_MemRead $end
$var reg 1 L" MEM_WB_MemWrite $end
$var reg 32 M" MEM_WB_PC [31:0] $end
$var reg 32 N" MEM_WB_RD2 [31:0] $end
$var reg 1 O" MEM_WB_RegWrite $end
$var reg 2 P" MEM_WB_WDSel [1:0] $end
$var reg 5 Q" MEM_WB_rd [4:0] $end
$var reg 1 R" MEM_WB_valid $end
$var reg 32 S" RD1_For_Jalr [31:0] $end
$var reg 3 T" True_NPCOp [2:0] $end
$var reg 32 U" True_PC_for_next [31:0] $end
$var reg 32 V" WD [31:0] $end
$scope module U_EXT $end
$var wire 12 W" bimm [11:0] $end
$var wire 12 X" iimm [11:0] $end
$var wire 5 Y" iimm_shamt [4:0] $end
$var wire 20 Z" jimm [19:0] $end
$var wire 12 [" simm [11:0] $end
$var wire 20 \" uimm [19:0] $end
$var wire 6 ]" EXTOp [5:0] $end
$var reg 32 ^" immout [31:0] $end
$upscope $end
$scope module U_Forward_unit $end
$var wire 1 _" EX_MEM_ForwardA $end
$var wire 1 `" EX_MEM_ForwardB $end
$var wire 1 *" EX_MEM_MemRead $end
$var wire 1 /" EX_MEM_RegWrite $end
$var wire 5 a" EX_MEM_rd [4:0] $end
$var wire 1 b" ID_EX_ForwardA $end
$var wire 1 c" ID_EX_ForwardB $end
$var wire 5 d" ID_EX_rs1 [4:0] $end
$var wire 5 e" ID_EX_rs2 [4:0] $end
$var wire 1 f" ID_MEM_ForwardA $end
$var wire 1 g" ID_MEM_ForwardB $end
$var wire 1 h" MEM_WB_ForwardA $end
$var wire 1 i" MEM_WB_ForwardB $end
$var wire 1 K" MEM_WB_MemRead $end
$var wire 1 O" MEM_WB_RegWrite $end
$var wire 5 j" MEM_WB_rd [4:0] $end
$var wire 5 k" rs1 [4:0] $end
$var wire 5 l" rs2 [4:0] $end
$var wire 3 m" NPCOp [2:0] $end
$var wire 4 n" ForwardB [3:0] $end
$var wire 4 o" ForwardA [3:0] $end
$upscope $end
$scope module U_Hazard_Detection $end
$var wire 1 *" EX_MEM_MemRead $end
$var wire 5 p" EX_MEM_rd [4:0] $end
$var wire 1 8" ID_EX_MemRead $end
$var wire 1 >" ID_EX_RegWrite $end
$var wire 5 q" ID_EX_rd [4:0] $end
$var wire 5 r" rs1 [4:0] $end
$var wire 5 s" rs2 [4:0] $end
$var wire 3 t" NPCOp [2:0] $end
$var reg 1 h Stall $end
$upscope $end
$scope module U_NPC $end
$var wire 32 u" IMM [31:0] $end
$var wire 3 v" NPCOp [2:0] $end
$var wire 32 w" PC [31:0] $end
$var wire 32 x" aluout [31:0] $end
$var wire 32 y" PCPLUS4 [31:0] $end
$var reg 32 z" NPC [31:0] $end
$upscope $end
$scope module U_PC $end
$var wire 32 {" NPC [31:0] $end
$var wire 1 h Stall $end
$var wire 1 ) clk $end
$var wire 1 , rst $end
$var reg 32 |" PC [31:0] $end
$upscope $end
$scope module U_RF $end
$var wire 5 }" A1 [4:0] $end
$var wire 5 ~" A2 [4:0] $end
$var wire 5 !# A3 [4:0] $end
$var wire 1 O" RFWr $end
$var wire 32 "# WD [31:0] $end
$var wire 1 ) clk $end
$var wire 1 , rst $end
$var wire 5 ## reg_sel [4:0] $end
$var wire 32 $# reg_data [31:0] $end
$var wire 32 %# RD2 [31:0] $end
$var wire 32 &# RD1 [31:0] $end
$var integer 32 '# i [31:0] $end
$upscope $end
$scope module U_alu $end
$var wire 32 (# A [31:0] $end
$var wire 5 )# ALUOp [4:0] $end
$var wire 32 *# B [31:0] $end
$var wire 32 +# PC [31:0] $end
$var wire 1 f Zero $end
$var reg 32 ,# C [31:0] $end
$upscope $end
$scope module U_alu_Btype $end
$var wire 32 -# A [31:0] $end
$var wire 32 .# B [31:0] $end
$var wire 32 /# PC [31:0] $end
$var wire 1 z Zero $end
$var wire 5 0# ALUOp [4:0] $end
$var reg 32 1# C [31:0] $end
$upscope $end
$scope module U_ctrl $end
$var wire 1 } ALUSrc $end
$var wire 3 2# Funct3 [2:0] $end
$var wire 7 3# Funct7 [6:0] $end
$var wire 2 4# GPRSel [1:0] $end
$var wire 1 q MemRead $end
$var wire 1 p MemWrite $end
$var wire 7 5# Op [6:0] $end
$var wire 1 i RegWrite $end
$var wire 1 f Zero $end
$var wire 1 6# is_add $end
$var wire 1 7# is_addi $end
$var wire 1 8# is_and $end
$var wire 1 9# is_andi $end
$var wire 1 :# is_beq $end
$var wire 1 ;# is_bge $end
$var wire 1 <# is_bgeu $end
$var wire 1 =# is_blt $end
$var wire 1 ># is_bltu $end
$var wire 1 ?# is_bne $end
$var wire 1 @# is_lb $end
$var wire 1 A# is_lbu $end
$var wire 1 B# is_lh $end
$var wire 1 C# is_lhu $end
$var wire 1 D# is_lw $end
$var wire 1 E# is_or $end
$var wire 1 F# is_ori $end
$var wire 1 G# is_sb $end
$var wire 1 H# is_sh $end
$var wire 1 I# is_sll $end
$var wire 1 J# is_slli $end
$var wire 1 K# is_slt $end
$var wire 1 L# is_slti $end
$var wire 1 M# is_sltiu $end
$var wire 1 N# is_sltu $end
$var wire 1 O# is_sra $end
$var wire 1 P# is_srai $end
$var wire 1 Q# is_srl $end
$var wire 1 R# is_srli $end
$var wire 1 S# is_sub $end
$var wire 1 T# is_sw $end
$var wire 1 U# is_xor $end
$var wire 1 V# is_xori $end
$var wire 1 W# is_stype $end
$var wire 1 X# is_sbtype $end
$var wire 1 Y# is_rtype $end
$var wire 1 Z# is_lui $end
$var wire 1 [# is_jalr $end
$var wire 1 \# is_jal $end
$var wire 1 ]# is_itype_r $end
$var wire 1 ^# is_itype_l $end
$var wire 1 _# is_auipc $end
$var wire 2 `# WDSel [1:0] $end
$var wire 3 a# NPCOp [2:0] $end
$var wire 6 b# EXTOp [5:0] $end
$var wire 3 c# DMType [2:0] $end
$var wire 5 d# ALUOp [4:0] $end
$upscope $end
$upscope $end
$scope module div12 $end
$var wire 1 " clk $end
$var wire 1 C clk_out $end
$var parameter 32 e# DIV_NUM $end
$var reg 15 f# counter [14:0] $end
$upscope $end
$scope module div24 $end
$var wire 1 " clk $end
$var wire 1 B clk_out $end
$var parameter 32 g# DIV_NUM $end
$var reg 26 h# counter [25:0] $end
$upscope $end
$scope module div27 $end
$var wire 1 " clk $end
$var wire 1 A clk_out $end
$var parameter 32 i# DIV_NUM $end
$var reg 28 j# counter [27:0] $end
$upscope $end
$scope module u_disp_seg16x $end
$var wire 8 k# an_o [7:0] $end
$var wire 1 C clk $end
$var wire 32 l# disp_data [31:0] $end
$var wire 1 $ rstn $end
$var wire 8 m# seg_o [7:0] $end
$var reg 8 n# reg_an_o [7:0] $end
$var reg 8 o# reg_seg_o [7:0] $end
$var reg 3 p# selector [2:0] $end
$scope function seven_seg_translator $end
$var reg 4 q# num [3:0] $end
$upscope $end
$scope begin genblk1[0] $end
$var parameter 2 r# i $end
$upscope $end
$scope begin genblk1[1] $end
$var parameter 2 s# i $end
$upscope $end
$scope begin genblk1[2] $end
$var parameter 3 t# i $end
$upscope $end
$scope begin genblk1[3] $end
$var parameter 3 u# i $end
$upscope $end
$scope begin genblk1[4] $end
$var parameter 4 v# i $end
$upscope $end
$scope begin genblk1[5] $end
$var parameter 4 w# i $end
$upscope $end
$scope begin genblk1[6] $end
$var parameter 4 x# i $end
$upscope $end
$scope begin genblk1[7] $end
$var parameter 4 y# i $end
$upscope $end
$upscope $end
$scope module u_rf_addr $end
$var wire 1 / addr_pause $end
$var wire 1 D clk $end
$var wire 1 $ rstn $end
$var parameter 32 z# ADDR_SIZE $end
$var reg 5 {# data_out [4:0] $end
$upscope $end
$upscope $end
$upscope $end
$enddefinitions $end
$comment Show the parameter values. $end
$dumpall
b100000 z#
b111 y#
b110 x#
b101 w#
b100 v#
b11 u#
b10 t#
b1 s#
b0 r#
b11011 i#
b11001 g#
b1110 e#
$end
#0
$dumpvars
bx {#
bx q#
bx p#
b11111111 o#
bx n#
b11111111 m#
b11111111111111111111111111111111 l#
bx k#
bx j#
bx h#
bx f#
bx d#
bx c#
bx b#
bx a#
bx `#
x_#
x^#
x]#
x\#
x[#
xZ#
xY#
xX#
xW#
xV#
xU#
xT#
xS#
xR#
xQ#
xP#
xO#
xN#
xM#
xL#
xK#
xJ#
xI#
xH#
xG#
xF#
xE#
xD#
xC#
xB#
xA#
x@#
x?#
x>#
x=#
x<#
x;#
x:#
x9#
x8#
x7#
x6#
bx 5#
bz 4#
bx 3#
bx 2#
bx 1#
bx 0#
bx /#
bx .#
bx -#
bx ,#
bx +#
bx *#
bx )#
bx (#
bx '#
bx &#
bx %#
bx $#
bx ##
bx "#
bx !#
bx ~"
bx }"
bx |"
bx {"
bx z"
bx y"
bx x"
bx w"
bx v"
bx u"
bx t"
bx s"
bx r"
bx q"
bx p"
bx o"
bx n"
bx m"
bx l"
bx k"
bx j"
xi"
xh"
xg"
xf"
bx e"
bx d"
xc"
xb"
bx a"
x`"
x_"
bx ^"
bx ]"
bx \"
bx ["
bx Z"
bx Y"
bx X"
bx W"
bx V"
bx U"
bx T"
bx S"
xR"
bx Q"
bx P"
xO"
bx N"
bx M"
xL"
xK"
bx J"
bx I"
bx H"
1G"
bx F"
bx E"
xD"
xC"
bx B"
bx A"
bx @"
bx ?"
x>"
bx ="
bx <"
bx ;"
bx :"
x9"
x8"
bx 7"
bx 6"
bx 5"
x4"
bx 3"
x2"
bx 1"
bx 0"
x/"
bx ."
bx -"
bx ,"
x+"
x*"
bx )"
bx ("
bx '"
bx &"
bx %"
bx $"
bx #"
bx ""
bx !"
bx ~
x}
bx |
bx {
xz
bx y
bx x
bx w
bx v
bx u
bx t
bx s
bx r
xq
xp
bx o
bx n
bx m
bx l
bx k
bx j
xi
xh
bx g
xf
bx e
bx d
bx c
bx b
bx a
bx `
bx _
bx ^
bx ]
bx \
bx [
bx Z
bx Y
bx X
bx W
bx V
bz U
bx T
bx S
bx R
bx Q
bx P
bx O
bx N
bx M
bx L
b11111111111111111111111111111111 K
bx J
xI
xH
bx G
zF
zE
xD
xC
xB
xA
bx @
b11111111 ?
bx >
bx =
z<
bz ;
bx :
z9
z8
z7
bz 6
bx 5
z4
z3
bx 2
z1
bx 0
z/
z.
bz -
0,
bx +
bz *
1)
b1000 (
b10 '
b100 &
b0 %
1$
bx #
1"
bz !
$end
#5
b100 o
b100 z"
b100 {"
b0 T"
b0 v"
b100 y"
b0 U"
b0 w"
b1000011100000000000100010011 5
b1000011100000000000100010011 Q
b1000011100000000000100010011 V
b0 P
b0 0
b0 \
b0 $#
b0 G
b0 l
b0 |"
b0 2
b0 [
b0 ##
b0 {#
b100000 '#
1,
0$
#25
0,
1$
#50
0)
0"
#100
b1000 o
b1000 z"
b1000 {"
b1000 y"
b100 U"
b100 w"
0z
b10000111 ^
b10000111 1#
b10000111 {
b10000111 $"
b10000111 .#
1i
1}
b11 ~
b11 0#
b11 d#
0g"
0f"
b0xx v
b0xx n"
0c"
b0xx w
b0xx o"
0b"
b0 ""
b0 -#
b10000111 `
b10000111 x"
b0 S"
b10000111 a
b10000111 ^"
b10000111 u"
0D"
06#
0S#
0E#
08#
0U#
0I#
0K#
0N#
0O#
0Q#
0J#
0P#
0R#
0D#
0@#
0B#
b0 y
b0 c#
0A#
0C#
17#
0F#
09#
0V#
0L#
0M#
0T#
0G#
0H#
0:#
0=#
0>#
0?#
0;#
0<#
b0 k
b0 &#
0h
b111 b
b111 Y"
b10000111 c
b10000111 X"
b10000010 X
b10000010 ["
b1000001 d
b1000001 W"
b1000011100000000 W
b1000011100000000 \"
b10001000011 _
b10001000011 Z"
0Y#
0q
b0 g
b0 `#
0^#
1]#
0p
0W#
0X#
b10000 x
b10000 ]"
b10000 b#
0\#
b0 n
b0 m"
b0 t"
b0 a#
0[#
0Z#
0_#
b10011 m
b10011 5#
b100 t
b100 3#
b0 u
b0 2#
b0 Z
b0 k"
b0 r"
b0 }"
b111 Y
b111 l"
b111 s"
b111 ~"
b10 ]
b10000111 r
b1000011100000000 s
b100000010001000100010011 5
b100000010001000100010011 Q
b100000010001000100010011 V
b1 P
1C"
b1000011100000000000100010011 E"
b0 F"
b0 /#
b100 G
b100 l
b100 |"
b1 %
1)
1"
#150
0)
0"
#200
0f
b10000111 e
b10000111 ,#
b1100 o
b1100 z"
b1100 {"
b0 !"
b0 (#
b1100 y"
b1000 U"
b1000 w"
b1111 ~
b1111 0#
b1111 d#
b100000 x
b100000 ]"
b100000 b#
xz
bx00000000 ^
bx00000000 1#
b1000 {
b1000 $"
b1000 .#
bx ""
bx -#
bx S"
bx `
bx x"
b1000 a
b1000 ^"
b1000 u"
1J#
07#
bx k
bx &#
b1000 b
b1000 Y"
b1000 c
b1000 X"
b10 X
b10 ["
b1 d
b1 W"
b100000010001 W
b100000010001 \"
b1000100000000100 _
b1000100000000100 Z"
b0 t
b0 3#
b1 u
b1 2#
b10 Z
b10 k"
b10 r"
b10 }"
b1000 Y
b1000 l"
b1000 s"
b1000 ~"
b1000 r
b100000010001 s
b10000111 #"
b10000111 *#
b110010100010000000100010011 5
b110010100010000000100010011 Q
b110010100010000000100010011 V
b10 P
b100000010001000100010011 E"
b100 F"
b100 /#
08"
b0 :"
09"
b0 5"
b0 ?"
1>"
14"
b11 3"
b11 )#
b10 @"
b10 q"
b111 B"
b111 e"
b0 A"
b0 d"
b10000111 6"
b0 <"
b0 ;"
b0 +#
b1000011100000000000100010011 7"
b0 ,"
12"
b1000 G
b1000 l
b1000 |"
b10 %
1)
1"
#250
0)
0"
#300
b10000 o
b10000 z"
b10000 {"
b10010001101000101011001111000 :
b10010001101000101011001111000 O
b10010001101000101011001111000 S
b10000111 !"
b10000111 (#
b10000 y"
b1100 U"
b1100 w"
xz
b11 ~
b11 0#
b11 d#
bx ^
bx 1#
b10000 x
b10000 ]"
b10000 b#
b1100101 {
b1100101 $"
b1100101 .#
0h"
b1100101 a
b1100101 ^"
b1100101 u"
0J#
17#
b10 w
b10 o"
1_"
b0x v
b0x n"
0`"
b10000111 L
b1000 #"
b1000 *#
0f
b1000011100000000 e
b1000011100000000 ,#
b101 b
b101 Y"
b1100101 c
b1100101 X"
b1100010 X
b1100010 ["
b110001 d
b110001 W"
b110010100010000 W
b110010100010000 \"
b1000010000110010 _
b1000010000110010 Z"
b11 t
b11 3#
b0 u
b0 2#
b101 Y
b101 l"
b101 s"
b101 ~"
b1100101 r
b110010100010000 s
b1000000010001000100010011 5
b1000000010001000100010011 Q
b1000000010001000100010011 V
b11 P
1R"
0I
0*"
b0 J
b0 N
b0 R
b0 ("
b0 0"
0H
0+"
1/"
b10 1"
b10 a"
b10 p"
b10000111 >
b10000111 |
b10000111 '"
b0 -"
b1000011100000000000100010011 )"
b1111 3"
b1111 )#
b1000 B"
b1000 e"
b10 A"
b10 d"
b1000 6"
bx <"
b100 ;"
b100 +#
b100000010001000100010011 7"
b110010100010000000100010011 E"
b1000 F"
b1000 /#
b1100 G
b1100 l
b1100 |"
b11 %
1)
1"
#350
0)
0"
#400
b10100 o
b10100 z"
b10100 {"
b1000011100000000 !"
b1000011100000000 (#
b10100 y"
b10000 U"
b10000 w"
b1111 ~
b1111 0#
b1111 d#
b100000 x
b100000 ]"
b100000 b#
0z
b100001110000000000000000 ^
b100001110000000000000000 1#
b10000 {
b10000 $"
b10000 .#
b0 v
b0 n"
0i"
b10010111 `
b10010111 x"
b10000111 S"
b0 &"
b10000111 ""
b10000111 -#
b10000 a
b10000 ^"
b10000 u"
1J#
07#
b10000111 k
b10000111 &#
b0 j
b0 %#
b10000 b
b10000 Y"
b10000 c
b10000 X"
b10 X
b10 ["
b1 d
b1 W"
b1000000010001 W
b1000000010001 \"
b1000100000001000 _
b1000100000001000 Z"
b0 t
b0 3#
b1 u
b1 2#
b10000 Y
b10000 l"
b10000 s"
b10000 ~"
b10000 r
b1000000010001 s
b1100101 #"
b1100101 *#
b1000011101100101 e
b1000011101100101 ,#
b100000000 L
b10000111 V"
b10000111 "#
b100001100000000000110010011 5
b100001100000000000110010011 Q
b100001100000000000110010011 V
b100 P
b1000000010001000100010011 E"
b1100 F"
b1100 /#
b11 3"
b11 )#
b101 B"
b101 e"
b1100101 6"
b1000 ;"
b1000 +#
b110010100010000000100010011 7"
b1000011100000000 >
b1000011100000000 |
b1000011100000000 '"
b100 -"
b100000010001000100010011 )"
0K"
0L"
b0 P"
1O"
b10 Q"
b10 j"
b10 !#
b10000111 H"
b10010001101000101011001111000 J"
b0 M"
b1000011100000000000100010011 I"
b10000 G
b10000 l
b10000 |"
b100 %
1)
1"
#450
0)
0"
#500
b11000 o
b11000 z"
b11000 {"
b0 %"
b1000011101100101 !"
b1000011101100101 (#
b11000 y"
b10100 U"
b10100 w"
b11 ~
b11 0#
b11 d#
b10000 x
b10000 ]"
b10000 b#
0z
b1000011 ^
b1000011 1#
b1000011 {
b1000011 $"
b1000011 .#
b0 ""
b0 -#
b0 S"
b1000011 `
b1000011 x"
b1000011 a
b1000011 ^"
b1000011 u"
0J#
17#
b0 k
b0 &#
b1000011100000000 V"
b1000011100000000 "#
b101100101 L
b10000 #"
b10000 *#
0f
b10000111011001010000000000000000 e
b10000111011001010000000000000000 ,#
b11 b
b11 Y"
b1000011 c
b1000011 X"
b1000011 X
b1000011 ["
b10000100001 d
b10000100001 W"
b100001100000000 W
b100001100000000 \"
b10000100001 _
b10000100001 Z"
b10 t
b10 3#
b0 u
b0 2#
b0 Z
b0 k"
b0 r"
b0 }"
b11 Y
b11 l"
b11 s"
b11 ~"
b11 ]
b1000011 r
b100001100000000 s
b100000011001000110010011 5
b100000011001000110010011 Q
b100000011001000110010011 V
b101 P
b1000011100000000 H"
b100 M"
b100000010001000100010011 I"
b1000011101100101 >
b1000011101100101 |
b1000011101100101 '"
b1000 -"
b110010100010000000100010011 )"
b1111 3"
b1111 )#
b10000 B"
b10000 e"
b10000 6"
b0 ="
b10000111 <"
b1100 ;"
b1100 +#
b1000000010001000100010011 7"
b100001100000000000110010011 E"
b10000 F"
b10000 /#
b10100 G
b10100 l
b10100 |"
b101 %
1)
1"
#550
0)
0"
#600
b11100 o
b11100 z"
b11100 {"
b0 !"
b0 (#
b11100 y"
b11000 U"
b11000 w"
b1111 ~
b1111 0#
b1111 d#
1z
b0 ^
b0 1#
b100000 x
b100000 ]"
b100000 b#
b1000 {
b1000 $"
b1000 .#
b0 w
b0 o"
0_"
b1000 `
b1000 x"
b1000 a
b1000 ^"
b1000 u"
1J#
07#
b1000 b
b1000 Y"
b1000 c
b1000 X"
b11 X
b11 ["
b10000000001 d
b10000000001 W"
b100000011001 W
b100000011001 \"
b1100100000000100 _
b1100100000000100 Z"
b0 t
b0 3#
b1 u
b1 2#
b11 Z
b11 k"
b11 r"
b11 }"
b1000 Y
b1000 l"
b1000 s"
b1000 ~"
b1000 r
b100000011001 s
b1000011 #"
b1000011 *#
b1000011 e
b1000011 ,#
b0 L
b1000011101100101 V"
b1000011101100101 "#
b10000100011000000110010011 5
b10000100011000000110010011 Q
b10000100011000000110010011 V
b110 P
b100000011001000110010011 E"
b10100 F"
b10100 /#
b11 3"
b11 )#
b11 @"
b11 q"
b11 B"
b11 e"
b0 A"
b0 d"
b1000011 6"
b0 <"
b10000 ;"
b10000 +#
b100001100000000000110010011 7"
b0 =
b0 M
b0 T
b0 ."
b10000111011001010000000000000000 >
b10000111011001010000000000000000 |
b10000111011001010000000000000000 '"
b1100 -"
b1000000010001000100010011 )"
b1000011101100101 H"
b1000 M"
b110010100010000000100010011 I"
b11000 G
b11000 l
b11000 |"
b110 %
1)
1"
#650
0)
0"
#700
b100000 o
b100000 z"
b100000 {"
b1000011 !"
b1000011 (#
b100000 y"
b11100 U"
b11100 w"
0z
b100001 ^
b100001 1#
b11 ~
b11 0#
b11 d#
b10000 x
b10000 ]"
b10000 b#
b10 w
b10 o"
1_"
b100001 {
b100001 $"
b100001 .#
b100001 `
b100001 x"
b100001 a
b100001 ^"
b100001 u"
0J#
17#
b10000111011001010000000000000000 V"
b10000111011001010000000000000000 "#
b1000011 L
b1000 #"
b1000 *#
0f
b100001100000000 e
b100001100000000 ,#
b1 b
b1 Y"
b100001 c
b100001 X"
b100011 X
b100011 ["
b10000010001 d
b10000010001 W"
b10000100011000 W
b10000100011000 \"
b1100010000010000 _
b1100010000010000 Z"
b1 t
b1 3#
b0 u
b0 2#
b1 Y
b1 l"
b1 s"
b1 ~"
b100001 r
b10000100011000 s
b1100010000000100110011 5
b1100010000000100110011 Q
b1100010000000100110011 V
b111 P
b0 N"
b10000111011001010000000000000000 H"
b1100 M"
b1000000010001000100010011 I"
b11 1"
b11 a"
b11 p"
b1000011 >
b1000011 |
b1000011 '"
b10000 -"
b100001100000000000110010011 )"
b1111 3"
b1111 )#
b1000 B"
b1000 e"
b11 A"
b11 d"
b1000 6"
b10100 ;"
b10100 +#
b100000011001000110010011 7"
b10000100011000000110010011 E"
b11000 F"
b11000 /#
b11100 G
b11100 l
b11100 |"
b111 %
1)
1"
#750
0)
0"
#800
b100100 o
b100100 z"
b100100 {"
b100001100000000 !"
b100001100000000 (#
b100100 y"
b100000 U"
b100000 w"
b11 ~
b11 0#
b11 d#
b0 x
b0 ]"
b0 b#
0}
b1000011 &"
b10000111011001010000000001000011 ^
b10000111011001010000000001000011 1#
b1000011 {
b1000011 $"
b1000011 .#
16#
b1000011 j
b1000011 %#
b10000111011001010000000000000000 ""
b10000111011001010000000000000000 -#
b10000111011001010000000000000000 S"
b10000111011001010000000000000000 `
b10000111011001010000000000000000 x"
b0 a
b0 ^"
b0 u"
07#
b10000111011001010000000000000000 k
b10000111011001010000000000000000 &#
b11 b
b11 Y"
b11 c
b11 X"
b10 X
b10 ["
b1 d
b1 W"
b1100010000 W
b1100010000 \"
b1000010000000001 _
b1000010000000001 Z"
1Y#
0]#
b110011 m
b110011 5#
b0 t
b0 3#
b10 Z
b10 k"
b10 r"
b10 }"
b11 Y
b11 l"
b11 s"
b11 ~"
b10 ]
b11 r
b1100010000 s
b100001 #"
b100001 *#
b100001100100001 e
b100001100100001 ,#
b100000000 L
b1000011 V"
b1000011 "#
b1000000010000000100011 5
b1000000010000000100011 Q
b1000000010000000100011 V
b1000 P
b1100010000000100110011 E"
b11100 F"
b11100 /#
b11 3"
b11 )#
b1 B"
b1 e"
b100001 6"
b11000 ;"
b11000 +#
b10000100011000000110010011 7"
b100001100000000 >
b100001100000000 |
b100001100000000 '"
b10100 -"
b100000011001000110010011 )"
b11 Q"
b11 j"
b11 !#
b1000011 H"
b10000 M"
b100001100000000000110010011 I"
b100000 G
b100000 l
b100000 |"
b1000 %
1)
1"
#850
0)
0"
