a.vcd
$date
	Fri Jun 27 10:57:03 2025
$end
$version
	Icarus Verilog
$end
$timescale
	1s
$end
$scope module sccomp_tb $end
$var wire 32 ! reg_data [31:0] $end
$var reg 1 " clk $end
$var reg 5 # reg_sel [4:0] $end
$var reg 1 $ rstn $end
$var integer 32 % counter [31:0] $end
$var integer 32 & debug_output [31:0] $end
$var integer 32 ' foutput [31:0] $end
$var integer 32 ( pc_output [31:0] $end
$scope module U_SCCOMP $end
$var wire 1 " clk $end
$var wire 5 ) reg_sel [4:0] $end
$var wire 1 * rst $end
$var wire 1 $ rstn $end
$var wire 32 + reg_data [31:0] $end
$var wire 32 , instr [31:0] $end
$var wire 32 - dm_dout [31:0] $end
$var wire 32 . dm_din [31:0] $end
$var wire 32 / dm_addr [31:0] $end
$var wire 32 0 PC [31:0] $end
$var wire 1 1 MemWrite $end
$var wire 3 2 DMType [2:0] $end
$scope module U_DM $end
$var wire 7 3 addr [8:2] $end
$var wire 1 " clk $end
$var wire 32 4 word [31:0] $end
$var wire 32 5 din [31:0] $end
$var wire 1 1 DMWr $end
$var wire 3 6 DMType [2:0] $end
$var reg 32 7 dout [31:0] $end
$upscope $end
$scope module U_IM $end
$var wire 30 8 addr [31:2] $end
$var wire 32 9 dout [31:0] $end
$upscope $end
$scope module U_SCPU $end
$var wire 3 : DMType_out [2:0] $end
$var wire 32 ; Data_in [31:0] $end
$var wire 32 < Data_out [31:0] $end
$var wire 2 = GPRSel [1:0] $end
$var wire 1 " clk $end
$var wire 32 > inst_in [31:0] $end
$var wire 1 1 mem_w $end
$var wire 5 ? reg_sel [4:0] $end
$var wire 1 * reset $end
$var wire 20 @ uimm [19:0] $end
$var wire 12 A simm [11:0] $end
$var wire 5 B rs2 [4:0] $end
$var wire 5 C rs1 [4:0] $end
$var wire 32 D reg_data [31:0] $end
$var wire 5 E rd [4:0] $end
$var wire 20 F jimm [19:0] $end
$var wire 32 G immout [31:0] $end
$var wire 5 H iimm_shamt [4:0] $end
$var wire 12 I iimm [11:0] $end
$var wire 12 J bimm [11:0] $end
$var wire 32 K aluout [31:0] $end
$var wire 32 L alu_B [31:0] $end
$var wire 1 M Zero $end
$var wire 2 N WDSel [1:0] $end
$var wire 1 O RegWrite $end
$var wire 32 P RD2 [31:0] $end
$var wire 32 Q RD1 [31:0] $end
$var wire 32 R PC_out [31:0] $end
$var wire 7 S Op [6:0] $end
$var wire 3 T NPCOp [2:0] $end
$var wire 32 U NPC [31:0] $end
$var wire 1 V MemWrite $end
$var wire 12 W Imm12 [11:0] $end
$var wire 20 X IMM [19:0] $end
$var wire 7 Y Funct7 [6:0] $end
$var wire 3 Z Funct3 [2:0] $end
$var wire 6 [ EXTOp [5:0] $end
$var wire 3 \ DMType [2:0] $end
$var wire 32 ] B [31:0] $end
$var wire 32 ^ Addr_out [31:0] $end
$var wire 1 _ ALUSrc $end
$var wire 5 ` ALUOp [4:0] $end
$var reg 32 a EX_MEM_ALUResult [31:0] $end
$var reg 3 b EX_MEM_DMType [2:0] $end
$var reg 32 c EX_MEM_Inst [31:0] $end
$var reg 1 d EX_MEM_MemWrite $end
$var reg 3 e EX_MEM_NPCOp [2:0] $end
$var reg 32 f EX_MEM_PC [31:0] $end
$var reg 32 g EX_MEM_RD2 [31:0] $end
$var reg 1 h EX_MEM_RegWrite $end
$var reg 2 i EX_MEM_WDSel [1:0] $end
$var reg 5 j EX_MEM_rd [4:0] $end
$var reg 1 k EX_MEM_valid $end
$var reg 5 l ID_EX_ALUOp [4:0] $end
$var reg 1 m ID_EX_ALUSrc $end
$var reg 3 n ID_EX_DMType [2:0] $end
$var reg 32 o ID_EX_Imm [31:0] $end
$var reg 32 p ID_EX_Inst [31:0] $end
$var reg 1 q ID_EX_MemWrite $end
$var reg 3 r ID_EX_NPCOp [2:0] $end
$var reg 32 s ID_EX_PC [31:0] $end
$var reg 32 t ID_EX_RD1 [31:0] $end
$var reg 32 u ID_EX_RD2 [31:0] $end
$var reg 1 v ID_EX_RegWrite $end
$var reg 2 w ID_EX_WDSel [1:0] $end
$var reg 5 x ID_EX_rd [4:0] $end
$var reg 5 y ID_EX_rs1 [4:0] $end
$var reg 5 z ID_EX_rs2 [4:0] $end
$var reg 1 { ID_EX_valid $end
$var reg 32 | IF_ID_Inst [31:0] $end
$var reg 32 } IF_ID_PC [31:0] $end
$var reg 1 ~ IF_ID_valid $end
$var reg 32 !" MEM_WB_ALUResult [31:0] $end
$var reg 32 "" MEM_WB_Inst [31:0] $end
$var reg 32 #" MEM_WB_MemData [31:0] $end
$var reg 1 $" MEM_WB_MemWrite $end
$var reg 32 %" MEM_WB_PC [31:0] $end
$var reg 32 &" MEM_WB_RD2 [31:0] $end
$var reg 1 '" MEM_WB_RegWrite $end
$var reg 2 (" MEM_WB_WDSel [1:0] $end
$var reg 5 )" MEM_WB_rd [4:0] $end
$var reg 1 *" MEM_WB_valid $end
$var reg 3 +" True_NPCOp [2:0] $end
$var reg 32 ," True_PC_for_next [31:0] $end
$var reg 32 -" WD [31:0] $end
$scope module U_EXT $end
$var wire 12 ." bimm [11:0] $end
$var wire 12 /" iimm [11:0] $end
$var wire 5 0" iimm_shamt [4:0] $end
$var wire 20 1" jimm [19:0] $end
$var wire 12 2" simm [11:0] $end
$var wire 20 3" uimm [19:0] $end
$var wire 6 4" EXTOp [5:0] $end
$var reg 32 5" immout [31:0] $end
$upscope $end
$scope module U_NPC $end
$var wire 32 6" IMM [31:0] $end
$var wire 3 7" NPCOp [2:0] $end
$var wire 32 8" PC [31:0] $end
$var wire 32 9" aluout [31:0] $end
$var wire 32 :" PCPLUS4 [31:0] $end
$var reg 32 ;" NPC [31:0] $end
$upscope $end
$scope module U_PC $end
$var wire 32 <" NPC [31:0] $end
$var wire 1 " clk $end
$var wire 1 * rst $end
$var reg 32 =" PC [31:0] $end
$upscope $end
$scope module U_RF $end
$var wire 5 >" A1 [4:0] $end
$var wire 5 ?" A2 [4:0] $end
$var wire 5 @" A3 [4:0] $end
$var wire 1 '" RFWr $end
$var wire 32 A" WD [31:0] $end
$var wire 1 " clk $end
$var wire 5 B" reg_sel [4:0] $end
$var wire 1 * rst $end
$var wire 32 C" reg_data [31:0] $end
$var wire 32 D" RD2 [31:0] $end
$var wire 32 E" RD1 [31:0] $end
$var integer 32 F" i [31:0] $end
$upscope $end
$scope module U_alu $end
$var wire 32 G" A [31:0] $end
$var wire 5 H" ALUOp [4:0] $end
$var wire 32 I" B [31:0] $end
$var wire 32 J" PC [31:0] $end
$var wire 1 M Zero $end
$var reg 32 K" C [31:0] $end
$upscope $end
$scope module U_ctrl $end
$var wire 1 _ ALUSrc $end
$var wire 3 L" Funct3 [2:0] $end
$var wire 7 M" Funct7 [6:0] $end
$var wire 2 N" GPRSel [1:0] $end
$var wire 1 V MemWrite $end
$var wire 7 O" Op [6:0] $end
$var wire 1 O RegWrite $end
$var wire 1 M Zero $end
$var wire 1 P" is_add $end
$var wire 1 Q" is_addi $end
$var wire 1 R" is_and $end
$var wire 1 S" is_andi $end
$var wire 1 T" is_beq $end
$var wire 1 U" is_bge $end
$var wire 1 V" is_bgeu $end
$var wire 1 W" is_blt $end
$var wire 1 X" is_bltu $end
$var wire 1 Y" is_bne $end
$var wire 1 Z" is_lb $end
$var wire 1 [" is_lbu $end
$var wire 1 \" is_lh $end
$var wire 1 ]" is_lhu $end
$var wire 1 ^" is_lw $end
$var wire 1 _" is_or $end
$var wire 1 `" is_ori $end
$var wire 1 a" is_sb $end
$var wire 1 b" is_sh $end
$var wire 1 c" is_sll $end
$var wire 1 d" is_slli $end
$var wire 1 e" is_slt $end
$var wire 1 f" is_slti $end
$var wire 1 g" is_sltiu $end
$var wire 1 h" is_sltu $end
$var wire 1 i" is_sra $end
$var wire 1 j" is_srai $end
$var wire 1 k" is_srl $end
$var wire 1 l" is_srli $end
$var wire 1 m" is_sub $end
$var wire 1 n" is_sw $end
$var wire 1 o" is_xor $end
$var wire 1 p" is_xori $end
$var wire 1 q" is_stype $end
$var wire 1 r" is_sbtype $end
$var wire 1 s" is_rtype $end
$var wire 1 t" is_lui $end
$var wire 1 u" is_jalr $end
$var wire 1 v" is_jal $end
$var wire 1 w" is_itype_r $end
$var wire 1 x" is_itype_l $end
$var wire 1 y" is_auipc $end
$var wire 2 z" WDSel [1:0] $end
$var wire 3 {" NPCOp [2:0] $end
$var wire 6 |" EXTOp [5:0] $end
$var wire 3 }" DMType [2:0] $end
$var wire 5 ~" ALUOp [4:0] $end
$upscope $end
$upscope $end
$upscope $end
$upscope $end
$enddefinitions $end
$comment Show the parameter values. $end
$dumpall
$end
#0
$dumpvars
bx ~"
bx }"
bx |"
bx {"
bx z"
xy"
xx"
xw"
xv"
xu"
xt"
xs"
xr"
xq"
xp"
xo"
xn"
xm"
xl"
xk"
xj"
xi"
xh"
xg"
xf"
xe"
xd"
xc"
xb"
xa"
x`"
x_"
x^"
x]"
x\"
x["
xZ"
xY"
xX"
xW"
xV"
xU"
xT"
xS"
xR"
xQ"
xP"
bx O"
bz N"
bx M"
bx L"
bx K"
bx J"
bx I"
bx H"
bx G"
bx F"
bx E"
bx D"
bx C"
bx B"
bx A"
bx @"
bx ?"
bx >"
bx ="
bx <"
bx ;"
bx :"
bx 9"
bx 8"
bx 7"
bx 6"
bx 5"
bx 4"
bx 3"
bx 2"
bx 1"
bx 0"
bx /"
bx ."
bx -"
bx ,"
bx +"
x*"
bx )"
bx ("
x'"
bx &"
bx %"
x$"
bx #"
bx ""
bx !"
1~
bx }
bx |
x{
bx z
bx y
bx x
bx w
xv
bx u
bx t
bx s
bx r
xq
bx p
bx o
bx n
xm
bx l
xk
bx j
bx i
xh
bx g
bx f
bx e
xd
bx c
bx b
bx a
bx `
x_
bx ^
bx ]
bx \
bx [
bx Z
bx Y
bx X
bx W
xV
bx U
bx T
bx S
bx R
bx Q
bx P
xO
bx N
xM
bx L
bx K
bx J
bx I
bx H
bx G
bx F
bx E
bx D
bx C
bx B
bx A
bx @
bx ?
bx >
bz =
bx <
bx ;
bx :
bx 9
bx 8
bx 7
bx 6
bx 5
bx 4
bx 3
bx 2
x1
bx 0
bx /
bx .
bx -
bx ,
bx +
0*
bx )
b1000 (
b10 '
b100 &
b0 %
1$
bx #
1"
bx !
$end
#5
b100 U
b100 ;"
b100 <"
b0 +"
b0 7"
b100 :"
b0 ,"
b0 8"
b1010010011 ,
b1010010011 9
b1010010011 >
b0 8
b0 0
b0 R
b0 ="
b100000 F"
1*
0$
#25
0*
1$
#50
0"
#100
1O
1_
b11 `
b11 ~"
b0 ]
b0 G
b0 5"
0P"
0m"
0_"
0R"
0o"
0c"
0e"
0h"
0i"
0k"
0d"
0j"
0l"
0^"
0Z"
0\"
b0 \
b0 }"
0["
0]"
1Q"
0`"
0S"
0p"
0f"
0g"
0n"
0a"
0b"
0T"
0W"
0X"
0Y"
0U"
0V"
b0 Q
b0 E"
b0 P
b0 D"
b1000 U
b1000 ;"
b1000 <"
b0 H
b0 0"
b0 I
b0 /"
b101 A
b101 2"
b10000000010 J
b10000000010 ."
b0 @
b0 3"
b0 F
b0 1"
0s"
b0 N
b0 z"
0x"
1w"
0V
0q"
0r"
b10000 [
b10000 4"
b10000 |"
0v"
b0 T
b0 {"
0u"
0t"
0y"
b10011 S
b10011 O"
b0 Y
b0 M"
b0 Z
b0 L"
b0 C
b0 >"
b0 B
b0 ?"
b101 E
b0 W
b0 X
b1000 :"
b100 ,"
b100 8"
b1100010011 ,
b1100010011 9
b1100010011 >
b1 8
1{
b1010010011 |
b0 }
b100 0
b100 R
b100 ="
b1 %
1"
#150
0"
#200
1M
b0 K
b0 9"
b0 K"
b110 A
b110 2"
b11 J
b11 ."
b110 E
b1100 U
b1100 ;"
b1100 <"
b0 L
b0 I"
b1100 :"
b1000 ,"
b1000 8"
b11111111111111111111001110110111 ,
b11111111111111111111001110110111 9
b11111111111111111111001110110111 >
b10 8
b1100010011 |
b100 }
b0 r
0q
b0 n
b0 w
1v
1m
b11 l
b11 H"
b101 x
b0 z
b0 y
b0 o
b0 6"
b0 u
b0 t
b0 G"
b0 s
b0 J"
b1010010011 p
b0 e
1k
b1000 0
b1000 R
b1000 ="
b10 %
1"
#250
0"
#300
b1 `
b1 ~"
b11111111111111111111000000000000 ]
b11111111111111111111000000000000 G
b11111111111111111111000000000000 5"
b10 [
b10 4"
b10 |"
0Q"
b10000 U
b10000 ;"
b10000 <"
b11111 H
b11111 0"
b111111111111 I
b111111111111 /"
b111111100111 A
b111111100111 2"
b111111110011 J
b111111110011 ."
b11111111111111111111 @
b11111111111111111111 3"
b11111111111111111111 F
b11111111111111111111 1"
0w"
1t"
b110111 S
b110111 O"
b1111111 Y
b1111111 M"
b111 Z
b111 L"
b11111 C
b11111 >"
b11111 B
b11111 ?"
b111 E
b111111111111 W
b11111111111111111111 X
b10000 :"
b1100 ,"
b1100 8"
b10011 ,
b10011 9
b10011 >
b11 8
1*"
b0 2
b0 6
b0 :
b0 b
b0 i
0d
1h
b101 j
b0 g
b0 a
b0 f
b1010010011 c
b110 x
b100 s
b100 J"
b1100010011 p
b11111111111111111111001110110111 |
b1000 }
b1100 0
b1100 R
b1100 ="
b11 %
1"
#350
0"
#400
b11 `
b11 ~"
1O
b0 ]
1_
b0 G
b0 5"
b10000 [
b10000 4"
b10000 |"
1Q"
0M
b11111111111111111111000000000000 K
b11111111111111111111000000000000 9"
b11111111111111111111000000000000 K"
b0 H
b0 0"
b0 I
b0 /"
b0 A
b0 2"
b0 J
b0 ."
b0 @
b0 3"
b0 F
b0 1"
1w"
0t"
b10011 S
b10011 O"
b0 Y
b0 M"
b0 Z
b0 L"
b0 C
b0 >"
b0 B
b0 ?"
b0 E
b0 W
b0 X
b11111111111111111111000000000000 L
b11111111111111111111000000000000 I"
b10100 U
b10100 ;"
b10100 <"
b0 3
b0 -"
b0 A"
b10100 :"
b10000 ,"
b10000 8"
b100 8
b10011 |
b1100 }
b1 l
b1 H"
b111 x
b11111 z
b11111 y
b11111111111111111111000000000000 o
b11111111111111111111000000000000 6"
b1000 s
b1000 J"
b11111111111111111111001110110111 p
b110 j
b100 f
b1100010011 c
01
0$"
b0 ("
1'"
b0 .
b0 5
b0 <
b0 &"
b101 )"
b101 @"
b0 /
b0 ^
b0 !"
b0 %"
b1010010011 ""
b10000 0
b10000 R
b10000 ="
b100 %
1"
#450
0"
#500
1M
b0 K
b0 9"
b0 K"
b0 L
b0 I"
b11000 U
b11000 ;"
b11000 <"
b11000 :"
b10100 ,"
b10100 8"
b101 8
b110 )"
b110 @"
b100 %"
b1100010011 ""
b111 j
b11111111111111111111000000000000 a
b1000 f
b11111111111111111111001110110111 c
b11 l
b11 H"
b0 x
b0 z
b0 y
b0 o
b0 6"
b1100 s
b1100 J"
b10011 p
b10000 }
b10100 0
b10100 R
b10100 ="
b101 %
1"
#550
0"
#600
b11100 U
b11100 ;"
b11100 <"
b11111111111111111111000000000000 -"
b11111111111111111111000000000000 A"
b11100 :"
b11000 ,"
b11000 8"
b10110000000110000101001100011 ,
b10110000000110000101001100011 9
b10110000000110000101001100011 >
b110 8
b10100 }
b10000 s
b10000 J"
b0 j
b0 a
b1100 f
b10011 c
b111 )"
b111 @"
b11111111111111111111000000000000 /
b11111111111111111111000000000000 ^
b11111111111111111111000000000000 !"
b1000 %"
b11111111111111111111001110110111 ""
b11000 0
b11000 R
b11000 ="
b110 %
1"
#650
0"
#700
b101110100 G
b101110100 5"
0_
0O
b100 `
b100 ~"
0Q"
b100 [
b100 4"
b100 |"
1T"
b100000 U
b100000 ;"
b100000 <"
b0 -"
b0 A"
b101100000 I
b101100000 /"
b101110100 A
b101110100 2"
b10111010 J
b10111010 ."
b10110000000110000 @
b10110000000110000 3"
b11000000010110000 F
b11000000010110000 1"
0w"
b1 T
b1 {"
1r"
b1100011 S
b1100011 O"
b1011 Y
b1011 M"
b110 C
b110 >"
b10100 E
b101100000 W
b10110000000110000 X
b100000 :"
b11100 ,"
b11100 8"
b10011 ,
b10011 9
b10011 >
b111 8
b0 )"
b0 @"
b0 /
b0 ^
b0 !"
b1100 %"
b10011 ""
b10000 f
b10100 s
b10100 J"
b10110000000110000101001100011 |
b11000 }
b11100 0
b11100 R
b11100 ="
b111 %
1"
#750
0"
#800
1_
1O
b11 `
b11 ~"
b0 G
b0 5"
1Q"
b10000 [
b10000 4"
b10000 |"
0T"
b0 I
b0 /"
b0 A
b0 2"
b0 J
b0 ."
b0 @
b0 3"
b0 F
b0 1"
1w"
b0 T
b0 {"
0r"
b10011 S
b10011 O"
b0 Y
b0 M"
b0 C
b0 >"
b0 E
b0 W
b0 X
b110001100 U
b110001100 ;"
b110001100 <"
b1 +"
b1 7"
b11100 :"
b11000 ,"
b11000 8"
b1000 8
b10011 |
b11100 }
b1 r
0v
0m
b100 l
b100 H"
b10100 x
b110 y
b101110100 o
b101110100 6"
b11000 s
b11000 J"
b10110000000110000101001100011 p
b1 e
b10100 f
b10000 %"
b100000 0
b100000 R
b100000 ="
b1000 %
1"
#850
0"
#900
b110010000 U
b110010000 ;"
b110010000 <"
b0 +"
b0 7"
b110010000 :"
b110001100 ,"
b110001100 8"
b100101000001010010011 ,
b100101000001010010011 9
b100101000001010010011 >
b1100011 8
b10100 %"
0h
b10100 j
b0 e
b11000 f
b10110000000110000101001100011 c
b0 r
1v
1m
b11 l
b11 H"
b0 x
b0 y
b0 o
b0 6"
b11100 s
b11100 J"
b10011 p
b100000 }
b110001100 0
b110001100 R
b110001100 ="
b1001 %
1"
#950
0"
#1000
b1 ]
b1 G
b1 5"
b110010100 U
b110010100 ;"
b110010100 <"
b1 H
b1 0"
b1 I
b1 /"
b101 A
b101 2"
b10000000010 J
b10000000010 ."
b100101000 @
b100101000 3"
b10100010000000000 F
b10100010000000000 1"
b101 C
b101 >"
b1 B
b1 ?"
b101 E
b1 W
b100101000 X
b110010100 :"
b110010000 ,"
b110010000 8"
b10011 ,
b10011 9
b10011 >
b1100100 8
b100101000001010010011 |
b110001100 }
b100000 s
b100000 J"
1h
b0 j
b11100 f
b10011 c
0'"
b10100 )"
b10100 @"
b11000 %"
b10110000000110000101001100011 ""
b110010000 0
b110010000 R
b110010000 ="
b1010 %
1"
#1025
b11111111111111111111000000000000 !
b11111111111111111111000000000000 +
b11111111111111111111000000000000 D
b11111111111111111111000000000000 C"
b111 #
b111 )
b111 ?
b111 B"
#1050
0"
#1100
b0 ]
0M
b1 K
b1 9"
b1 K"
b0 G
b0 5"
b1 L
b1 I"
b110011000 U
b110011000 ;"
b110011000 <"
b0 H
b0 0"
b0 I
b0 /"
b0 A
b0 2"
b0 J
b0 ."
b0 @
b0 3"
b0 F
b0 1"
b0 C
b0 >"
b0 B
b0 ?"
b0 E
b0 W
b0 X
b110011000 :"
b110010100 ,"
b110010100 8"
b1100101 8
1'"
b0 )"
b0 @"
b11100 %"
b10011 ""
b100000 f
b101 x
b1 z
b101 y
b1 o
b1 6"
b110001100 s
b110001100 J"
b100101000001010010011 p
b10011 |
b110010000 }
b110010100 0
b110010100 R
b110010100 ="
b1011 %
1"
#1150
0"
#1200
1M
b0 K
b0 9"
b0 K"
b0 L
b0 I"
b110011100 U
b110011100 ;"
b110011100 <"
b110011100 :"
b110011000 ,"
b110011000 8"
b1100110 8
b110010100 }
b0 x
b0 z
b0 y
b0 o
b0 6"
b110010000 s
b110010000 J"
b10011 p
b101 j
b1 a
b110001100 f
b100101000001010010011 c
b100000 %"
b110011000 0
b110011000 R
b110011000 ="
b1100 %
1"
#1250
0"
#1300
b110100000 U
b110100000 ;"
b110100000 <"
b1 -"
b1 A"
b110100000 :"
b110011100 ,"
b110011100 8"
b11101001000111111111000001101111 ,
b11101001000111111111000001101111 9
b11101001000111111111000001101111 >
b1100111 8
b101 )"
b101 @"
b1 /
b1 ^
b1 !"
b110001100 %"
b100101000001010010011 ""
b0 j
b0 a
b110010000 f
b10011 c
b110010100 s
b110010100 J"
b110011000 }
b110011100 0
b110011100 R
b110011100 ="
b1101 %
1"
#1350
0"
#1400
b0 `
b0 ~"
b11111111111111111111111010010000 ]
b11111111111111111111111010010000 G
b11111111111111111111111010010000 5"
b10 N
b10 z"
0Q"
b110100100 U
b110100100 ;"
b110100100 <"
b10001 H
b10001 0"
b111010010001 I
b111010010001 /"
b111010000000 A
b111010000000 2"
b101101000000 J
b101101000000 ."
b11101001000111111111 @
b11101001000111111111 3"
b11111111111101001000 F
b11111111111101001000 1"
0w"
b10 T
b10 {"
b1 [
b1 4"
b1 |"
1v"
b1101111 S
b1101111 O"
b1110100 Y
b1110100 M"
b111 Z
b111 L"
b11111 C
b11111 >"
b10001 B
b10001 ?"
b111010010001 W
b11101001000111111111 X
b0 -"
b0 A"
b110100100 :"
b110100000 ,"
b110100000 8"
b10011 ,
b10011 9
b10011 >
b1101000 8
b11101001000111111111000001101111 |
b110011100 }
b110011000 s
b110011000 J"
b110010100 f
b0 )"
b0 @"
b0 /
b0 ^
b0 !"
b110010000 %"
b10011 ""
b110100000 0
b110100000 R
b110100000 ="
b1110 %
1"
#1450
0"
#1500
b11 `
b11 ~"
1_
1O
b0 ]
b0 N
b0 z"
b0 G
b0 5"
1Q"
b11111111111111111111111010010000 L
b11111111111111111111111010010000 I"
b101100 U
b101100 ;"
b101100 <"
b0 H
b0 0"
b0 I
b0 /"
b0 A
b0 2"
b0 J
b0 ."
b0 @
b0 3"
b0 F
b0 1"
1w"
b0 T
b0 {"
b10000 [
b10000 4"
b10000 |"
0v"
b10011 S
b10011 O"
b0 Y
b0 M"
b0 Z
b0 L"
b0 C
b0 >"
b0 B
b0 ?"
b0 W
b0 X
b10 +"
b10 7"
b110100000 :"
b110011100 ,"
b110011100 8"
b1101001 8
b110010100 %"
b10 e
b110011000 f
b10 r
b10 w
b0 l
b0 H"
b10001 z
b11111 y
b11111111111111111111111010010000 o
b11111111111111111111111010010000 6"
b110011100 s
b110011100 J"
b11101001000111111111000001101111 p
b10011 |
b110100000 }
b110100100 0
b110100100 R
b110100100 ="
b1111 %
1"
#1550
0"
#1600
b0 L
b0 I"
b110000 U
b110000 ;"
b110000 <"
1M
b0 K
b0 9"
b0 K"
b0 +"
b0 7"
b110000 :"
b101100 ,"
b101100 8"
b10000000111000001001100011 ,
b10000000111000001001100011 9
b10000000111000001001100011 >
b1011 8
b110100100 }
b0 r
b0 w
b11 l
b11 H"
b0 z
b0 y
b0 o
b0 6"
b110100000 s
b110100000 J"
b10011 p
b10 i
b0 e
b110011100 f
b11101001000111111111000001101111 c
b110011000 %"
b101100 0
b101100 R
b101100 ="
b10000 %
1"
#1650
0"
#1700
b100100 G
b100100 5"
0_
0O
b100 `
b100 ~"
0Q"
b100 [
b100 4"
b100 |"
1T"
b11111111111111111111000000000000 Q
b11111111111111111111000000000000 E"
b110100 U
b110100 ;"
b110100 <"
b110100000 -"
b110100000 A"
b100000 I
b100000 /"
b100100 A
b100100 2"
b10010 J
b10010 ."
b10000000111000 @
b10000000111000 3"
b11100000000010000 F
b11100000000010000 1"
0w"
b1 T
b1 {"
1r"
b1100011 S
b1100011 O"
b1 Y
b1 M"
b111 C
b111 >"
b100 E
b100000 W
b10000000111000 X
b110100 :"
b110000 ,"
b110000 8"
b10011 ,
b10011 9
b10011 >
b1100 8
b10 ("
b110011100 %"
b11101001000111111111000001101111 ""
b0 i
b110100000 f
b10011 c
b110100100 s
b110100100 J"
b10000000111000001001100011 |
b101100 }
b110000 0
b110000 R
b110000 ="
b10001 %
1"
#1750
0"
#1800
1_
1O
b11 `
b11 ~"
b0 G
b0 5"
1Q"
0T"
b0 Q
b0 E"
b10000 [
b10000 4"
b10000 |"
b0 I
b0 /"
b0 A
b0 2"
b0 J
b0 ."
b0 @
b0 3"
b0 F
b0 1"
1w"
b0 T
b0 {"
0r"
b10011 S
b10011 O"
b0 Y
b0 M"
b0 C
b0 >"
b0 E
b0 W
b0 X
b111000 U
b111000 ;"
b111000 <"
0M
b11111111111111111111000000000000 K
b11111111111111111111000000000000 9"
b11111111111111111111000000000000 K"
b0 -"
b0 A"
b0 +"
b0 7"
b111000 :"
b110100 ,"
b110100 8"
b1101 8
b10011 |
b110000 }
b1 r
0v
0m
b100 l
b100 H"
b100 x
b111 y
b100100 o
b100100 6"
b11111111111111111111000000000000 t
b11111111111111111111000000000000 G"
b101100 s
b101100 J"
b10000000111000001001100011 p
b1 e
b110100100 f
b0 ("
b110100000 %"
b10011 ""
b110100 0
b110100 R
b110100 ="
b10010 %
1"
#1850
0"
#1900
b111100 U
b111100 ;"
b111100 <"
1M
b0 K
b0 9"
b0 K"
b111100 :"
b111000 ,"
b111000 8"
b1110 8
b110100100 %"
0h
b100 j
b0 e
b11111111111111111111000000000000 a
b101100 f
b10000000111000001001100011 c
b0 r
1v
1m
b11 l
b11 H"
b0 x
b0 y
b0 o
b0 6"
b0 t
b0 G"
b110000 s
b110000 J"
b10011 p
b110100 }
b111000 0
b111000 R
b111000 ="
b10011 %
1"
#1950
0"
#2000
b1000000 U
b1000000 ;"
b1000000 <"
b11111111111111111111000000000000 -"
b11111111111111111111000000000000 A"
b1000000 :"
b111100 ,"
b111100 8"
b1111 8
b111000 }
b110100 s
b110100 J"
1h
b0 j
b0 a
b110000 f
b10011 c
0'"
b100 )"
b100 @"
b11111111111111111111000000000000 /
b11111111111111111111000000000000 ^
b11111111111111111111000000000000 !"
b101100 %"
b10000000111000001001100011 ""
b111100 0
b111100 R
b111100 ="
b10100 %
1"
#2050
0"
#2100
b1000100 U
b1000100 ;"
b1000100 <"
b0 -"
b0 A"
b1000100 :"
b1000000 ,"
b1000000 8"
b100101000001010010011 ,
b100101000001010010011 9
b100101000001010010011 >
b10000 8
1'"
b0 )"
b0 @"
b0 /
b0 ^
b0 !"
b110000 %"
b10011 ""
b110100 f
b111000 s
b111000 J"
b111100 }
b1000000 0
b1000000 R
b1000000 ="
b10101 %
1"
#2150
0"
#2200
b1 ]
b1 G
b1 5"
b1 Q
b1 E"
b1001000 U
b1001000 ;"
b1001000 <"
b1 H
b1 0"
b1 I
b1 /"
b101 A
b101 2"
b10000000010 J
b10000000010 ."
b100101000 @
b100101000 3"
b10100010000000000 F
b10100010000000000 1"
b101 C
b101 >"
b1 B
b1 ?"
b101 E
b1 W
b100101000 X
b1001000 :"
b1000100 ,"
b1000100 8"
b10011 ,
b10011 9
b10011 >
b10001 8
b100101000001010010011 |
b1000000 }
b111100 s
b111100 J"
b111000 f
b110100 %"
b1000100 0
b1000100 R
b1000100 ="
b10110 %
1"
#2250
0"
#2300
b0 ]
b0 G
b0 5"
b0 Q
b0 E"
b1 L
b1 I"
b1001100 U
b1001100 ;"
b1001100 <"
0M
b10 K
b10 9"
b10 K"
b0 H
b0 0"
b0 I
b0 /"
b0 A
b0 2"
b0 J
b0 ."
b0 @
b0 3"
b0 F
b0 1"
b0 C
b0 >"
b0 B
b0 ?"
b0 E
b0 W
b0 X
b1001100 :"
b1001000 ,"
b1001000 8"
b10010 8
b111000 %"
b111100 f
b101 x
b1 z
b101 y
b1 o
b1 6"
b1 t
b1 G"
b1000000 s
b1000000 J"
b100101000001010010011 p
b10011 |
b1000100 }
b1001000 0
b1001000 R
b1001000 ="
b10111 %
1"
#2350
0"
#2400
1M
b0 L
b0 I"
b1010000 U
b1010000 ;"
b1010000 <"
b0 K
b0 9"
b0 K"
b1010000 :"
b1001100 ,"
b1001100 8"
b10011 8
b1001000 }
b0 x
b0 z
b0 y
b0 o
b0 6"
b0 t
b0 G"
b1000100 s
b1000100 J"
b10011 p
b101 j
b10 a
b1000000 f
b100101000001010010011 c
b111100 %"
b1001100 0
b1001100 R
b1001100 ="
b11000 %
1"
#2450
0"
#2500
b1010100 U
b1010100 ;"
b1010100 <"
b10 -"
b10 A"
b1010100 :"
b1010000 ,"
b1010000 8"
b10110000000111001101001100011 ,
b10110000000111001101001100011 9
b10110000000111001101001100011 >
b10100 8
b101 )"
b101 @"
b10 /
b10 ^
b10 !"
b1000000 %"
b100101000001010010011 ""
b0 j
b0 a
b1000100 f
b10011 c
b1001000 s
b1001000 J"
b1001100 }
b1010000 0
b1010000 R
b1010000 ="
b11001 %
1"
#2550
0"
#2600
b101110100 G
b101110100 5"
0_
0O
b101 `
b101 ~"
b100 [
b100 4"
b100 |"
0Q"
1Y"
b11111111111111111111000000000000 Q
b11111111111111111111000000000000 E"
b1011000 U
b1011000 ;"
b1011000 <"
b101100000 I
b101100000 /"
b101110100 A
b101110100 2"
b10111010 J
b10111010 ."
b10110000000111001 @
b10110000000111001 3"
b11100100010110000 F
b11100100010110000 1"
0w"
b1 T
b1 {"
1r"
b1100011 S
b1100011 O"
b1011 Y
b1011 M"
b1 Z
b1 L"
b111 C
b111 >"
b10100 E
b101100000 W
b10110000000111001 X
b0 -"
b0 A"
b1011000 :"
b1010100 ,"
b1010100 8"
b10011 ,
b10011 9
b10011 >
b10101 8
b10110000000111001101001100011 |
b1010000 }
b1001100 s
b1001100 J"
b1001000 f
b0 )"
b0 @"
b0 /
b0 ^
b0 !"
b1000100 %"
b10011 ""
b1010100 0
b1010100 R
b1010100 ="
b11010 %
1"
#2650
0"
