a.vcd
$date
	Sun Jul 13 10:26:16 2025
$end
$version
	Icarus Verilog
$end
$timescale
	1s
$end
$scope module sccomp_tb $end
$var wire 32 ! reg_data [31:0] $end
$var reg 1 " clk $end
$var reg 5 # reg_sel [4:0] $end
$var reg 1 $ rstn $end
$var integer 32 % counter [31:0] $end
$var integer 32 & debug_output [31:0] $end
$var integer 32 ' foutput [31:0] $end
$var integer 32 ( pc_output [31:0] $end
$scope module U_SCCOMP $end
$var wire 1 " clk $end
$var wire 1 ) clk_used $end
$var wire 32 * reg_data [31:0] $end
$var wire 5 + reg_sel [4:0] $end
$var wire 1 , rst $end
$var wire 1 $ rstn $end
$var wire 16 - sw_i [15:0] $end
$var wire 1 . rom_disp $end
$var wire 1 / rf_pause $end
$var wire 32 0 rf_disp_data [31:0] $end
$var wire 1 1 rf_disp $end
$var wire 5 2 rf_addr [4:0] $end
$var wire 1 3 pc_pause $end
$var wire 1 4 pc_disp $end
$var wire 32 5 instr [31:0] $end
$var wire 4 6 initial_addr_sel [3:0] $end
$var wire 1 7 imm_disp $end
$var wire 1 8 fast_disp $end
$var wire 1 9 dm_pause $end
$var wire 32 : dm_dout [31:0] $end
$var wire 5 ; dm_disp_addr [4:0] $end
$var wire 1 < dm_disp $end
$var wire 32 = dm_din [31:0] $end
$var wire 32 > dm_addr [31:0] $end
$var wire 8 ? disp_seg_o [7:0] $end
$var wire 8 @ disp_an_o [7:0] $end
$var wire 1 A clk_slow $end
$var wire 1 B clk_fast $end
$var wire 1 C clk_disp $end
$var wire 1 D clk_addr $end
$var wire 1 E alu_pause $end
$var wire 1 F alu_disp $end
$var wire 32 G PC [31:0] $end
$var wire 1 H MemWrite $end
$var wire 1 I MemRead $end
$var wire 3 J DMType [2:0] $end
$var reg 32 K disp_data [31:0] $end
$scope module U_DM $end
$var wire 9 L addr [8:0] $end
$var wire 1 ) clk $end
$var wire 32 M din [31:0] $end
$var wire 1 H DMWr $end
$var wire 3 N DMType [2:0] $end
$var wire 1 I DMRd $end
$var reg 32 O dout [31:0] $end
$upscope $end
$scope module U_IM $end
$var wire 30 P addr [31:2] $end
$var wire 32 Q dout [31:0] $end
$upscope $end
$scope module U_SCPU $end
$var wire 3 R DMType_out [2:0] $end
$var wire 32 S Data_in [31:0] $end
$var wire 32 T Data_out [31:0] $end
$var wire 2 U GPRSel [1:0] $end
$var wire 1 I MemRead_out $end
$var wire 1 ) clk $end
$var wire 32 V inst_in [31:0] $end
$var wire 1 H mem_w $end
$var wire 1 , reset $end
$var wire 20 W uimm [19:0] $end
$var wire 12 X simm [11:0] $end
$var wire 5 Y rs2 [4:0] $end
$var wire 5 Z rs1 [4:0] $end
$var wire 5 [ reg_sel [4:0] $end
$var wire 32 \ reg_data [31:0] $end
$var wire 5 ] rd [4:0] $end
$var wire 32 ^ not_used [31:0] $end
$var wire 20 _ jimm [19:0] $end
$var wire 32 ` jalr_next [31:0] $end
$var wire 32 a immout [31:0] $end
$var wire 5 b iimm_shamt [4:0] $end
$var wire 12 c iimm [11:0] $end
$var wire 12 d bimm [11:0] $end
$var wire 32 e aluout [31:0] $end
$var wire 1 f Zero $end
$var wire 2 g WDSel [1:0] $end
$var wire 1 h Stall $end
$var wire 1 i RegWrite $end
$var wire 32 j RD2 [31:0] $end
$var wire 32 k RD1 [31:0] $end
$var wire 32 l PC_out [31:0] $end
$var wire 7 m Op [6:0] $end
$var wire 3 n NPCOp [2:0] $end
$var wire 32 o NPC [31:0] $end
$var wire 1 p MemWrite $end
$var wire 1 q MemRead $end
$var wire 12 r Imm12 [11:0] $end
$var wire 20 s IMM [19:0] $end
$var wire 7 t Funct7 [6:0] $end
$var wire 3 u Funct3 [2:0] $end
$var wire 4 v ForwardB [3:0] $end
$var wire 4 w ForwardA [3:0] $end
$var wire 6 x EXTOp [5:0] $end
$var wire 3 y DMType [2:0] $end
$var wire 1 z Can_Branch $end
$var wire 32 { B [31:0] $end
$var wire 32 | Addr_out [31:0] $end
$var wire 1 } ALUSrc $end
$var wire 5 ~ ALUOp [4:0] $end
$var reg 32 !" ALU_A [31:0] $end
$var reg 32 "" ALU_A_Btype [31:0] $end
$var reg 32 #" ALU_B [31:0] $end
$var reg 32 $" ALU_B_Btype [31:0] $end
$var reg 32 %" ALU_RD2 [31:0] $end
$var reg 32 &" ALU_RD2_Btype [31:0] $end
$var reg 32 '" EX_MEM_ALUResult [31:0] $end
$var reg 3 (" EX_MEM_DMType [2:0] $end
$var reg 32 )" EX_MEM_Inst [31:0] $end
$var reg 1 *" EX_MEM_MemRead $end
$var reg 1 +" EX_MEM_MemWrite $end
$var reg 3 ," EX_MEM_NPCOp [2:0] $end
$var reg 32 -" EX_MEM_PC [31:0] $end
$var reg 32 ." EX_MEM_RD2 [31:0] $end
$var reg 1 /" EX_MEM_RegWrite $end
$var reg 2 0" EX_MEM_WDSel [1:0] $end
$var reg 5 1" EX_MEM_rd [4:0] $end
$var reg 1 2" EX_MEM_valid $end
$var reg 5 3" ID_EX_ALUOp [4:0] $end
$var reg 1 4" ID_EX_ALUSrc $end
$var reg 3 5" ID_EX_DMType [2:0] $end
$var reg 32 6" ID_EX_Imm [31:0] $end
$var reg 32 7" ID_EX_Inst [31:0] $end
$var reg 1 8" ID_EX_MemRead $end
$var reg 1 9" ID_EX_MemWrite $end
$var reg 3 :" ID_EX_NPCOp [2:0] $end
$var reg 32 ;" ID_EX_PC [31:0] $end
$var reg 32 <" ID_EX_RD1 [31:0] $end
$var reg 32 =" ID_EX_RD2 [31:0] $end
$var reg 1 >" ID_EX_RegWrite $end
$var reg 2 ?" ID_EX_WDSel [1:0] $end
$var reg 5 @" ID_EX_rd [4:0] $end
$var reg 5 A" ID_EX_rs1 [4:0] $end
$var reg 5 B" ID_EX_rs2 [4:0] $end
$var reg 1 C" ID_EX_valid $end
$var reg 1 D" IF_Flush $end
$var reg 32 E" IF_ID_Inst [31:0] $end
$var reg 32 F" IF_ID_PC [31:0] $end
$var reg 1 G" IF_ID_valid $end
$var reg 32 H" MEM_WB_ALUResult [31:0] $end
$var reg 32 I" MEM_WB_Inst [31:0] $end
$var reg 32 J" MEM_WB_MemData [31:0] $end
$var reg 1 K" MEM_WB_MemRead $end
$var reg 1 L" MEM_WB_MemWrite $end
$var reg 32 M" MEM_WB_PC [31:0] $end
$var reg 32 N" MEM_WB_RD2 [31:0] $end
$var reg 1 O" MEM_WB_RegWrite $end
$var reg 2 P" MEM_WB_WDSel [1:0] $end
$var reg 5 Q" MEM_WB_rd [4:0] $end
$var reg 1 R" MEM_WB_valid $end
$var reg 32 S" RD1_For_Jalr [31:0] $end
$var reg 3 T" True_NPCOp [2:0] $end
$var reg 32 U" True_PC_for_next [31:0] $end
$var reg 32 V" WD [31:0] $end
$scope module U_EXT $end
$var wire 12 W" bimm [11:0] $end
$var wire 12 X" iimm [11:0] $end
$var wire 5 Y" iimm_shamt [4:0] $end
$var wire 20 Z" jimm [19:0] $end
$var wire 12 [" simm [11:0] $end
$var wire 20 \" uimm [19:0] $end
$var wire 6 ]" EXTOp [5:0] $end
$var reg 32 ^" immout [31:0] $end
$upscope $end
$scope module U_Forward_unit $end
$var wire 1 _" EX_MEM_ForwardA $end
$var wire 1 `" EX_MEM_ForwardB $end
$var wire 1 *" EX_MEM_MemRead $end
$var wire 1 /" EX_MEM_RegWrite $end
$var wire 5 a" EX_MEM_rd [4:0] $end
$var wire 1 b" ID_EX_ForwardA $end
$var wire 1 c" ID_EX_ForwardB $end
$var wire 5 d" ID_EX_rs1 [4:0] $end
$var wire 5 e" ID_EX_rs2 [4:0] $end
$var wire 1 f" ID_MEM_ForwardA $end
$var wire 1 g" ID_MEM_ForwardB $end
$var wire 1 h" MEM_WB_ForwardA $end
$var wire 1 i" MEM_WB_ForwardB $end
$var wire 1 K" MEM_WB_MemRead $end
$var wire 1 O" MEM_WB_RegWrite $end
$var wire 5 j" MEM_WB_rd [4:0] $end
$var wire 5 k" rs1 [4:0] $end
$var wire 5 l" rs2 [4:0] $end
$var wire 3 m" NPCOp [2:0] $end
$var wire 4 n" ForwardB [3:0] $end
$var wire 4 o" ForwardA [3:0] $end
$upscope $end
$scope module U_Hazard_Detection $end
$var wire 1 *" EX_MEM_MemRead $end
$var wire 5 p" EX_MEM_rd [4:0] $end
$var wire 1 8" ID_EX_MemRead $end
$var wire 1 >" ID_EX_RegWrite $end
$var wire 5 q" ID_EX_rd [4:0] $end
$var wire 5 r" rs1 [4:0] $end
$var wire 5 s" rs2 [4:0] $end
$var wire 3 t" NPCOp [2:0] $end
$var reg 1 h Stall $end
$upscope $end
$scope module U_NPC $end
$var wire 32 u" IMM [31:0] $end
$var wire 3 v" NPCOp [2:0] $end
$var wire 32 w" PC [31:0] $end
$var wire 32 x" aluout [31:0] $end
$var wire 32 y" PCPLUS4 [31:0] $end
$var reg 32 z" NPC [31:0] $end
$upscope $end
$scope module U_PC $end
$var wire 32 {" NPC [31:0] $end
$var wire 1 h Stall $end
$var wire 1 ) clk $end
$var wire 1 , rst $end
$var reg 32 |" PC [31:0] $end
$upscope $end
$scope module U_RF $end
$var wire 5 }" A1 [4:0] $end
$var wire 5 ~" A2 [4:0] $end
$var wire 5 !# A3 [4:0] $end
$var wire 1 O" RFWr $end
$var wire 32 "# WD [31:0] $end
$var wire 1 ) clk $end
$var wire 1 , rst $end
$var wire 5 ## reg_sel [4:0] $end
$var wire 32 $# reg_data [31:0] $end
$var wire 32 %# RD2 [31:0] $end
$var wire 32 &# RD1 [31:0] $end
$var integer 32 '# i [31:0] $end
$upscope $end
$scope module U_alu $end
$var wire 32 (# A [31:0] $end
$var wire 5 )# ALUOp [4:0] $end
$var wire 32 *# B [31:0] $end
$var wire 32 +# PC [31:0] $end
$var wire 1 f Zero $end
$var reg 32 ,# C [31:0] $end
$upscope $end
$scope module U_alu_Btype $end
$var wire 32 -# A [31:0] $end
$var wire 32 .# B [31:0] $end
$var wire 32 /# PC [31:0] $end
$var wire 1 z Zero $end
$var wire 5 0# ALUOp [4:0] $end
$var reg 32 1# C [31:0] $end
$upscope $end
$scope module U_ctrl $end
$var wire 1 } ALUSrc $end
$var wire 3 2# Funct3 [2:0] $end
$var wire 7 3# Funct7 [6:0] $end
$var wire 2 4# GPRSel [1:0] $end
$var wire 1 q MemRead $end
$var wire 1 p MemWrite $end
$var wire 7 5# Op [6:0] $end
$var wire 1 i RegWrite $end
$var wire 1 f Zero $end
$var wire 1 6# is_add $end
$var wire 1 7# is_addi $end
$var wire 1 8# is_and $end
$var wire 1 9# is_andi $end
$var wire 1 :# is_beq $end
$var wire 1 ;# is_bge $end
$var wire 1 <# is_bgeu $end
$var wire 1 =# is_blt $end
$var wire 1 ># is_bltu $end
$var wire 1 ?# is_bne $end
$var wire 1 @# is_lb $end
$var wire 1 A# is_lbu $end
$var wire 1 B# is_lh $end
$var wire 1 C# is_lhu $end
$var wire 1 D# is_lw $end
$var wire 1 E# is_or $end
$var wire 1 F# is_ori $end
$var wire 1 G# is_sb $end
$var wire 1 H# is_sh $end
$var wire 1 I# is_sll $end
$var wire 1 J# is_slli $end
$var wire 1 K# is_slt $end
$var wire 1 L# is_slti $end
$var wire 1 M# is_sltiu $end
$var wire 1 N# is_sltu $end
$var wire 1 O# is_sra $end
$var wire 1 P# is_srai $end
$var wire 1 Q# is_srl $end
$var wire 1 R# is_srli $end
$var wire 1 S# is_sub $end
$var wire 1 T# is_sw $end
$var wire 1 U# is_xor $end
$var wire 1 V# is_xori $end
$var wire 1 W# is_stype $end
$var wire 1 X# is_sbtype $end
$var wire 1 Y# is_rtype $end
$var wire 1 Z# is_lui $end
$var wire 1 [# is_jalr $end
$var wire 1 \# is_jal $end
$var wire 1 ]# is_itype_r $end
$var wire 1 ^# is_itype_l $end
$var wire 1 _# is_auipc $end
$var wire 2 `# WDSel [1:0] $end
$var wire 3 a# NPCOp [2:0] $end
$var wire 6 b# EXTOp [5:0] $end
$var wire 3 c# DMType [2:0] $end
$var wire 5 d# ALUOp [4:0] $end
$upscope $end
$upscope $end
$scope module div12 $end
$var wire 1 " clk $end
$var wire 1 C clk_out $end
$var parameter 32 e# DIV_NUM $end
$var reg 15 f# counter [14:0] $end
$upscope $end
$scope module div24 $end
$var wire 1 " clk $end
$var wire 1 B clk_out $end
$var parameter 32 g# DIV_NUM $end
$var reg 26 h# counter [25:0] $end
$upscope $end
$scope module div27 $end
$var wire 1 " clk $end
$var wire 1 A clk_out $end
$var parameter 32 i# DIV_NUM $end
$var reg 28 j# counter [27:0] $end
$upscope $end
$scope module u_disp_seg16x $end
$var wire 8 k# an_o [7:0] $end
$var wire 1 C clk $end
$var wire 32 l# disp_data [31:0] $end
$var wire 1 $ rstn $end
$var wire 8 m# seg_o [7:0] $end
$var reg 8 n# reg_an_o [7:0] $end
$var reg 8 o# reg_seg_o [7:0] $end
$var reg 3 p# selector [2:0] $end
$scope function seven_seg_translator $end
$var reg 4 q# num [3:0] $end
$upscope $end
$scope begin genblk1[0] $end
$var parameter 2 r# i $end
$upscope $end
$scope begin genblk1[1] $end
$var parameter 2 s# i $end
$upscope $end
$scope begin genblk1[2] $end
$var parameter 3 t# i $end
$upscope $end
$scope begin genblk1[3] $end
$var parameter 3 u# i $end
$upscope $end
$scope begin genblk1[4] $end
$var parameter 4 v# i $end
$upscope $end
$scope begin genblk1[5] $end
$var parameter 4 w# i $end
$upscope $end
$scope begin genblk1[6] $end
$var parameter 4 x# i $end
$upscope $end
$scope begin genblk1[7] $end
$var parameter 4 y# i $end
$upscope $end
$upscope $end
$scope module u_rf_addr $end
$var wire 1 / addr_pause $end
$var wire 1 D clk $end
$var wire 1 $ rstn $end
$var parameter 32 z# ADDR_SIZE $end
$var reg 5 {# data_out [4:0] $end
$upscope $end
$upscope $end
$upscope $end
$enddefinitions $end
$comment Show the parameter values. $end
$dumpall
b100000 z#
b111 y#
b110 x#
b101 w#
b100 v#
b11 u#
b10 t#
b1 s#
b0 r#
b11011 i#
b11001 g#
b1110 e#
$end
#0
$dumpvars
bx {#
bx q#
bx p#
b11111111 o#
bx n#
b11111111 m#
b11111111111111111111111111111111 l#
bx k#
bx j#
bx h#
bx f#
bx d#
bx c#
bx b#
bx a#
bx `#
x_#
x^#
x]#
x\#
x[#
xZ#
xY#
xX#
xW#
xV#
xU#
xT#
xS#
xR#
xQ#
xP#
xO#
xN#
xM#
xL#
xK#
xJ#
xI#
xH#
xG#
xF#
xE#
xD#
xC#
xB#
xA#
x@#
x?#
x>#
x=#
x<#
x;#
x:#
x9#
x8#
x7#
x6#
bx 5#
bz 4#
bx 3#
bx 2#
bx 1#
bx 0#
bx /#
bx .#
bx -#
bx ,#
bx +#
bx *#
bx )#
bx (#
bx '#
bx &#
bx %#
bx $#
bx ##
bx "#
bx !#
bx ~"
bx }"
bx |"
bx {"
bx z"
bx y"
bx x"
bx w"
bx v"
bx u"
bx t"
bx s"
bx r"
bx q"
bx p"
bx o"
bx n"
bx m"
bx l"
bx k"
bx j"
xi"
xh"
xg"
xf"
bx e"
bx d"
xc"
xb"
bx a"
x`"
x_"
bx ^"
bx ]"
bx \"
bx ["
bx Z"
bx Y"
bx X"
bx W"
bx V"
bx U"
bx T"
bx S"
xR"
bx Q"
bx P"
xO"
bx N"
bx M"
xL"
xK"
bx J"
bx I"
bx H"
1G"
bx F"
bx E"
xD"
xC"
bx B"
bx A"
bx @"
bx ?"
x>"
bx ="
bx <"
bx ;"
bx :"
x9"
x8"
bx 7"
bx 6"
bx 5"
x4"
bx 3"
x2"
bx 1"
bx 0"
x/"
bx ."
bx -"
bx ,"
x+"
x*"
bx )"
bx ("
bx '"
bx &"
bx %"
bx $"
bx #"
bx ""
bx !"
bx ~
x}
bx |
bx {
xz
bx y
bx x
bx w
bx v
bx u
bx t
bx s
bx r
xq
xp
bx o
bx n
bx m
bx l
bx k
bx j
xi
xh
bx g
xf
bx e
bx d
bx c
bx b
bx a
bx `
bx _
bx ^
bx ]
bx \
bx [
bx Z
bx Y
bx X
bx W
bx V
bz U
bx T
bx S
bx R
bx Q
bx P
bx O
bx N
bx M
bx L
b11111111111111111111111111111111 K
bx J
xI
xH
bx G
zF
zE
xD
xC
xB
xA
bx @
b11111111 ?
bx >
bx =
z<
bz ;
bx :
z9
z8
z7
bz 6
bx 5
z4
z3
bx 2
z1
bx 0
z/
z.
bz -
0,
bx +
bz *
1)
b1000 (
b10 '
b100 &
b0 %
1$
bx #
1"
bz !
$end
#5
b100 o
b100 z"
b100 {"
b0 T"
b0 v"
b100 y"
b0 U"
b0 w"
b10100000000001010010011 5
b10100000000001010010011 Q
b10100000000001010010011 V
b0 P
b0 0
b0 \
b0 $#
b0 G
b0 l
b0 |"
b0 2
b0 [
b0 ##
b0 {#
b100000 '#
1,
0$
#25
0,
1$
#50
0)
0"
#100
b1000 o
b1000 z"
b1000 {"
b1000 y"
b100 U"
b100 w"
0z
b101 ^
b101 1#
b101 {
b101 $"
b101 .#
1i
1}
b11 ~
b11 0#
b11 d#
0g"
0f"
b0xx v
b0xx n"
0c"
b0xx w
b0xx o"
0b"
b0 ""
b0 -#
b101 `
b101 x"
b0 S"
b101 a
b101 ^"
b101 u"
0q
0D"
06#
0S#
0E#
08#
0U#
0I#
0K#
0N#
0O#
0Q#
0J#
0P#
0R#
0D#
0@#
0B#
b0 y
b0 c#
0A#
0C#
17#
0F#
09#
0V#
0L#
0M#
0T#
0G#
0H#
0:#
0=#
0>#
0?#
0;#
0<#
b0 k
b0 &#
0h
b101 b
b101 Y"
b101 c
b101 X"
b101 X
b101 ["
b10000000010 d
b10000000010 W"
b10100000000 W
b10100000000 \"
b10000000010 _
b10000000010 Z"
0Y#
b0 g
b0 `#
0^#
1]#
0p
0W#
0X#
b10000 x
b10000 ]"
b10000 b#
0\#
b0 n
b0 m"
b0 t"
b0 a#
0[#
0Z#
0_#
b10011 m
b10011 5#
b0 t
b0 3#
b0 u
b0 2#
b0 Z
b0 k"
b0 r"
b0 }"
b101 Y
b101 l"
b101 s"
b101 ~"
b101 ]
b101 r
b10100000000 s
b10100000010000000100011 5
b10100000010000000100011 Q
b10100000010000000100011 V
b1 P
1C"
b10100000000001010010011 E"
b0 F"
b0 /#
b100 G
b100 l
b100 |"
b1 %
1)
1"
#150
0)
0"
#200
0f
b101 e
b101 ,#
b1100 o
b1100 z"
b1100 {"
b0 !"
b0 (#
b1100 y"
b1000 U"
b1000 w"
b11 ~
b11 0#
b11 d#
0i
1z
b0 ^
b0 1#
b0 {
b0 $"
b0 .#
b0 `
b0 x"
b0 a
b0 ^"
b0 u"
07#
1T#
b0 X
b0 ["
b0 d
b0 W"
b10100000010 W
b10100000010 \"
b1010000000010 _
b1010000000010 Z"
0]#
b1000 x
b1000 ]"
b1000 b#
1p
1W#
b100011 m
b100011 5#
b10 u
b10 2#
b0 ]
b10100000010 s
b101 #"
b101 *#
b10001100000011 5
b10001100000011 Q
b10001100000011 V
b10 P
b10100000010000000100011 E"
b100 F"
b100 /#
08"
b0 :"
09"
b0 5"
b0 ?"
1>"
14"
b11 3"
b11 )#
b101 @"
b101 q"
b101 B"
b101 e"
b0 A"
b0 d"
b101 6"
b0 <"
b0 ;"
b0 +#
b10100000000001010010011 7"
b0 ,"
12"
b1000 G
b1000 l
b1000 |"
b10 %
1)
1"
#250
0)
0"
#300
b10000 o
b10000 z"
b10000 {"
b101 %"
b10010001101000101011001111000 :
b10010001101000101011001111000 O
b10010001101000101011001111000 S
b10000 y"
b1100 U"
b1100 w"
b11 ~
b11 0#
b11 d#
0i"
b0 &"
1f
b0 e
b0 ,#
1q
1i
1D#
0T#
b0 j
b0 %#
b0x w
b0x o"
0_"
b10 v
b10 n"
1`"
b101 L
b0 #"
b0 *#
b0 b
b0 Y"
b0 c
b0 X"
b110 X
b110 ["
b11 d
b11 W"
b10 W
b10 \"
b1000000000000 _
b1000000000000 Z"
b1 g
b1 `#
1^#
b10000 x
b10000 ]"
b10000 b#
0p
0W#
b11 m
b11 5#
b0 Y
b0 l"
b0 s"
b0 ~"
b110 ]
b0 r
b10 s
b1000110000001110010011 5
b1000110000001110010011 Q
b1000110000001110010011 V
b11 P
1R"
0I
0*"
b0 J
b0 N
b0 R
b0 ("
b0 0"
0H
0+"
1/"
b101 1"
b101 a"
b101 p"
b101 >
b101 |
b101 '"
b0 -"
b10100000000001010010011 )"
19"
0>"
b0 @"
b0 q"
b0 6"
b100 ;"
b100 +#
b10100000010000000100011 7"
b10001100000011 E"
b1000 F"
b1000 /#
b1100 G
b1100 l
b1100 |"
b11 %
1)
1"
#350
0)
0"
#400
b10100 o
b10100 z"
b10100 {"
b0 %"
b10100 y"
b10000 U"
b10000 w"
0z
b10 ^
b10 1#
1}
b10 {
b10 $"
b10 .#
b0 w
b0 o"
0h"
b10 `
b10 x"
b10 a
b10 ^"
b10 u"
0q
1i
0D#
17#
1h
b10 b
b10 Y"
b10 c
b10 X"
b111 X
b111 ["
b10000000011 d
b10000000011 W"
b1000110000 W
b1000110000 \"
b11000000000000001 _
b11000000000000001 Z"
b0 g
b0 `#
0^#
1]#
b10011 m
b10011 5#
b0 u
b0 2#
b110 Z
b110 k"
b110 r"
b110 }"
b10 Y
b10 l"
b10 s"
b10 ~"
b111 ]
b10 r
b1000110000 s
b0 v
b0 n"
0`"
b0 L
b101 V"
b101 "#
b11100000000010000010011 5
b11100000000010000010011 Q
b11100000000010000010011 V
b100 P
b1000110000001110010011 E"
b1100 F"
b1100 /#
18"
09"
b1 ?"
1>"
b110 @"
b110 q"
b0 B"
b0 e"
b0 ="
b1000 ;"
b1000 +#
b10001100000011 7"
1H
1+"
0/"
b0 1"
b0 a"
b0 p"
b101 =
b101 M
b101 T
b101 ."
b0 >
b0 |
b0 '"
b100 -"
b10100000010000000100011 )"
0K"
0L"
b0 P"
1O"
b101 Q"
b101 j"
b101 !#
b101 H"
b10010001101000101011001111000 J"
b0 M"
b10100000000001010010011 I"
b10000 G
b10000 l
b10000 |"
b100 %
1)
1"
#450
0)
0"
#500
b101 :
b101 O
b101 S
b0 V"
b0 "#
1h
1L"
0O"
b101 N"
b0 Q"
b0 j"
b0 !#
b0 H"
b100 M"
b10100000010000000100011 I"
1I
1*"
b1 0"
0H
0+"
1/"
b110 1"
b110 a"
b110 p"
b0 =
b0 M
b0 T
b0 ."
b1000 -"
b10001100000011 )"
b0 ?"
b0 @"
b0 q"
0>"
b0 3"
b0 )#
08"
b11111111111111111111111111111111 ;"
b11111111111111111111111111111111 +#
b10011 7"
b101 %
1)
1"
#550
0)
0"
#600
b10010001101000101011001111000 :
b10010001101000101011001111000 O
b10010001101000101011001111000 S
b111 ^
b111 1#
b101 ""
b101 -#
b111 `
b111 x"
b101 S"
b101 k
b101 &#
0h
b101 V"
b101 "#
0I
0*"
b0 0"
0/"
b0 1"
b0 a"
b0 p"
b11111111111111111111111111111111 -"
b10011 )"
1K"
0L"
b1 P"
1O"
b0 N"
b110 Q"
b110 j"
b110 !#
b101 J"
b1000 M"
b10001100000011 I"
b110 %
1)
1"
#650
0)
0"
#700
b11000 o
b11000 z"
b11000 {"
b101 !"
b101 (#
b11000 y"
b10100 U"
b10100 w"
b111 {
b111 $"
b111 .#
b0 ""
b0 -#
b0 S"
0f
b111 e
b111 ,#
b111 `
b111 x"
b111 a
b111 ^"
b111 u"
b0 k
b0 &#
b0 V"
b0 "#
b10 #"
b10 *#
b111 b
b111 Y"
b111 c
b111 X"
b1000 X
b1000 ["
b100 d
b100 W"
b11100000000 W
b11100000000 \"
b10000000011 _
b10000000011 Z"
b0 Z
b0 k"
b0 r"
b0 }"
b111 Y
b111 l"
b111 s"
b111 ~"
b1000 ]
b111 r
b11100000000 s
b100000111000111001100011 5
b100000111000111001100011 Q
b100000111000111001100011 V
b101 P
0K"
b0 P"
0O"
b0 Q"
b0 j"
b0 !#
b10010001101000101011001111000 J"
b11111111111111111111111111111111 M"
b10011 I"
1>"
b11 3"
b11 )#
b111 @"
b111 q"
b10 B"
b10 e"
b110 A"
b110 d"
b10 6"
b101 <"
b1100 ;"
b1100 +#
b1000110000001110010011 7"
b11100000000010000010011 E"
b10000 F"
b10000 /#
b10100 G
b10100 l
b10100 |"
b111 %
1)
1"
#750
0)
0"
#800
b11100 o
b11100 z"
b11100 {"
b0 T"
b0 v"
b111 %"
b0 !"
b0 (#
b11100 y"
b11000 U"
b11000 w"
0D"
0z
b0 x
b0 ]"
b0 b#
0}
0i
b111 S"
b111 ""
b111 -#
b1000 w
b1000 o"
1b"
b111 ^
b111 1#
b0 &"
b0 {
b0 $"
b0 .#
b100 ~
b100 0#
b100 d#
0c"
b111 `
b111 x"
b0 a
b0 ^"
b0 u"
07#
1:#
1h
b111 e
b111 ,#
b1000 b
b1000 Y"
b1000 c
b1000 X"
b11100 X
b11100 ["
b1110 d
b1110 W"
b100000111000 W
b100000111000 \"
b11100000000000100 _
b11100000000000100 Z"
0]#
b1 n
b1 m"
b1 t"
b1 a#
1X#
b1100011 m
b1100011 5#
b111 Z
b111 k"
b111 r"
b111 }"
b1000 Y
b1000 l"
b1000 s"
b1000 ~"
b11100 ]
b1000 r
b100000111000 s
b111 #"
b111 *#
b10 v
b10 n"
1`"
b111 L
b101000000000010100010011 5
b101000000000010100010011 Q
b101000000000010100010011 V
b110 P
b100000111000111001100011 E"
b10100 F"
b10100 /#
b1000 @"
b1000 q"
b111 B"
b111 e"
b0 A"
b0 d"
b111 6"
b0 <"
b10000 ;"
b10000 +#
b11100000000010000010011 7"
1/"
b111 1"
b111 a"
b111 p"
b111 >
b111 |
b111 '"
b1100 -"
b1000110000001110010011 )"
b11000 G
b11000 l
b11000 |"
b1000 %
1)
1"
#850
0)
0"
#900
b110000 o
b110000 z"
b110000 {"
b1 T"
b1 v"
b11000 y"
b10100 U"
b10100 w"
b0 %"
1D"
1z
b0 ^
b0 1#
b111 $"
b111 .#
b111 &"
b0 w
b0 o"
0b"
1c"
b100011 `
b100011 x"
b11100 a
b11100 ^"
b11100 u"
b111 k
b111 &#
b1000 v
b1000 n"
0`"
b100 x
b100 ]"
b100 b#
b111 V"
b111 "#
0h
1f
b0 e
b0 ,#
1O"
b111 Q"
b111 j"
b111 !#
b111 H"
b1100 M"
b1000110000001110010011 I"
b1000 1"
b1000 a"
b1000 p"
b111 =
b111 M
b111 T
b111 ."
b1 ,"
b10000 -"
b11100000000010000010011 )"
b0 B"
b0 e"
b0 @"
b0 q"
0>"
b0 3"
b0 )#
b11111111111111111111111111111111 ;"
b11111111111111111111111111111111 +#
b10011 7"
b1001 %
1)
1"
#950
0)
0"
#1000
b111 %"
b0 T"
b0 v"
b111 !"
b111 (#
b110100 y"
b110000 U"
b110000 w"
1}
1i
b110100 o
b110100 z"
b110100 {"
b11 ~
b11 0#
b11 d#
b0 ""
b0 -#
b0 S"
1i"
b1 v
b1 n"
0c"
1z
b0 ^
b0 1#
b0 `
b0 x"
b0 a
b0 ^"
b0 u"
17#
0D"
0:#
b0 k
b0 &#
b10000 x
b10000 ]"
b10000 b#
b0 $"
b0 .#
b0 b
b0 Y"
b0 c
b0 X"
b0 X
b0 ["
b0 d
b0 W"
b0 W
b0 \"
b0 _
b0 Z"
1]#
b0 n
b0 m"
b0 t"
b0 a#
0X#
b10011 m
b10011 5#
b0 Z
b0 k"
b0 r"
b0 }"
b0 Y
b0 l"
b0 s"
b0 ~"
b0 ]
b0 r
b0 s
b111 #"
b111 *#
1f
b0 e
b0 ,#
b0 &"
b0 L
b1110000000000010110010011 5
b1110000000000010110010011 Q
b1110000000000010110010011 V
b1100 P
b10011 E"
b11111111111111111111111111111111 F"
b11111111111111111111111111111111 /#
b1 :"
04"
b100 3"
b100 )#
b11100 @"
b11100 q"
b1000 B"
b1000 e"
b111 A"
b111 d"
b11100 6"
b111 <"
b10100 ;"
b10100 +#
b100000111000111001100011 7"
0/"
b0 1"
b0 a"
b0 p"
b0 =
b0 M
b0 T
b0 ."
b0 >
b0 |
b0 '"
b11111111111111111111111111111111 -"
b10011 )"
b111 N"
b1000 Q"
b1000 j"
b1000 !#
b10000 M"
b11100000000010000010011 I"
b110000 G
b110000 l
b110000 |"
b1010 %
1)
1"
#1025
b111 #
b111 +
#1050
0)
0"
#1100
b111000 o
b111000 z"
b111000 {"
b0 %"
b0 !"
b0 (#
b111000 y"
b110100 U"
b110100 w"
0z
b11100 ^
b11100 1#
b0 v
b0 n"
0i"
b11100 {
b11100 $"
b11100 .#
b11100 `
b11100 x"
b11100 a
b11100 ^"
b11100 u"
b0 V"
b0 "#
b0 #"
b0 *#
1f
b0 e
b0 ,#
b11100 b
b11100 Y"
b11100 c
b11100 X"
b1011 X
b1011 ["
b10000000101 d
b10000000101 W"
b1110000000000 W
b1110000000000 \"
b1110 _
b1110 Z"
b11100 Y
b11100 l"
b11100 s"
b11100 ~"
b1011 ]
b11100 r
b1110000000000 s
b1011000000001100111 5
b1011000000001100111 Q
b1011000000001100111 V
b1101 P
0O"
b0 N"
b0 Q"
b0 j"
b0 !#
b0 H"
b11111111111111111111111111111111 M"
b10011 I"
b11100 1"
b11100 a"
b11100 p"
b111 =
b111 M
b111 T
b111 ."
b0 ,"
b10100 -"
b100000111000111001100011 )"
b0 :"
1>"
14"
b11 3"
b11 )#
b0 @"
b0 q"
b0 B"
b0 e"
b0 A"
b0 d"
b0 6"
b0 <"
b11111111111111111111111111111111 ;"
b11111111111111111111111111111111 +#
b10011 7"
b1110000000000010110010011 E"
b110000 F"
b110000 /#
b110100 G
b110100 l
b110100 |"
b1011 %
1)
1"
#1150
0)
0"
