a.vcd
$date
	Thu Jun 26 11:24:17 2025
$end
$version
	Icarus Verilog
$end
$timescale
	1s
$end
$scope module sccomp_tb $end
$var wire 32 ! reg_data [31:0] $end
$var reg 1 " clk $end
$var reg 5 # reg_sel [4:0] $end
$var reg 1 $ rstn $end
$var integer 32 % counter [31:0] $end
$var integer 32 & debug_output [31:0] $end
$var integer 32 ' foutput [31:0] $end
$scope module U_SCCOMP $end
$var wire 3 ( DMType [2:0] $end
$var wire 1 " clk $end
$var wire 32 ) dm_addr [31:0] $end
$var wire 5 * reg_sel [4:0] $end
$var wire 1 + rst $end
$var wire 1 $ rstn $end
$var wire 32 , reg_data [31:0] $end
$var wire 32 - instr [31:0] $end
$var wire 32 . dm_dout [31:0] $end
$var wire 32 / dm_din [31:0] $end
$var wire 32 0 PC [31:0] $end
$var wire 1 1 MemWrite $end
$scope module U_DM $end
$var wire 3 2 DMType [2:0] $end
$var wire 7 3 addr [8:2] $end
$var wire 1 " clk $end
$var wire 32 4 word [31:0] $end
$var wire 32 5 din [31:0] $end
$var wire 1 1 DMWr $end
$var reg 32 6 dout [31:0] $end
$upscope $end
$scope module U_IM $end
$var wire 7 7 addr [8:2] $end
$var wire 32 8 dout [31:0] $end
$upscope $end
$scope module U_SCPU $end
$var wire 32 9 Addr_out [31:0] $end
$var wire 3 : DMType_out [2:0] $end
$var wire 32 ; Data_in [31:0] $end
$var wire 32 < Data_out [31:0] $end
$var wire 2 = GPRSel [1:0] $end
$var wire 1 " clk $end
$var wire 32 > inst_in [31:0] $end
$var wire 1 1 mem_w $end
$var wire 5 ? reg_sel [4:0] $end
$var wire 1 + reset $end
$var wire 20 @ uimm [19:0] $end
$var wire 12 A simm [11:0] $end
$var wire 5 B rs2 [4:0] $end
$var wire 5 C rs1 [4:0] $end
$var wire 32 D reg_data [31:0] $end
$var wire 5 E rd [4:0] $end
$var wire 20 F jimm [19:0] $end
$var wire 32 G immout [31:0] $end
$var wire 5 H iimm_shamt [4:0] $end
$var wire 12 I iimm [11:0] $end
$var wire 12 J bimm [11:0] $end
$var wire 32 K aluout [31:0] $end
$var wire 32 L alu_B [31:0] $end
$var wire 1 M Zero $end
$var wire 2 N WDSel [1:0] $end
$var wire 1 O RegWrite $end
$var wire 32 P RD2 [31:0] $end
$var wire 32 Q RD1 [31:0] $end
$var wire 32 R PC_out [31:0] $end
$var wire 7 S Op [6:0] $end
$var wire 3 T NPCOp [2:0] $end
$var wire 32 U NPC [31:0] $end
$var wire 1 V MemWrite $end
$var wire 12 W Imm12 [11:0] $end
$var wire 20 X IMM [19:0] $end
$var wire 7 Y Funct7 [6:0] $end
$var wire 3 Z Funct3 [2:0] $end
$var wire 6 [ EXTOp [5:0] $end
$var wire 3 \ DMType [2:0] $end
$var wire 32 ] B [31:0] $end
$var wire 1 ^ ALUSrc $end
$var wire 5 _ ALUOp [4:0] $end
$var reg 32 ` EX_MEM_ALUResult [31:0] $end
$var reg 3 a EX_MEM_DMType [2:0] $end
$var reg 1 b EX_MEM_MemWrite $end
$var reg 32 c EX_MEM_PC [31:0] $end
$var reg 32 d EX_MEM_RD2 [31:0] $end
$var reg 1 e EX_MEM_RegWrite $end
$var reg 2 f EX_MEM_WDSel [1:0] $end
$var reg 5 g EX_MEM_rd [4:0] $end
$var reg 1 h EX_MEM_valid $end
$var reg 5 i ID_EX_ALUOp [4:0] $end
$var reg 1 j ID_EX_ALUSrc $end
$var reg 3 k ID_EX_DMType [2:0] $end
$var reg 32 l ID_EX_Imm [31:0] $end
$var reg 32 m ID_EX_PC [31:0] $end
$var reg 32 n ID_EX_RD1 [31:0] $end
$var reg 32 o ID_EX_RD2 [31:0] $end
$var reg 1 p ID_EX_RegWrite $end
$var reg 2 q ID_EX_WDSel [1:0] $end
$var reg 5 r ID_EX_rd [4:0] $end
$var reg 5 s ID_EX_rs1 [4:0] $end
$var reg 5 t ID_EX_rs2 [4:0] $end
$var reg 1 u ID_EX_valid $end
$var reg 32 v IF_ID_Inst [31:0] $end
$var reg 32 w IF_ID_PC [31:0] $end
$var reg 1 x IF_ID_valid $end
$var reg 32 y MEM_WB_ALUResult [31:0] $end
$var reg 32 z MEM_WB_MemData [31:0] $end
$var reg 32 { MEM_WB_PC [31:0] $end
$var reg 1 | MEM_WB_RegWrite $end
$var reg 2 } MEM_WB_WDSel [1:0] $end
$var reg 5 ~ MEM_WB_rd [4:0] $end
$var reg 1 !" MEM_WB_valid $end
$var reg 32 "" WD [31:0] $end
$scope module U_EXT $end
$var wire 12 #" bimm [11:0] $end
$var wire 12 $" iimm [11:0] $end
$var wire 5 %" iimm_shamt [4:0] $end
$var wire 20 &" jimm [19:0] $end
$var wire 12 '" simm [11:0] $end
$var wire 20 (" uimm [19:0] $end
$var wire 6 )" EXTOp [5:0] $end
$var reg 32 *" immout [31:0] $end
$upscope $end
$scope module U_NPC $end
$var wire 32 +" IMM [31:0] $end
$var wire 32 ," aluout [31:0] $end
$var wire 32 -" PCPLUS4 [31:0] $end
$var wire 32 ." PC [31:0] $end
$var wire 3 /" NPCOp [2:0] $end
$var reg 32 0" NPC [31:0] $end
$upscope $end
$scope module U_PC $end
$var wire 32 1" NPC [31:0] $end
$var wire 1 " clk $end
$var wire 1 + rst $end
$var reg 32 2" PC [31:0] $end
$upscope $end
$scope module U_RF $end
$var wire 5 3" A1 [4:0] $end
$var wire 5 4" A2 [4:0] $end
$var wire 5 5" A3 [4:0] $end
$var wire 1 | RFWr $end
$var wire 32 6" WD [31:0] $end
$var wire 1 " clk $end
$var wire 5 7" reg_sel [4:0] $end
$var wire 1 + rst $end
$var wire 32 8" reg_data [31:0] $end
$var wire 32 9" RD2 [31:0] $end
$var wire 32 :" RD1 [31:0] $end
$var integer 32 ;" i [31:0] $end
$upscope $end
$scope module U_alu $end
$var wire 32 <" A [31:0] $end
$var wire 5 =" ALUOp [4:0] $end
$var wire 32 >" B [31:0] $end
$var wire 32 ?" PC [31:0] $end
$var wire 1 M Zero $end
$var reg 32 @" C [31:0] $end
$upscope $end
$scope module U_ctrl $end
$var wire 1 ^ ALUSrc $end
$var wire 3 A" Funct3 [2:0] $end
$var wire 7 B" Funct7 [6:0] $end
$var wire 2 C" GPRSel [1:0] $end
$var wire 1 V MemWrite $end
$var wire 7 D" Op [6:0] $end
$var wire 1 O RegWrite $end
$var wire 1 M Zero $end
$var wire 1 E" i_add $end
$var wire 1 F" i_addi $end
$var wire 1 G" i_and $end
$var wire 1 H" i_beq $end
$var wire 1 I" i_jal $end
$var wire 1 J" i_jalr $end
$var wire 1 K" i_or $end
$var wire 1 L" i_ori $end
$var wire 1 M" i_sub $end
$var wire 1 N" i_sw $end
$var wire 1 O" itype_l $end
$var wire 1 P" itype_r $end
$var wire 1 Q" lb $end
$var wire 1 R" lbu $end
$var wire 1 S" lh $end
$var wire 1 T" lhu $end
$var wire 1 U" lw $end
$var wire 1 V" rtype $end
$var wire 1 W" sb $end
$var wire 1 X" sbtype $end
$var wire 1 Y" sh $end
$var wire 1 Z" stype $end
$var wire 1 [" sw $end
$var wire 1 \" lui $end
$var wire 1 ]" auipc $end
$var wire 2 ^" WDSel [1:0] $end
$var wire 3 _" NPCOp [2:0] $end
$var wire 6 `" EXTOp [5:0] $end
$var wire 3 a" DMType [2:0] $end
$var wire 5 b" ALUOp [4:0] $end
$upscope $end
$upscope $end
$upscope $end
$upscope $end
$enddefinitions $end
$comment Show the parameter values. $end
$dumpall
$end
#0
$dumpvars
b0xxxx b"
bx a"
b0xxxxx `"
bx _"
bx ^"
x]"
x\"
x["
xZ"
xY"
xX"
xW"
xV"
xU"
xT"
xS"
xR"
xQ"
xP"
xO"
xN"
xM"
xL"
xK"
xJ"
xI"
xH"
xG"
xF"
xE"
bx D"
bz C"
bx B"
bx A"
bx @"
bx ?"
bx >"
b0xxxx ="
bx <"
bx ;"
bx :"
bx 9"
bx 8"
bx 7"
b11111111111111111111111111111111 6"
bx 5"
bx 4"
bx 3"
bx 2"
bx 1"
bx 0"
bx /"
bx ."
bx -"
bx ,"
b11111111111111111111111111111111 +"
b11111111111111111111111111111111 *"
b0xxxxx )"
bx ("
bx '"
bx &"
bx %"
bx $"
bx #"
b11111111111111111111111111111111 ""
x!"
bx ~
bx }
x|
bx {
b0 z
bx y
1x
bx w
bx v
xu
bx t
bx s
bx r
bx q
xp
bx o
bx n
bx m
b11111111111111111111111111111111 l
bx k
xj
b0xxxx i
xh
bx g
bx f
xe
bx d
bx c
xb
bx a
bx `
b0xxxx _
x^
bx ]
bx \
b0xxxxx [
bx Z
bx Y
bx X
bx W
xV
bx U
bx T
bx S
bx R
bx Q
bx P
xO
bx N
xM
bx L
bx K
bx J
bx I
bx H
b11111111111111111111111111111111 G
bx F
bx E
bx D
bx C
bx B
bx A
bx @
bx ?
bx >
bz =
bx <
b0 ;
bx :
bx 9
bx 8
bx 7
b0 6
bx 5
bx 4
bx 3
bz 2
x1
bx 0
bx /
b0 .
bx -
bx ,
0+
bx *
bx )
bz (
b10 '
b100 &
b0 %
1$
bx #
1"
bx !
$end
#5
b11110001111100101111001010110111 -
b11110001111100101111001010110111 8
b11110001111100101111001010110111 >
b0 7
b100 U
b100 0"
b100 1"
b100 -"
b0 0
b0 R
b0 ."
b0 2"
b100000 ;"
1+
0$
#25
0+
1$
#50
0"
#100
0G"
0J"
b11110001111100101111000000000000 G
b11110001111100101111000000000000 *"
b11110001111100101111000000000000 +"
0V"
b0 N
b0 ^"
0O"
0P"
0V
0Z"
0X"
b0 T
b0 /"
b0 _"
0I"
b11110001111100101111000000000000 ]
0E"
0M"
0K"
0F"
0L"
0N"
0H"
1^
1O
b1 _
b1 b"
b10 [
b10 )"
b10 `"
0U"
0Q"
0S"
b0 \
b0 a"
0R"
0T"
0["
0W"
0Y"
b0 Q
b0 :"
b0 P
b0 9"
b11111 H
b11111 %"
b111100011111 I
b111100011111 $"
b111100000101 A
b111100000101 '"
b111110000010 J
b111110000010 #"
b11110001111100101111 @
b11110001111100101111 ("
b10010111111110001111 F
b10010111111110001111 &"
1\"
0]"
b110111 S
b110111 D"
b1111000 Y
b1111000 B"
b111 Z
b111 A"
b101 C
b101 3"
b11111 B
b11111 4"
b101 E
b111100011111 W
b11110001111100101111 X
b110001100010111 -
b110001100010111 8
b110001100010111 >
b1 7
b1000 U
b1000 0"
b1000 1"
1u
b11110001111100101111001010110111 v
b0 w
b1000 -"
b100 0
b100 R
b100 ."
b100 2"
b1 %
1"
#150
0"
#200
b110000000000000 ]
b110000000000000 G
b110000000000000 *"
b110000000000000 +"
b10 _
b10 b"
0M
b11110001111100101111000000000000 K
b11110001111100101111000000000000 ,"
b11110001111100101111000000000000 @"
b0 H
b0 %"
b0 I
b0 $"
b110 A
b110 '"
b11 J
b11 #"
b110 @
b110 ("
b11000000000000 F
b11000000000000 &"
0\"
1]"
b10111 S
b10111 D"
b0 Y
b0 B"
b110 Z
b110 A"
b0 C
b0 3"
b0 B
b0 4"
b110 E
b0 W
b110 X
b11110001111100101111000000000000 L
b11110001111100101111000000000000 >"
b10011 -
b10011 8
b10011 >
b10 7
b1100 U
b1100 0"
b1100 1"
b110001100010111 v
b100 w
b0 k
b0 q
1p
1j
b1 i
b1 ="
b101 r
b11111 t
b101 s
b11110001111100101111000000000000 l
b0 o
b0 n
b0 <"
b0 m
b0 ?"
01
0b
1h
b1100 -"
b1000 0
b1000 R
b1000 ."
b1000 2"
b10 %
1"
#250
0"
#300
1F"
1P"
b0 ]
b0 G
b0 *"
b0 +"
b11 _
b11 b"
b10000 [
b10000 )"
b10000 `"
1^
1O
b0x 3
b110000000000000 L
b110000000000000 >"
b110000000000100 K
b110000000000100 ,"
b110000000000100 @"
b0 A
b0 '"
b0 J
b0 #"
b0 @
b0 ("
b0 F
b0 &"
0]"
b10011 S
b10011 D"
b0 Z
b0 A"
b0 E
b0 X
b11 7
b10000 U
b10000 0"
b10000 1"
1!"
b0 :
b0 a
b0 f
1e
b101 g
b0 /
b0 5
b0 <
b0 d
bx000xxxxx00x0x11x000000000x00 )
bx000xxxxx00x0x11x000000000x00 9
b11110001111100101111000000000000 `
b0 c
b10 i
b10 ="
b110 r
b0 t
b0 s
b110000000000000 l
b100 m
b100 ?"
b10011 v
b1000 w
b10000 -"
b1100 0
b1100 R
b1100 ."
b1100 2"
b11 %
1"
#350
0"
#400
1M
b0 L
b0 >"
b0 K
b0 ,"
b0 @"
b0x 3
b11110001111100101111000000000000 ""
b11110001111100101111000000000000 6"
b100 7
b10100 U
b10100 0"
b10100 1"
b1100 w
b11 i
b11 ="
b0 r
b0 l
b1000 m
b1000 ?"
b110 g
b0xx0000000000x00 )
b0xx0000000000x00 9
b110000000000100 `
b100 c
b0 }
1|
b101 ~
b101 5"
b11110001111100101111000000000000 y
b0 {
b10100 -"
b10000 0
b10000 R
b10000 ."
b10000 2"
b100 %
1"
#450
0"
#500
b110000000000100 ""
b110000000000100 6"
b0 3
b111111010000101000001010010011 -
b111111010000101000001010010011 8
b111111010000101000001010010011 >
b101 7
b11000 U
b11000 0"
b11000 1"
b110 ~
b110 5"
b110000000000100 y
b100 {
b0 g
b0 )
b0 9
b0 `
b1000 c
b1100 m
b1100 ?"
b10000 w
b11000 -"
b10100 0
b10100 R
b10100 ."
b10100 2"
b101 %
1"
#550
0"
#600
b1111110100 ]
b1111110100 G
b1111110100 *"
b1111110100 +"
b11110001111100101111000000000000 Q
b11110001111100101111000000000000 :"
b10100 H
b10100 %"
b1111110100 I
b1111110100 $"
b1111100101 A
b1111100101 '"
b10111110010 J
b10111110010 #"
b111111010000101000 @
b111111010000101000 ("
b10100000111111010 F
b10100000111111010 &"
b11111 Y
b11111 B"
b101 C
b101 3"
b10100 B
b10100 4"
b101 E
b1111110100 W
b111111010000101000 X
b0 ""
b0 6"
b10011 -
b10011 8
b10011 >
b110 7
b11100 U
b11100 0"
b11100 1"
b111111010000101000001010010011 v
b10100 w
b10000 m
b10000 ?"
b1100 c
b0 ~
b0 5"
b0 y
b1000 {
b11100 -"
b11000 0
b11000 R
b11000 ."
b11000 2"
b110 %
1"
#650
0"
#700
bx0x 3
b0 ]
b0 G
b0 *"
b0 +"
b0 Q
b0 :"
b1111110100 L
b1111110100 >"
0M
bx000xxxxx00x0xxxx00xxxxxx0x00 )
bx000xxxxx00x0xxxx00xxxxxx0x00 9
b11110001111100101111001111110100 K
b11110001111100101111001111110100 ,"
b11110001111100101111001111110100 @"
b0 H
b0 %"
b0 I
b0 $"
b0 A
b0 '"
b0 J
b0 #"
b0 @
b0 ("
b0 F
b0 &"
b0 Y
b0 B"
b0 C
b0 3"
b0 B
b0 4"
b0 E
b0 W
b0 X
b111 7
b100000 U
b100000 0"
b100000 1"
b1100 {
b10000 c
b101 r
b10100 t
b101 s
b1111110100 l
b11110001111100101111000000000000 n
b11110001111100101111000000000000 <"
b10100 m
b10100 ?"
b10011 v
b11000 w
b100000 -"
b11100 0
b11100 R
b11100 ."
b11100 2"
b111 %
1"
#750
0"
#800
1M
b0 L
b0 >"
b0 K
b0 ,"
b0 @"
bx0x 3
b1000 7
b100100 U
b100100 0"
b100100 1"
b11100 w
b0 r
b0 t
b0 s
b0 l
b0 n
b0 <"
b11000 m
b11000 ?"
b101 g
bx000xxxxx00x0xxxx00xxxxxx0x00 )
bx000xxxxx00x0xxxx00xxxxxx0x00 9
b11110001111100101111001111110100 `
b10100 c
b10000 {
b100100 -"
b100000 0
b100000 R
b100000 ."
b100000 2"
b1000 %
1"
#850
0"
#900
b11110001111100101111001111110100 ""
b11110001111100101111001111110100 6"
b0 3
b1001 7
b101000 U
b101000 0"
b101000 1"
b101 ~
b101 5"
b11110001111100101111001111110100 y
b10100 {
b0 g
b0 )
b0 9
b0 `
b11000 c
b11100 m
b11100 ?"
b100000 w
b101000 -"
b100100 0
b100100 R
b100100 ."
b100100 2"
b1001 %
1"
#950
0"
#1000
b0 ""
b0 6"
b10100000000000000100011 -
b10100000000000000100011 8
b10100000000000000100011 >
b1010 7
b101100 U
b101100 0"
b101100 1"
b100100 w
b100000 m
b100000 ?"
b11100 c
b0 ~
b0 5"
b0 y
b11000 {
b101100 -"
b101000 0
b101000 R
b101000 ."
b101000 2"
b1010 %
1"
#1025
b0 !
b0 ,
b0 D
b0 8"
b111 #
b111 *
b111 ?
b111 7"
#1050
0"
#1100
0O
b11 \
b11 a"
0F"
0Q"
1W"
b0 N
b0 ^"
0O"
1V
b1000 [
b1000 )"
b1000 `"
1Z"
0P"
b0 ]
b0 G
b0 *"
b0 +"
b11110001111100101111001111110100 P
b11110001111100101111001111110100 9"
b101 H
b101 %"
b101 I
b101 $"
b10100000000 @
b10100000000 ("
b10000000010 F
b10000000010 &"
b100011 S
b100011 D"
b101 B
b101 4"
b101 W
b10100000000 X
b10100000000000010100011 -
b10100000000000010100011 8
b10100000000000010100011 >
b1011 7
b110000 U
b110000 0"
b110000 1"
b11100 {
b100000 c
b100100 m
b100100 ?"
b10100000000000000100011 v
b101000 w
b110000 -"
b101100 0
b101100 R
b101100 ."
b101100 2"
b1011 %
1"
#1150
0"
#1200
b1 ]
b1 G
b1 *"
b1 +"
b1 A
b1 '"
b10000000000 J
b10000000000 #"
b1 E
b10100000001000100100011 -
b10100000001000100100011 8
b10100000001000100100011 >
b1100 7
b110100 U
b110100 0"
b110100 1"
b10100000000000010100011 v
b101100 w
b11 k
0p
b101 t
b11110001111100101111001111110100 o
b101000 m
b101000 ?"
11
1b
b100100 c
b100000 {
b110100 -"
b110000 0
b110000 R
b110000 ."
b110000 2"
b1100 %
1"
#1250
0"
#1300
b1 \
b1 a"
b10 ]
0M
b0x )
b0x 9
b1 K
b1 ,"
b1 @"
b10 G
b10 *"
b10 +"
0W"
1Y"
b1 L
b1 >"
b10 A
b10 '"
b1 J
b1 #"
b10100000001 @
b10100000001 ("
b110000000010 F
b110000000010 &"
b1 Z
b1 A"
b10 E
b10100000001 X
b10100000010001000100011 -
b10100000010001000100011 8
b10100000010001000100011 >
b1101 7
b111000 U
b111000 0"
b111000 1"
b100100 {
b11 :
b11 a
0e
b11110001111100101111001111110100 /
b11110001111100101111001111110100 5
b11110001111100101111001111110100 <
b11110001111100101111001111110100 d
b101000 c
b1 r
b1 l
b101100 m
b101100 ?"
b10100000001000100100011 v
b110000 w
b111000 -"
b110100 0
b110100 R
b110100 ."
b110100 2"
b1101 %
1"
#1350
0"
#1400
b0 \
b0 a"
1N"
b100 ]
b100 G
b100 *"
b100 +"
1["
0Y"
b10 K
b10 ,"
b10 @"
b100 A
b100 '"
b10 J
b10 #"
b10100000010 @
b10100000010 ("
b1010000000010 F
b1010000000010 &"
b10 Z
b10 A"
b100 E
b10100000010 X
b10 L
b10 >"
b10011 -
b10011 8
b10011 >
b1110 7
b111100 U
b111100 0"
b111100 1"
b10100000010001000100011 v
b110100 w
b1 k
b10 r
b10 l
b110000 m
b110000 ?"
b1 g
b0xx )
b0xx 9
b1 `
b101100 c
0|
b101000 {
b111100 -"
b111000 0
b111000 R
b111000 ."
b111000 2"
b1110 %
1"
#1450
0"
#1500
0E"
1^
b11 _
b11 b"
1O
1F"
1P"
0V
b10000 [
b10000 )"
b10000 `"
0Z"
0V"
0N"
b0 \
b0 a"
b0x 3
b0 ]
b100 K
b100 ,"
b100 @"
b0 G
b0 *"
b0 +"
0["
0W"
b0 P
b0 9"
b1 ""
b1 6"
b100 L
b100 >"
b0 H
b0 %"
b0 I
b0 $"
b0 A
b0 '"
b0 J
b0 #"
b0 @
b0 ("
b0 F
b0 &"
b10011 S
b10011 D"
b0 Z
b0 A"
b0 B
b0 4"
b0 E
b0 W
b0 X
b1111 7
b1000000 U
b1000000 0"
b1000000 1"
b1 ~
b1 5"
b1 y
b101100 {
b1 :
b1 a
b10 g
b0xx0 )
b0xx0 9
b10 `
b110000 c
b0 k
b100 r
b100 l
b110100 m
b110100 ?"
b10011 v
b111000 w
b1000000 -"
b111100 0
b111100 R
b111100 ."
b111100 2"
b1111 %
1"
#1550
0"
#1600
1M
b0 K
b0 ,"
b0 @"
b0 L
b0 >"
b0x 3
b10 ""
b10 6"
b10000 7
b1000100 U
b1000100 0"
b1000100 1"
b111100 w
1p
b0 r
b0 t
b0 l
b0 o
b111000 m
b111000 ?"
b0 :
b0 a
01
0b
b100 g
b0x00 )
b0x00 9
b100 `
b110100 c
b10 ~
b10 5"
b10 y
b110000 {
b1000100 -"
b1000000 0
b1000000 R
b1000000 ."
b1000000 2"
b10000 %
1"
#1650
0"
#1700
b100 ""
b100 6"
b0 3
b10001 7
b1001000 U
b1001000 0"
b1001000 1"
b100 ~
b100 5"
b100 y
b110100 {
1e
b0 g
b0 /
b0 5
b0 <
b0 d
b0 )
b0 9
b0 `
b111000 c
b111100 m
b111100 ?"
b1000000 w
b1001000 -"
b1000100 0
b1000100 R
b1000100 ."
b1000100 2"
b10001 %
1"
#1750
0"
#1800
b0 ""
b0 6"
b10000000000001110000011 -
b10000000000001110000011 8
b10000000000001110000011 >
b10010 7
b1001100 U
b1001100 0"
b1001100 1"
b1000100 w
b1000000 m
b1000000 ?"
b111100 c
1|
b0 ~
b0 5"
b0 y
b111000 {
b1001100 -"
b1001000 0
b1001000 R
b1001000 ."
b1001000 2"
b10010 %
1"
#1850
0"
#1900
0O
0^
b0 [
b0 )"
b0 `"
b11 \
b11 a"
0F"
1Q"
b1 N
b1 ^"
1O"
0P"
b0 ]
b11111111111111111111111111111111 G
b11111111111111111111111111111111 *"
b11111111111111111111111111111111 +"
b100 H
b100 %"
b100 I
b100 $"
b111 A
b111 '"
b10000000011 J
b10000000011 #"
b10000000000 @
b10000000000 ("
b10 F
b10 &"
b11 S
b11 D"
b100 B
b100 4"
b111 E
b100 W
b10000000000 X
b10100000000010000000011 -
b10100000000010000000011 8
b10100000000010000000011 >
b10011 7
b1010000 U
b1010000 0"
b1010000 1"
b111100 {
b1000000 c
b1000100 m
b1000100 ?"
b10000000000001110000011 v
b1001000 w
b1010000 -"
b1001100 0
b1001100 R
b1001100 ."
b1001100 2"
b10011 %
1"
#1950
0"
#2000
b11110001111100101111001111110100 ]
b11110001111100101111001111110100 P
b11110001111100101111001111110100 9"
b101 H
b101 %"
b101 I
b101 $"
b1000 A
b1000 '"
b100 J
b100 #"
b10100000000 @
b10100000000 ("
b10000000010 F
b10000000010 &"
b101 B
b101 4"
b1000 E
b101 W
b10100000000 X
b11000000000010010000011 -
b11000000000010010000011 8
b11000000000010010000011 >
b10100 7
b1010100 U
b1010100 0"
b1010100 1"
b10100000000010000000011 v
b1001100 w
b11 k
b1 q
0p
0j
b111 r
b100 t
b11111111111111111111111111111111 l
b1001000 m
b1001000 ?"
b1000100 c
b1000000 {
b1010100 -"
b1010000 0
b1010000 R
b1010000 ."
b1010000 2"
b10100 %
1"
#2050
0"
#2100
bx0x 3
b110000000000100 ]
0M
bx000xxxxx00x0xxxx00xxxxxx0x00 )
bx000xxxxx00x0xxxx00xxxxxx0x00 9
b11110001111100101111001111110100 K
b11110001111100101111001111110100 ,"
b11110001111100101111001111110100 @"
b110000000000100 P
b110000000000100 9"
b11110001111100101111001111110100 L
b11110001111100101111001111110100 >"
b110 H
b110 %"
b110 I
b110 $"
b1001 A
b1001 '"
b10000000100 J
b10000000100 #"
b11000000000 @
b11000000000 ("
b11 F
b11 &"
b110 B
b110 4"
b1001 E
b110 W
b11000000000 X
b11100000000010100000011 -
b11100000000010100000011 8
b11100000000010100000011 >
b10101 7
b1011000 U
b1011000 0"
b1011000 1"
b1000100 {
b11 :
b11 a
b1 f
0e
b111 g
b1001000 c
b1000 r
b101 t
b11110001111100101111001111110100 o
b1001100 m
b1001100 ?"
b11000000000010010000011 v
b1010000 w
b1011000 -"
b1010100 0
b1010100 R
b1010100 ."
b1010100 2"
b10101 %
1"
#2150
0"
#2200
b0 ]
b0 P
b0 9"
b110000000000100 K
b110000000000100 ,"
b110000000000100 @"
b111 H
b111 %"
b111 I
b111 $"
b1010 A
b1010 '"
b101 J
b101 #"
b11100000000 @
b11100000000 ("
b10000000011 F
b10000000011 &"
b111 B
b111 4"
b1010 E
b111 W
b11100000000 X
b110000000000100 L
b110000000000100 >"
bx01 3
b1010110000011 -
b1010110000011 8
b1010110000011 >
b10110 7
b1011100 U
b1011100 0"
b1011100 1"
b11100000000010100000011 v
b1010100 w
b1001 r
b110 t
b110000000000100 o
b1010000 m
b1010000 ?"
b1000 g
b11110001111100101111001111110100 /
b11110001111100101111001111110100 5
b11110001111100101111001111110100 <
b11110001111100101111001111110100 d
bx000xxxxx00x0x11x00xxxxxx0100 )
bx000xxxxx00x0x11x00xxxxxx0100 9
b11110001111100101111001111110100 `
b1001100 c
b1 }
0|
b111 ~
b111 5"
b1001000 {
b1011100 -"
b1011000 0
b1011000 R
b1011000 ."
b1011000 2"
b10110 %
1"
#2250
0"
#2300
b1 \
b1 a"
1M
b0 K
b0 ,"
b0 @"
0Q"
1S"
b0x 3
b0 L
b0 >"
b0 H
b0 %"
b0 I
b0 $"
b1011 A
b1011 '"
b10000000101 J
b10000000101 #"
b1 @
b1 ("
b100000000000 F
b100000000000 &"
b1 Z
b1 A"
b0 B
b0 4"
b1011 E
b0 W
b1 X
b1000000001011000000011 -
b1000000001011000000011 8
b1000000001011000000011 >
b10111 7
b1100000 U
b1100000 0"
b1100000 1"
b1000 ~
b1000 5"
b11110001111100101111001111110100 y
b1001100 {
b1001 g
b110000000000100 /
b110000000000100 5
b110000000000100 <
b110000000000100 d
b0xx0000000000x00 )
b0xx0000000000x00 9
b110000000000100 `
b1010000 c
b1010 r
b111 t
b0 o
b1010100 m
b1010100 ?"
b1010110000011 v
b1011000 w
b1100000 -"
b1011100 0
b1011100 R
b1011100 ."
b1011100 2"
b10111 %
1"
#2350
0"
#2400
b10 H
b10 %"
b10 I
b10 $"
b1100 A
b1100 '"
b110 J
b110 #"
b1000000001 @
b1000000001 ("
b100000000001 F
b100000000001 &"
b10 B
b10 4"
b1100 E
b10 W
b1000000001 X
b0 3
b10000000010011010000011 -
b10000000010011010000011 8
b10000000010011010000011 >
b11000 7
b1100100 U
b1100100 0"
b1100100 1"
b1000000001011000000011 v
b1011100 w
b1 k
b1011 r
b0 t
b1011000 m
b1011000 ?"
b1010 g
b0 /
b0 5
b0 <
b0 d
b0 )
b0 9
b0 `
b1010100 c
b1001 ~
b1001 5"
b110000000000100 y
b1010000 {
b1100100 -"
b1100000 0
b1100000 R
b1100000 ."
b1100000 2"
b11000 %
1"
#2450
0"
#2500
b0 \
b0 a"
1U"
0S"
b100 H
b100 %"
b100 I
b100 $"
b1101 A
b1101 '"
b10000000110 J
b10000000110 #"
b10000000010 @
b10000000010 ("
b1000000000010 F
b1000000000010 &"
b10 Z
b10 A"
b100 B
b100 4"
b1101 E
b100 W
b10000000010 X
b100011100000011 -
b100011100000011 8
b100011100000011 >
b11001 7
b1101000 U
b1101000 0"
b1101000 1"
b1010 ~
b1010 5"
b0 y
b1010100 {
b1 :
b1 a
b1011 g
b1011000 c
b1100 r
b10 t
b1011100 m
b1011100 ?"
b10000000010011010000011 v
b1100000 w
b1101000 -"
b1100100 0
b1100100 R
b1100100 ."
b1100100 2"
b11001 %
1"
#2550
0"
#2600
0U"
b100 \
b100 a"
1R"
b0 H
b0 %"
b0 I
b0 $"
b1110 A
b1110 '"
b111 J
b111 #"
b100 @
b100 ("
b10000000000000 F
b10000000000000 &"
b100 Z
b100 A"
b0 B
b0 4"
b1110 E
b0 W
b100 X
b100000100011110000011 -
b100000100011110000011 8
b100000100011110000011 >
b11010 7
b1101100 U
b1101100 0"
b1101100 1"
b100011100000011 v
b1100100 w
b0 k
b1101 r
b100 t
b1100000 m
b1100000 ?"
b1100 g
b1011100 c
b1011 ~
b1011 5"
b1011000 {
b1101100 -"
b1101000 0
b1101000 R
b1101000 ."
b1101000 2"
b11010 %
1"
#2650
0"
#2700
b1 H
b1 %"
b1 I
b1 $"
b1111 A
b1111 '"
b10000000111 J
b10000000111 #"
b100000100 @
b100000100 ("
b10010000000000 F
b10010000000000 &"
b1 B
b1 4"
b1111 E
b1 W
b100000100 X
b1000000100100000000011 -
b1000000100100000000011 8
b1000000100100000000011 >
b11011 7
b1110000 U
b1110000 0"
b1110000 1"
b1100 ~
b1100 5"
b1011100 {
b0 :
b0 a
b1101 g
b1100000 c
b100 k
b1110 r
b0 t
b1100100 m
b1100100 ?"
b100000100011110000011 v
b1101000 w
b1110000 -"
b1101100 0
b1101100 R
b1101100 ."
b1101100 2"
b11011 %
1"
#2750
0"
#2800
b10 H
b10 %"
b10 I
b10 $"
b10000 A
b10000 '"
b1000 J
b1000 #"
b1000000100 @
b1000000100 ("
b10000000000001 F
b10000000000001 &"
b10 B
b10 4"
b10000 E
b10 W
b1000000100 X
b1100000100100010000011 -
b1100000100100010000011 8
b1100000100100010000011 >
b11100 7
b1110100 U
b1110100 0"
b1110100 1"
b1000000100100000000011 v
b1101100 w
b1111 r
b1 t
b1101000 m
b1101000 ?"
b100 :
b100 a
b1110 g
b1100100 c
b1101 ~
b1101 5"
b1100000 {
b1110100 -"
b1110000 0
b1110000 R
b1110000 ."
b1110000 2"
b11100 %
1"
#2850
0"
