a.vcd
$date
	Sun Jun 29 21:31:45 2025
$end
$version
	Icarus Verilog
$end
$timescale
	1s
$end
$scope module sccomp_tb $end
$var wire 32 ! reg_data [31:0] $end
$var reg 1 " clk $end
$var reg 5 # reg_sel [4:0] $end
$var reg 1 $ rstn $end
$var integer 32 % counter [31:0] $end
$var integer 32 & debug_output [31:0] $end
$var integer 32 ' foutput [31:0] $end
$var integer 32 ( pc_output [31:0] $end
$scope module U_SCCOMP $end
$var wire 1 " clk $end
$var wire 5 ) reg_sel [4:0] $end
$var wire 1 * rst $end
$var wire 1 $ rstn $end
$var wire 32 + reg_data [31:0] $end
$var wire 32 , instr [31:0] $end
$var wire 32 - dm_dout [31:0] $end
$var wire 32 . dm_din [31:0] $end
$var wire 32 / dm_addr [31:0] $end
$var wire 32 0 PC [31:0] $end
$var wire 1 1 MemWrite $end
$var wire 1 2 MemRead $end
$var wire 3 3 DMType [2:0] $end
$scope module U_DM $end
$var wire 9 4 addr [8:0] $end
$var wire 1 " clk $end
$var wire 32 5 din [31:0] $end
$var wire 1 1 DMWr $end
$var wire 3 6 DMType [2:0] $end
$var wire 1 2 DMRd $end
$var reg 32 7 dout [31:0] $end
$upscope $end
$scope module U_IM $end
$var wire 30 8 addr [31:2] $end
$var wire 32 9 dout [31:0] $end
$upscope $end
$scope module U_SCPU $end
$var wire 3 : DMType_out [2:0] $end
$var wire 32 ; Data_in [31:0] $end
$var wire 32 < Data_out [31:0] $end
$var wire 2 = GPRSel [1:0] $end
$var wire 1 2 MemRead_out $end
$var wire 1 " clk $end
$var wire 32 > inst_in [31:0] $end
$var wire 1 1 mem_w $end
$var wire 5 ? reg_sel [4:0] $end
$var wire 1 * reset $end
$var wire 20 @ uimm [19:0] $end
$var wire 12 A simm [11:0] $end
$var wire 5 B rs2 [4:0] $end
$var wire 5 C rs1 [4:0] $end
$var wire 32 D reg_data [31:0] $end
$var wire 5 E rd [4:0] $end
$var wire 32 F not_used [31:0] $end
$var wire 20 G jimm [19:0] $end
$var wire 32 H jalr_next [31:0] $end
$var wire 32 I immout [31:0] $end
$var wire 5 J iimm_shamt [4:0] $end
$var wire 12 K iimm [11:0] $end
$var wire 12 L bimm [11:0] $end
$var wire 32 M aluout [31:0] $end
$var wire 32 N alu_B_ID [31:0] $end
$var wire 1 O Zero $end
$var wire 2 P WDSel [1:0] $end
$var wire 1 Q Stall $end
$var wire 1 R RegWrite $end
$var wire 32 S RD2 [31:0] $end
$var wire 32 T RD1 [31:0] $end
$var wire 32 U PC_out [31:0] $end
$var wire 7 V Op [6:0] $end
$var wire 3 W NPCOp [2:0] $end
$var wire 32 X NPC [31:0] $end
$var wire 1 Y MemWrite $end
$var wire 1 Z MemRead $end
$var wire 12 [ Imm12 [11:0] $end
$var wire 20 \ IMM [19:0] $end
$var wire 7 ] Funct7 [6:0] $end
$var wire 3 ^ Funct3 [2:0] $end
$var wire 4 _ ForwardB [3:0] $end
$var wire 4 ` ForwardA [3:0] $end
$var wire 6 a EXTOp [5:0] $end
$var wire 3 b DMType [2:0] $end
$var wire 1 c Can_Branch $end
$var wire 32 d B [31:0] $end
$var wire 32 e Addr_out [31:0] $end
$var wire 1 f ALUSrc $end
$var wire 5 g ALUOp [4:0] $end
$var reg 32 h ALU_A [31:0] $end
$var reg 32 i ALU_A_Btype [31:0] $end
$var reg 32 j ALU_B [31:0] $end
$var reg 32 k ALU_B_Btype [31:0] $end
$var reg 32 l ALU_RD2 [31:0] $end
$var reg 32 m EX_MEM_ALUResult [31:0] $end
$var reg 3 n EX_MEM_DMType [2:0] $end
$var reg 32 o EX_MEM_Inst [31:0] $end
$var reg 1 p EX_MEM_MemRead $end
$var reg 1 q EX_MEM_MemWrite $end
$var reg 3 r EX_MEM_NPCOp [2:0] $end
$var reg 32 s EX_MEM_PC [31:0] $end
$var reg 32 t EX_MEM_RD2 [31:0] $end
$var reg 1 u EX_MEM_RegWrite $end
$var reg 2 v EX_MEM_WDSel [1:0] $end
$var reg 5 w EX_MEM_rd [4:0] $end
$var reg 1 x EX_MEM_valid $end
$var reg 5 y ID_EX_ALUOp [4:0] $end
$var reg 1 z ID_EX_ALUSrc $end
$var reg 3 { ID_EX_DMType [2:0] $end
$var reg 32 | ID_EX_Imm [31:0] $end
$var reg 32 } ID_EX_Inst [31:0] $end
$var reg 1 ~ ID_EX_MemRead $end
$var reg 1 !" ID_EX_MemWrite $end
$var reg 3 "" ID_EX_NPCOp [2:0] $end
$var reg 32 #" ID_EX_PC [31:0] $end
$var reg 32 $" ID_EX_RD1 [31:0] $end
$var reg 32 %" ID_EX_RD2 [31:0] $end
$var reg 1 &" ID_EX_RegWrite $end
$var reg 2 '" ID_EX_WDSel [1:0] $end
$var reg 5 (" ID_EX_rd [4:0] $end
$var reg 5 )" ID_EX_rs1 [4:0] $end
$var reg 5 *" ID_EX_rs2 [4:0] $end
$var reg 1 +" ID_EX_valid $end
$var reg 1 ," IF_Flush $end
$var reg 32 -" IF_ID_Inst [31:0] $end
$var reg 32 ." IF_ID_PC [31:0] $end
$var reg 1 /" IF_ID_valid $end
$var reg 32 0" MEM_WB_ALUResult [31:0] $end
$var reg 32 1" MEM_WB_Inst [31:0] $end
$var reg 32 2" MEM_WB_MemData [31:0] $end
$var reg 1 3" MEM_WB_MemRead $end
$var reg 1 4" MEM_WB_MemWrite $end
$var reg 32 5" MEM_WB_PC [31:0] $end
$var reg 32 6" MEM_WB_RD2 [31:0] $end
$var reg 1 7" MEM_WB_RegWrite $end
$var reg 2 8" MEM_WB_WDSel [1:0] $end
$var reg 5 9" MEM_WB_rd [4:0] $end
$var reg 1 :" MEM_WB_valid $end
$var reg 32 ;" RD1_For_Jalr [31:0] $end
$var reg 3 <" True_NPCOp [2:0] $end
$var reg 32 =" True_PC_for_next [31:0] $end
$var reg 32 >" WD [31:0] $end
$scope module U_EXT $end
$var wire 12 ?" bimm [11:0] $end
$var wire 12 @" iimm [11:0] $end
$var wire 5 A" iimm_shamt [4:0] $end
$var wire 20 B" jimm [19:0] $end
$var wire 12 C" simm [11:0] $end
$var wire 20 D" uimm [19:0] $end
$var wire 6 E" EXTOp [5:0] $end
$var reg 32 F" immout [31:0] $end
$upscope $end
$scope module U_Forward_unit $end
$var wire 1 G" EX_MEM_ForwardA $end
$var wire 1 H" EX_MEM_ForwardB $end
$var wire 1 p EX_MEM_MemRead $end
$var wire 1 u EX_MEM_RegWrite $end
$var wire 5 I" EX_MEM_rd [4:0] $end
$var wire 1 J" ID_EX_ForwardA $end
$var wire 1 K" ID_EX_ForwardB $end
$var wire 5 L" ID_EX_rs1 [4:0] $end
$var wire 5 M" ID_EX_rs2 [4:0] $end
$var wire 1 N" ID_MEM_ForwardA $end
$var wire 1 O" ID_MEM_ForwardB $end
$var wire 1 P" MEM_WB_ForwardA $end
$var wire 1 Q" MEM_WB_ForwardB $end
$var wire 1 3" MEM_WB_MemRead $end
$var wire 1 7" MEM_WB_RegWrite $end
$var wire 5 R" MEM_WB_rd [4:0] $end
$var wire 5 S" rs1 [4:0] $end
$var wire 5 T" rs2 [4:0] $end
$var wire 3 U" NPCOp [2:0] $end
$var wire 4 V" ForwardB [3:0] $end
$var wire 4 W" ForwardA [3:0] $end
$upscope $end
$scope module U_Hazard_Detection $end
$var wire 1 p EX_MEM_MemRead $end
$var wire 5 X" EX_MEM_rd [4:0] $end
$var wire 1 ~ ID_EX_MemRead $end
$var wire 1 &" ID_EX_RegWrite $end
$var wire 5 Y" ID_EX_rd [4:0] $end
$var wire 5 Z" rs1 [4:0] $end
$var wire 5 [" rs2 [4:0] $end
$var wire 3 \" NPCOp [2:0] $end
$var reg 1 Q Stall $end
$upscope $end
$scope module U_NPC $end
$var wire 32 ]" IMM [31:0] $end
$var wire 3 ^" NPCOp [2:0] $end
$var wire 32 _" PC [31:0] $end
$var wire 32 `" aluout [31:0] $end
$var wire 32 a" PCPLUS4 [31:0] $end
$var reg 32 b" NPC [31:0] $end
$upscope $end
$scope module U_PC $end
$var wire 32 c" NPC [31:0] $end
$var wire 1 Q Stall $end
$var wire 1 " clk $end
$var wire 1 * rst $end
$var reg 32 d" PC [31:0] $end
$upscope $end
$scope module U_RF $end
$var wire 5 e" A1 [4:0] $end
$var wire 5 f" A2 [4:0] $end
$var wire 5 g" A3 [4:0] $end
$var wire 1 7" RFWr $end
$var wire 32 h" WD [31:0] $end
$var wire 1 " clk $end
$var wire 5 i" reg_sel [4:0] $end
$var wire 1 * rst $end
$var wire 32 j" reg_data [31:0] $end
$var wire 32 k" RD2 [31:0] $end
$var wire 32 l" RD1 [31:0] $end
$var integer 32 m" i [31:0] $end
$upscope $end
$scope module U_alu $end
$var wire 32 n" A [31:0] $end
$var wire 5 o" ALUOp [4:0] $end
$var wire 32 p" B [31:0] $end
$var wire 32 q" PC [31:0] $end
$var wire 1 O Zero $end
$var reg 32 r" C [31:0] $end
$upscope $end
$scope module U_alu_Btype $end
$var wire 32 s" A [31:0] $end
$var wire 32 t" B [31:0] $end
$var wire 32 u" PC [31:0] $end
$var wire 1 c Zero $end
$var wire 5 v" ALUOp [4:0] $end
$var reg 32 w" C [31:0] $end
$upscope $end
$scope module U_ctrl $end
$var wire 1 f ALUSrc $end
$var wire 3 x" Funct3 [2:0] $end
$var wire 7 y" Funct7 [6:0] $end
$var wire 2 z" GPRSel [1:0] $end
$var wire 1 Z MemRead $end
$var wire 1 Y MemWrite $end
$var wire 7 {" Op [6:0] $end
$var wire 1 R RegWrite $end
$var wire 1 O Zero $end
$var wire 1 |" is_add $end
$var wire 1 }" is_addi $end
$var wire 1 ~" is_and $end
$var wire 1 !# is_andi $end
$var wire 1 "# is_beq $end
$var wire 1 ## is_bge $end
$var wire 1 $# is_bgeu $end
$var wire 1 %# is_blt $end
$var wire 1 &# is_bltu $end
$var wire 1 '# is_bne $end
$var wire 1 (# is_lb $end
$var wire 1 )# is_lbu $end
$var wire 1 *# is_lh $end
$var wire 1 +# is_lhu $end
$var wire 1 ,# is_lw $end
$var wire 1 -# is_or $end
$var wire 1 .# is_ori $end
$var wire 1 /# is_sb $end
$var wire 1 0# is_sh $end
$var wire 1 1# is_sll $end
$var wire 1 2# is_slli $end
$var wire 1 3# is_slt $end
$var wire 1 4# is_slti $end
$var wire 1 5# is_sltiu $end
$var wire 1 6# is_sltu $end
$var wire 1 7# is_sra $end
$var wire 1 8# is_srai $end
$var wire 1 9# is_srl $end
$var wire 1 :# is_srli $end
$var wire 1 ;# is_sub $end
$var wire 1 <# is_sw $end
$var wire 1 =# is_xor $end
$var wire 1 ># is_xori $end
$var wire 1 ?# is_stype $end
$var wire 1 @# is_sbtype $end
$var wire 1 A# is_rtype $end
$var wire 1 B# is_lui $end
$var wire 1 C# is_jalr $end
$var wire 1 D# is_jal $end
$var wire 1 E# is_itype_r $end
$var wire 1 F# is_itype_l $end
$var wire 1 G# is_auipc $end
$var wire 2 H# WDSel [1:0] $end
$var wire 3 I# NPCOp [2:0] $end
$var wire 6 J# EXTOp [5:0] $end
$var wire 3 K# DMType [2:0] $end
$var wire 5 L# ALUOp [4:0] $end
$upscope $end
$upscope $end
$upscope $end
$upscope $end
$enddefinitions $end
$comment Show the parameter values. $end
$dumpall
$end
#0
$dumpvars
bx L#
bx K#
bx J#
bx I#
bx H#
xG#
xF#
xE#
xD#
xC#
xB#
xA#
x@#
x?#
x>#
x=#
x<#
x;#
x:#
x9#
x8#
x7#
x6#
x5#
x4#
x3#
x2#
x1#
x0#
x/#
x.#
x-#
x,#
x+#
x*#
x)#
x(#
x'#
x&#
x%#
x$#
x##
x"#
x!#
x~"
x}"
x|"
bx {"
bz z"
bx y"
bx x"
bx w"
bx v"
bx u"
bx t"
bx s"
bx r"
bx q"
bx p"
bx o"
bx n"
bx m"
bx l"
bx k"
bx j"
bx i"
bx h"
bx g"
bx f"
bx e"
bx d"
bx c"
bx b"
bx a"
bx `"
bx _"
bx ^"
bx ]"
bx \"
bx ["
bx Z"
bx Y"
bx X"
bx W"
bx V"
bx U"
bx T"
bx S"
bx R"
xQ"
xP"
xO"
xN"
bx M"
bx L"
xK"
xJ"
bx I"
xH"
xG"
bx F"
bx E"
bx D"
bx C"
bx B"
bx A"
bx @"
bx ?"
bx >"
bx ="
bx <"
bx ;"
x:"
bx 9"
bx 8"
x7"
bx 6"
bx 5"
x4"
x3"
bx 2"
bx 1"
bx 0"
1/"
bx ."
bx -"
x,"
x+"
bx *"
bx )"
bx ("
bx '"
x&"
bx %"
bx $"
bx #"
bx ""
x!"
x~
bx }
bx |
bx {
xz
bx y
xx
bx w
bx v
xu
bx t
bx s
bx r
xq
xp
bx o
bx n
bx m
bx l
bx k
bx j
bx i
bx h
bx g
xf
bx e
bx d
xc
bx b
bx a
bx `
bx _
bx ^
bx ]
bx \
bx [
xZ
xY
bx X
bx W
bx V
bx U
bx T
bx S
xR
xQ
bx P
xO
bx N
bx M
bx L
bx K
bx J
bx I
bx H
bx G
bx F
bx E
bx D
bx C
bx B
bx A
bx @
bx ?
bx >
bz =
bx <
bx ;
bx :
bx 9
bx 8
bx 7
bx 6
bx 5
bx 4
bx 3
x2
x1
bx 0
bx /
bx .
bx -
bx ,
bx +
0*
bx )
b1000 (
b10 '
b100 &
b0 %
1$
bx #
1"
bx !
$end
#5
b100 X
b100 b"
b100 c"
b0 <"
b0 ^"
b100 a"
b0 ="
b0 _"
b10100000000001010010011 ,
b10100000000001010010011 9
b10100000000001010010011 >
b0 8
b0 0
b0 U
b0 d"
b100000 m"
1*
0$
#25
0*
1$
#50
0"
#100
b1000 X
b1000 b"
b1000 c"
b1000 a"
b100 ="
b100 _"
0c
b101 F
b101 w"
1R
1f
b11 g
b11 v"
b11 L#
0O"
0N"
b0xx _
b0xx V"
0K"
b0xx `
b0xx W"
0J"
b101 k
b101 t"
b0 i
b0 s"
b101 H
b101 `"
b0 ;"
b101 N
b101 d
b101 I
b101 F"
b101 ]"
0,"
0|"
0;#
0-#
0~"
0=#
01#
03#
06#
07#
09#
02#
08#
0:#
0,#
0(#
0*#
b0 b
b0 K#
0)#
0+#
1}"
0.#
0!#
0>#
04#
05#
0<#
0/#
00#
0"#
0%#
0&#
0'#
0##
0$#
b0 T
b0 l"
0Q
b0 S
b0 k"
b101 J
b101 A"
b101 K
b101 @"
b101 A
b101 C"
b10000000010 L
b10000000010 ?"
b10100000000 @
b10100000000 D"
b10000000010 G
b10000000010 B"
0A#
0Z
b0 P
b0 H#
0F#
1E#
0Y
0?#
0@#
b10000 a
b10000 E"
b10000 J#
0D#
b0 W
b0 U"
b0 \"
b0 I#
0C#
0B#
0G#
b10011 V
b10011 {"
b0 ]
b0 y"
b0 ^
b0 x"
b0 C
b0 S"
b0 Z"
b0 e"
b101 B
b101 T"
b101 ["
b101 f"
b101 E
b101 [
b10100000000 \
b10100000010000000100011 ,
b10100000010000000100011 9
b10100000010000000100011 >
b1 8
1+"
b10100000000001010010011 -"
b0 ."
b0 u"
b100 0
b100 U
b100 d"
b1 %
1"
#150
0"
#200
0O
b101 M
b101 r"
b1100 X
b1100 b"
b1100 c"
b0 l
b0 h
b0 n"
b1100 a"
b1000 ="
b1000 _"
b11 g
b11 v"
b11 L#
0R
1c
b0 F
b0 w"
b0 k
b0 t"
b0 N
b0 d
b0 H
b0 `"
b0 I
b0 F"
b0 ]"
0}"
1<#
b0 A
b0 C"
b0 L
b0 ?"
b10100000010 @
b10100000010 D"
b1010000000010 G
b1010000000010 B"
0E#
b1000 a
b1000 E"
b1000 J#
1Y
1?#
b100011 V
b100011 {"
b10 ^
b10 x"
b0 E
b10100000010 \
b101 j
b101 p"
b10001100000011 ,
b10001100000011 9
b10001100000011 >
b10 8
b10100000010000000100011 -"
b100 ."
b100 u"
0~
b0 ""
0!"
b0 {
b0 '"
1&"
1z
b11 y
b11 o"
b101 ("
b101 Y"
b101 *"
b101 M"
b0 )"
b0 L"
b101 |
b0 %"
b0 $"
b0 #"
b0 q"
b10100000000001010010011 }
b0 r
1x
b1000 0
b1000 U
b1000 d"
b10 %
1"
#250
0"
#300
b10000 X
b10000 b"
b10000 c"
b101 l
b10010001101000101011001111000 -
b10010001101000101011001111000 7
b10010001101000101011001111000 ;
b10000 a"
b1100 ="
b1100 _"
b11 g
b11 v"
b11 L#
0Q"
1O
b0 M
b0 r"
1R
1,#
0<#
b0x `
b0x W"
0G"
b10 _
b10 V"
1H"
b101 4
b0 j
b0 p"
b0 J
b0 A"
b0 K
b0 @"
b110 A
b110 C"
b11 L
b11 ?"
b10 @
b10 D"
b1000000000000 G
b1000000000000 B"
1Z
b1 P
b1 H#
1F#
b10000 a
b10000 E"
b10000 J#
0Y
0?#
b11 V
b11 {"
b0 B
b0 T"
b0 ["
b0 f"
b110 E
b0 [
b10 \
b1000110000001110010011 ,
b1000110000001110010011 9
b1000110000001110010011 >
b11 8
1:"
02
0p
b0 3
b0 6
b0 :
b0 n
b0 v
01
0q
1u
b101 w
b101 I"
b101 X"
b0 .
b0 5
b0 <
b0 t
b101 /
b101 e
b101 m
b0 s
b10100000000001010010011 o
1!"
0&"
b0 ("
b0 Y"
b0 |
b100 #"
b100 q"
b10100000010000000100011 }
b10001100000011 -"
b1000 ."
b1000 u"
b1100 0
b1100 U
b1100 d"
b11 %
1"
#350
0"
#400
b10100 X
b10100 b"
b10100 c"
b0 l
b10100 a"
b10000 ="
b10000 _"
0c
b10 F
b10 w"
b10 k
b10 t"
1f
b10 N
b10 d
b10 H
b10 `"
b10 I
b10 F"
b10 ]"
1R
0,#
1}"
0Q
b0 `
b0 W"
0P"
b10 J
b10 A"
b10 K
b10 @"
b111 A
b111 C"
b10000000011 L
b10000000011 ?"
b1000110000 @
b1000110000 D"
b11000000000000001 G
b11000000000000001 B"
0Z
b0 P
b0 H#
0F#
1E#
b10011 V
b10011 {"
b0 ^
b0 x"
b110 C
b110 S"
b110 Z"
b110 e"
b10 B
b10 T"
b10 ["
b10 f"
b111 E
b10 [
b1000110000 \
b0 _
b0 V"
0H"
b0 4
b101 >"
b101 h"
b11100000000010000010011 ,
b11100000000010000010011 9
b11100000000010000010011 >
b100 8
b1000110000001110010011 -"
b1100 ."
b1100 u"
1~
0!"
b1 '"
1&"
b110 ("
b110 Y"
b0 *"
b0 M"
b1000 #"
b1000 q"
b10001100000011 }
11
1q
0u
b0 w
b0 I"
b0 X"
b101 .
b101 5
b101 <
b101 t
b0 /
b0 e
b0 m
b100 s
b10100000010000000100011 o
04"
b0 8"
17"
b0 6"
b101 9"
b101 R"
b101 g"
b101 0"
b10010001101000101011001111000 2"
b0 5"
b10100000000001010010011 1"
b10000 0
b10000 U
b10000 d"
b100 %
1"
#450
0"
#500
b11000 X
b11000 b"
b11000 c"
b101 -
b101 7
b101 ;
b11000 a"
b10100 ="
b10100 _"
b111 F
b111 w"
b111 k
b111 t"
b111 N
b111 d
0O
b10 M
b10 r"
b111 H
b111 `"
b111 I
b111 F"
b111 ]"
b0 >"
b0 h"
b10 `
b10 W"
1G"
b10 j
b10 p"
b111 J
b111 A"
b111 K
b111 @"
b1000 A
b1000 C"
b100 L
b100 ?"
b11100000000 @
b11100000000 D"
b10000000011 G
b10000000011 B"
b0 C
b0 S"
b0 Z"
b0 e"
b111 B
b111 T"
b111 ["
b111 f"
b1000 E
b111 [
b11100000000 \
b100000111000111001100011 ,
b100000111000111001100011 9
b100000111000111001100011 >
b101 8
14"
07"
b101 6"
b0 9"
b0 R"
b0 g"
b0 0"
b100 5"
b10100000010000000100011 1"
12
1p
b1 v
01
0q
1u
b110 w
b110 I"
b110 X"
b0 .
b0 5
b0 <
b0 t
b1000 s
b10001100000011 o
0~
b0 '"
b111 ("
b111 Y"
b10 *"
b10 M"
b110 )"
b110 L"
b10 |
b1100 #"
b1100 q"
b1000110000001110010011 }
b11100000000010000010011 -"
b10000 ."
b10000 u"
b10100 0
b10100 U
b10100 d"
b101 %
1"
#550
0"
#600
b11100 X
b11100 b"
b11100 c"
b0 <"
b0 ^"
b10 l
b10010001101000101011001111000 -
b10010001101000101011001111000 7
b10010001101000101011001111000 ;
b0 h
b0 n"
b11100 a"
b11000 ="
b11000 _"
b0 a
b0 E"
b0 J#
0f
0R
0,"
0c
b10 ;"
b0 k
b0 t"
b10 i
b10 s"
1J"
b10 F
b10 w"
0K"
b0 N
b0 d
b100 g
b100 v"
b100 L#
b10 H
b10 `"
b0 I
b0 F"
b0 ]"
0}"
1"#
1Q
b10 _
b10 V"
1H"
b111 M
b111 r"
b1000 `
b1000 W"
0G"
b1000 J
b1000 A"
b1000 K
b1000 @"
b11100 A
b11100 C"
b1110 L
b1110 ?"
b100000111000 @
b100000111000 D"
b11100000000000100 G
b11100000000000100 B"
0E#
b1 W
b1 U"
b1 \"
b1 I#
1@#
b1100011 V
b1100011 {"
b111 C
b111 S"
b111 Z"
b111 e"
b1000 B
b1000 T"
b1000 ["
b1000 f"
b11100 E
b1000 [
b100000111000 \
b111 j
b111 p"
b10 4
b101 >"
b101 h"
b101000000000010100010011 ,
b101000000000010100010011 9
b101000000000010100010011 >
b110 8
b100000111000111001100011 -"
b10100 ."
b10100 u"
b1000 ("
b1000 Y"
b111 *"
b111 M"
b0 )"
b0 L"
b111 |
b10000 #"
b10000 q"
b11100000000010000010011 }
02
0p
b0 v
b111 w
b111 I"
b111 X"
b10 /
b10 e
b10 m
b1100 s
b1000110000001110010011 o
04"
b1 8"
17"
b0 6"
b110 9"
b110 R"
b110 g"
b101 2"
b1000 5"
b10001100000011 1"
b11000 0
b11000 U
b11000 d"
b110 %
1"
#650
0"
#700
b0 <"
b0 ^"
b11100 a"
b11000 ="
b11000 _"
b10 l
0,"
xN"
0c
b0x00 `
b0x00 W"
0J"
b111 k
b111 t"
1K"
b10 T
b10 l"
1Q"
b11100 I
b11100 F"
b11100 ]"
b1001 _
b1001 V"
0H"
b11111111111111111111111111111011 F
b11111111111111111111111111111011 w"
b100 a
b100 E"
b100 J#
b10 >"
b10 h"
b11110 H
b11110 `"
b10 ;"
b10 i
b10 s"
b111 4
0Q
1O
b0 M
b0 r"
b0 8"
b111 9"
b111 R"
b111 g"
b10 0"
b10010001101000101011001111000 2"
b1100 5"
b1000110000001110010011 1"
b1000 w
b1000 I"
b1000 X"
b10 .
b10 5
b10 <
b10 t
b1 r
b111 /
b111 e
b111 m
b10000 s
b11100000000010000010011 o
0&"
b0 y
b0 o"
b11111111111111111111111111111111 #"
b11111111111111111111111111111111 q"
b10011 }
b111 %
1"
#750
0"
#800
b100000 X
b100000 b"
b100000 c"
b111 l
b10 h
b10 n"
b100000 a"
b11100 ="
b11100 _"
1f
1R
b0 `
b0 W"
0N"
0c
b1010 N
b1010 d
b11 g
b11 v"
b11 L#
b0 i
b0 s"
b0 ;"
b1 _
b1 V"
0K"
b0 S
b0 k"
b1010 H
b1010 `"
b1010 I
b1010 F"
b1010 ]"
1}"
0"#
b0 T
b0 l"
b10000 a
b10000 E"
b10000 J#
b1010 J
b1010 A"
b1010 K
b1010 @"
b1010 A
b1010 C"
b101 L
b101 ?"
b101000000000 @
b101000000000 D"
b101 G
b101 B"
1E#
b0 W
b0 U"
b0 \"
b0 I#
0@#
b10011 V
b10011 {"
b0 C
b0 S"
b0 Z"
b0 e"
b1010 B
b1010 T"
b1010 ["
b1010 f"
b1010 E
b1010 [
b101000000000 \
b1010 F
b1010 w"
b111 j
b111 p"
0O
b11111111111111111111111111111011 M
b11111111111111111111111111111011 r"
b1010 k
b1010 t"
b0 4
b111 >"
b111 h"
b10001110000011 ,
b10001110000011 9
b10001110000011 >
b111 8
b101000000000010100010011 -"
b11000 ."
b11000 u"
b1 ""
0z
b100 y
b100 o"
b11100 ("
b11100 Y"
b1000 *"
b1000 M"
b111 )"
b111 L"
b11100 |
b10 $"
b10100 #"
b10100 q"
b100000111000111001100011 }
0u
b0 /
b0 e
b0 m
b11111111111111111111111111111111 s
b10011 o
b10 6"
b1000 9"
b1000 R"
b1000 g"
b111 0"
b10000 5"
b11100000000010000010011 1"
b11100 0
b11100 U
b11100 d"
b1000 %
1"
#850
0"
#900
b100100 X
b100100 b"
b100100 c"
b0 l
b0 h
b0 n"
b100100 a"
b100000 ="
b100000 _"
b11 g
b11 v"
b11 L#
1c
b0 F
b0 w"
b0 k
b0 t"
b0 N
b0 d
b0 _
b0 V"
0Q"
b0 H
b0 `"
b0 I
b0 F"
b0 ]"
1,#
0}"
b0 >"
b0 h"
b111111011 4
b1010 j
b1010 p"
b1010 M
b1010 r"
b0 J
b0 A"
b0 K
b0 @"
b111 A
b111 C"
b10000000011 L
b10000000011 ?"
b10 @
b10 D"
b1000000000000 G
b1000000000000 B"
1Z
b1 P
b1 H#
1F#
0E#
b11 V
b11 {"
b10 ^
b10 x"
b0 B
b0 T"
b0 ["
b0 f"
b111 E
b0 [
b10 \
b11100101000110001100011 ,
b11100101000110001100011 9
b11100101000110001100011 >
b1000 8
07"
b0 0"
b11111111111111111111111111111111 5"
b10011 1"
b11100 w
b11100 I"
b11100 X"
b111 .
b111 5
b111 <
b111 t
b0 r
b11111111111111111111111111111011 /
b11111111111111111111111111111011 e
b11111111111111111111111111111011 m
b10100 s
b100000111000111001100011 o
b0 ""
1&"
1z
b11 y
b11 o"
b1010 ("
b1010 Y"
b1010 *"
b1010 M"
b0 )"
b0 L"
b1010 |
b0 $"
b11000 #"
b11000 q"
b101000000000010100010011 }
b10001110000011 -"
b11100 ."
b11100 u"
b100000 0
b100000 U
b100000 d"
b1001 %
1"
#950
0"
#1000
b101000 X
b101000 b"
b101000 c"
b0 <"
b0 ^"
b101000 a"
b100100 ="
b100100 _"
0c
b11 F
b11 w"
b11000 I
b11000 F"
b11000 ]"
b10 k
b10 t"
b10 N
b10 d
0f
b100 g
b100 v"
b100 L#
b101 i
b101 s"
b11101 H
b11101 `"
b101 ;"
0R
0,"
b100 a
b100 E"
b100 J#
0,#
1"#
b101 T
b101 l"
1Q
b10 S
b10 k"
1O
b0 M
b0 r"
b111 J
b111 A"
b111 K
b111 @"
b11000 A
b11000 C"
b1100 L
b1100 ?"
b11100101000 @
b11100101000 D"
b10100010000000011 G
b10100010000000011 B"
0Z
b0 P
b0 H#
0F#
b1 W
b1 U"
b1 \"
b1 I#
1@#
b1100011 V
b1100011 {"
b0 ^
b0 x"
b101 C
b101 S"
b101 Z"
b101 e"
b111 B
b111 T"
b111 ["
b111 f"
b11000 E
b111 [
b11100101000 \
b0 j
b0 p"
b1010 4
b11111111111111111111111111111011 >"
b11111111111111111111111111111011 h"
b101000000000010100010011 ,
b101000000000010100010011 9
b101000000000010100010011 >
b1001 8
b11100101000110001100011 -"
b100000 ."
b100000 u"
1~
b1 '"
b111 ("
b111 Y"
b0 *"
b0 M"
b0 |
b11100 #"
b11100 q"
b10001110000011 }
1u
b1010 w
b1010 I"
b1010 X"
b0 .
b0 5
b0 <
b0 t
b1010 /
b1010 e
b1010 m
b11000 s
b101000000000010100010011 o
b111 6"
b11100 9"
b11100 R"
b11100 g"
b11111111111111111111111111111011 0"
b10100 5"
b100000111000111001100011 1"
b100100 0
b100100 U
b100100 d"
b1010 %
1"
#1025
b10 !
b10 +
b10 D
b10 j"
b111 #
b111 )
b111 ?
b111 i"
#1050
0"
#1100
b101 -
b101 7
b101 ;
b1010 >"
b1010 h"
b0 4
1Q
17"
b0 6"
b1010 9"
b1010 R"
b1010 g"
b1010 0"
b11000 5"
b101000000000010100010011 1"
12
1p
b1 v
b111 w
b111 I"
b111 X"
b1 r
b0 /
b0 e
b0 m
b11100 s
b10001110000011 o
0&"
b0 y
b0 o"
0~
b11111111111111111111111111111111 #"
b11111111111111111111111111111111 q"
b10011 }
b1011 %
1"
#1150
0"
#1200
b111000 X
b111000 b"
b111000 c"
b1 <"
b1 ^"
b100100 a"
b100000 ="
b100000 _"
b10010001101000101011001111000 -
b10010001101000101011001111000 7
b10010001101000101011001111000 ;
1,"
1c
b0 F
b0 w"
b0x00 _
b0x00 V"
xO"
b101 k
b101 t"
b101 N
b101 d
b101 S
b101 k"
0Q
b101 >"
b101 h"
02
0p
0u
b11111111111111111111111111111111 s
b10011 o
b1 8"
b111 9"
b111 R"
b111 g"
b0 0"
b101 2"
b11100 5"
b10001110000011 1"
b1100 %
1"
#1250
0"
#1300
b101 j
b101 p"
1O
b0 M
b0 r"
b0 <"
b0 ^"
b101 l
b101 h
b101 n"
b111100 a"
b111000 ="
b111000 _"
1c
b0 F
b0 w"
1f
1R
b0 _
b0 V"
0O"
b0 k
b0 t"
b111100 X
b111100 b"
b111100 c"
b11 g
b11 v"
b11 L#
b0 N
b0 d
b0 i
b0 s"
b0 ;"
b0 H
b0 `"
b0 I
b0 F"
b0 ]"
1}"
0,"
b10000 a
b10000 E"
b10000 J#
0"#
b0 T
b0 l"
b0 S
b0 k"
b10010001101000101011001111000 >"
b10010001101000101011001111000 h"
b0 J
b0 A"
b0 K
b0 @"
b0 A
b0 C"
b0 L
b0 ?"
b0 @
b0 D"
b0 G
b0 B"
1E#
b0 W
b0 U"
b0 \"
b0 I#
0@#
b10011 V
b10011 {"
b0 C
b0 S"
b0 Z"
b0 e"
b0 B
b0 T"
b0 ["
b0 f"
b0 E
b0 [
b0 \
b10100000000000011000010011 ,
b10100000000000011000010011 9
b10100000000000011000010011 >
b1110 8
b101 !
b101 +
b101 D
b101 j"
07"
b10010001101000101011001111000 2"
b11111111111111111111111111111111 5"
b10011 1"
b1 ""
b0 '"
0z
b100 y
b100 o"
b11000 ("
b11000 Y"
b111 *"
b111 M"
b101 )"
b101 L"
b11000 |
b101 %"
b101 $"
b100000 #"
b100000 q"
b11100101000110001100011 }
b10011 -"
b11111111111111111111111111111111 ."
b11111111111111111111111111111111 u"
b111000 0
b111000 U
b111000 d"
b1101 %
1"
