a.vcd
$date
	Fri Jun 27 15:39:20 2025
$end
$version
	Icarus Verilog
$end
$timescale
	1s
$end
$scope module sccomp_tb $end
$var wire 32 ! reg_data [31:0] $end
$var reg 1 " clk $end
$var reg 5 # reg_sel [4:0] $end
$var reg 1 $ rstn $end
$var integer 32 % counter [31:0] $end
$var integer 32 & debug_output [31:0] $end
$var integer 32 ' foutput [31:0] $end
$var integer 32 ( pc_output [31:0] $end
$scope module U_SCCOMP $end
$var wire 1 " clk $end
$var wire 5 ) reg_sel [4:0] $end
$var wire 1 * rst $end
$var wire 1 $ rstn $end
$var wire 32 + reg_data [31:0] $end
$var wire 32 , instr [31:0] $end
$var wire 32 - dm_dout [31:0] $end
$var wire 32 . dm_din [31:0] $end
$var wire 32 / dm_addr [31:0] $end
$var wire 32 0 PC [31:0] $end
$var wire 1 1 MemWrite $end
$var wire 3 2 DMType [2:0] $end
$scope module U_DM $end
$var wire 9 3 addr [8:0] $end
$var wire 1 " clk $end
$var wire 32 4 din [31:0] $end
$var wire 1 1 DMWr $end
$var wire 3 5 DMType [2:0] $end
$var reg 32 6 dout [31:0] $end
$upscope $end
$scope module U_IM $end
$var wire 30 7 addr [31:2] $end
$var wire 32 8 dout [31:0] $end
$upscope $end
$scope module U_SCPU $end
$var wire 3 9 DMType_out [2:0] $end
$var wire 32 : Data_in [31:0] $end
$var wire 32 ; Data_out [31:0] $end
$var wire 2 < GPRSel [1:0] $end
$var wire 1 " clk $end
$var wire 32 = inst_in [31:0] $end
$var wire 1 1 mem_w $end
$var wire 5 > reg_sel [4:0] $end
$var wire 1 * reset $end
$var wire 20 ? uimm [19:0] $end
$var wire 12 @ simm [11:0] $end
$var wire 5 A rs2 [4:0] $end
$var wire 5 B rs1 [4:0] $end
$var wire 32 C reg_data [31:0] $end
$var wire 5 D rd [4:0] $end
$var wire 20 E jimm [19:0] $end
$var wire 32 F immout [31:0] $end
$var wire 5 G iimm_shamt [4:0] $end
$var wire 12 H iimm [11:0] $end
$var wire 12 I bimm [11:0] $end
$var wire 32 J aluout [31:0] $end
$var wire 32 K alu_B [31:0] $end
$var wire 1 L Zero $end
$var wire 2 M WDSel [1:0] $end
$var wire 1 N RegWrite $end
$var wire 32 O RD2 [31:0] $end
$var wire 32 P RD1 [31:0] $end
$var wire 32 Q PC_out [31:0] $end
$var wire 7 R Op [6:0] $end
$var wire 3 S NPCOp [2:0] $end
$var wire 32 T NPC [31:0] $end
$var wire 1 U MemWrite $end
$var wire 12 V Imm12 [11:0] $end
$var wire 20 W IMM [19:0] $end
$var wire 7 X Funct7 [6:0] $end
$var wire 3 Y Funct3 [2:0] $end
$var wire 6 Z EXTOp [5:0] $end
$var wire 3 [ DMType [2:0] $end
$var wire 32 \ B [31:0] $end
$var wire 32 ] Addr_out [31:0] $end
$var wire 1 ^ ALUSrc $end
$var wire 5 _ ALUOp [4:0] $end
$var reg 32 ` EX_MEM_ALUResult [31:0] $end
$var reg 3 a EX_MEM_DMType [2:0] $end
$var reg 32 b EX_MEM_Inst [31:0] $end
$var reg 1 c EX_MEM_MemWrite $end
$var reg 3 d EX_MEM_NPCOp [2:0] $end
$var reg 32 e EX_MEM_PC [31:0] $end
$var reg 32 f EX_MEM_RD2 [31:0] $end
$var reg 1 g EX_MEM_RegWrite $end
$var reg 2 h EX_MEM_WDSel [1:0] $end
$var reg 5 i EX_MEM_rd [4:0] $end
$var reg 1 j EX_MEM_valid $end
$var reg 5 k ID_EX_ALUOp [4:0] $end
$var reg 1 l ID_EX_ALUSrc $end
$var reg 3 m ID_EX_DMType [2:0] $end
$var reg 32 n ID_EX_Imm [31:0] $end
$var reg 32 o ID_EX_Inst [31:0] $end
$var reg 1 p ID_EX_MemWrite $end
$var reg 3 q ID_EX_NPCOp [2:0] $end
$var reg 32 r ID_EX_PC [31:0] $end
$var reg 32 s ID_EX_RD1 [31:0] $end
$var reg 32 t ID_EX_RD2 [31:0] $end
$var reg 1 u ID_EX_RegWrite $end
$var reg 2 v ID_EX_WDSel [1:0] $end
$var reg 5 w ID_EX_rd [4:0] $end
$var reg 5 x ID_EX_rs1 [4:0] $end
$var reg 5 y ID_EX_rs2 [4:0] $end
$var reg 1 z ID_EX_valid $end
$var reg 32 { IF_ID_Inst [31:0] $end
$var reg 32 | IF_ID_PC [31:0] $end
$var reg 1 } IF_ID_valid $end
$var reg 32 ~ MEM_WB_ALUResult [31:0] $end
$var reg 32 !" MEM_WB_Inst [31:0] $end
$var reg 32 "" MEM_WB_MemData [31:0] $end
$var reg 1 #" MEM_WB_MemWrite $end
$var reg 32 $" MEM_WB_PC [31:0] $end
$var reg 32 %" MEM_WB_RD2 [31:0] $end
$var reg 1 &" MEM_WB_RegWrite $end
$var reg 2 '" MEM_WB_WDSel [1:0] $end
$var reg 5 (" MEM_WB_rd [4:0] $end
$var reg 1 )" MEM_WB_valid $end
$var reg 3 *" True_NPCOp [2:0] $end
$var reg 32 +" True_PC_for_next [31:0] $end
$var reg 32 ," WD [31:0] $end
$scope module U_EXT $end
$var wire 12 -" bimm [11:0] $end
$var wire 12 ." iimm [11:0] $end
$var wire 5 /" iimm_shamt [4:0] $end
$var wire 20 0" jimm [19:0] $end
$var wire 12 1" simm [11:0] $end
$var wire 20 2" uimm [19:0] $end
$var wire 6 3" EXTOp [5:0] $end
$var reg 32 4" immout [31:0] $end
$upscope $end
$scope module U_NPC $end
$var wire 32 5" IMM [31:0] $end
$var wire 3 6" NPCOp [2:0] $end
$var wire 32 7" PC [31:0] $end
$var wire 32 8" aluout [31:0] $end
$var wire 32 9" PCPLUS4 [31:0] $end
$var reg 32 :" NPC [31:0] $end
$upscope $end
$scope module U_PC $end
$var wire 32 ;" NPC [31:0] $end
$var wire 1 " clk $end
$var wire 1 * rst $end
$var reg 32 <" PC [31:0] $end
$upscope $end
$scope module U_RF $end
$var wire 5 =" A1 [4:0] $end
$var wire 5 >" A2 [4:0] $end
$var wire 5 ?" A3 [4:0] $end
$var wire 1 &" RFWr $end
$var wire 32 @" WD [31:0] $end
$var wire 1 " clk $end
$var wire 5 A" reg_sel [4:0] $end
$var wire 1 * rst $end
$var wire 32 B" reg_data [31:0] $end
$var wire 32 C" RD2 [31:0] $end
$var wire 32 D" RD1 [31:0] $end
$var integer 32 E" i [31:0] $end
$upscope $end
$scope module U_alu $end
$var wire 32 F" A [31:0] $end
$var wire 5 G" ALUOp [4:0] $end
$var wire 32 H" B [31:0] $end
$var wire 32 I" PC [31:0] $end
$var wire 1 L Zero $end
$var reg 32 J" C [31:0] $end
$upscope $end
$scope module U_ctrl $end
$var wire 1 ^ ALUSrc $end
$var wire 3 K" Funct3 [2:0] $end
$var wire 7 L" Funct7 [6:0] $end
$var wire 2 M" GPRSel [1:0] $end
$var wire 1 U MemWrite $end
$var wire 7 N" Op [6:0] $end
$var wire 1 N RegWrite $end
$var wire 1 L Zero $end
$var wire 1 O" is_add $end
$var wire 1 P" is_addi $end
$var wire 1 Q" is_and $end
$var wire 1 R" is_andi $end
$var wire 1 S" is_beq $end
$var wire 1 T" is_bge $end
$var wire 1 U" is_bgeu $end
$var wire 1 V" is_blt $end
$var wire 1 W" is_bltu $end
$var wire 1 X" is_bne $end
$var wire 1 Y" is_lb $end
$var wire 1 Z" is_lbu $end
$var wire 1 [" is_lh $end
$var wire 1 \" is_lhu $end
$var wire 1 ]" is_lw $end
$var wire 1 ^" is_or $end
$var wire 1 _" is_ori $end
$var wire 1 `" is_sb $end
$var wire 1 a" is_sh $end
$var wire 1 b" is_sll $end
$var wire 1 c" is_slli $end
$var wire 1 d" is_slt $end
$var wire 1 e" is_slti $end
$var wire 1 f" is_sltiu $end
$var wire 1 g" is_sltu $end
$var wire 1 h" is_sra $end
$var wire 1 i" is_srai $end
$var wire 1 j" is_srl $end
$var wire 1 k" is_srli $end
$var wire 1 l" is_sub $end
$var wire 1 m" is_sw $end
$var wire 1 n" is_xor $end
$var wire 1 o" is_xori $end
$var wire 1 p" is_stype $end
$var wire 1 q" is_sbtype $end
$var wire 1 r" is_rtype $end
$var wire 1 s" is_lui $end
$var wire 1 t" is_jalr $end
$var wire 1 u" is_jal $end
$var wire 1 v" is_itype_r $end
$var wire 1 w" is_itype_l $end
$var wire 1 x" is_auipc $end
$var wire 2 y" WDSel [1:0] $end
$var wire 3 z" NPCOp [2:0] $end
$var wire 6 {" EXTOp [5:0] $end
$var wire 3 |" DMType [2:0] $end
$var wire 5 }" ALUOp [4:0] $end
$upscope $end
$upscope $end
$upscope $end
$upscope $end
$enddefinitions $end
$comment Show the parameter values. $end
$dumpall
$end
#0
$dumpvars
bx }"
bx |"
bx {"
bx z"
bx y"
xx"
xw"
xv"
xu"
xt"
xs"
xr"
xq"
xp"
xo"
xn"
xm"
xl"
xk"
xj"
xi"
xh"
xg"
xf"
xe"
xd"
xc"
xb"
xa"
x`"
x_"
x^"
x]"
x\"
x["
xZ"
xY"
xX"
xW"
xV"
xU"
xT"
xS"
xR"
xQ"
xP"
xO"
bx N"
bz M"
bx L"
bx K"
bx J"
bx I"
bx H"
bx G"
bx F"
bx E"
bx D"
bx C"
bx B"
bx A"
bx @"
bx ?"
bx >"
bx ="
bx <"
bx ;"
bx :"
bx 9"
bx 8"
bx 7"
bx 6"
bx 5"
bx 4"
bx 3"
bx 2"
bx 1"
bx 0"
bx /"
bx ."
bx -"
bx ,"
bx +"
bx *"
x)"
bx ("
bx '"
x&"
bx %"
bx $"
x#"
bx ""
bx !"
bx ~
1}
bx |
bx {
xz
bx y
bx x
bx w
bx v
xu
bx t
bx s
bx r
bx q
xp
bx o
bx n
bx m
xl
bx k
xj
bx i
bx h
xg
bx f
bx e
bx d
xc
bx b
bx a
bx `
bx _
x^
bx ]
bx \
bx [
bx Z
bx Y
bx X
bx W
bx V
xU
bx T
bx S
bx R
bx Q
bx P
bx O
xN
bx M
xL
bx K
bx J
bx I
bx H
bx G
bx F
bx E
bx D
bx C
bx B
bx A
bx @
bx ?
bx >
bx =
bz <
bx ;
bx :
bx 9
bx 8
bx 7
bx 6
bx 5
bx 4
bx 3
bx 2
x1
bx 0
bx /
bx .
bx -
bx ,
bx +
0*
bx )
b1000 (
b10 '
b100 &
b0 %
1$
bx #
1"
bx !
$end
#5
b100 T
b100 :"
b100 ;"
b0 *"
b0 6"
b100 9"
b0 +"
b0 7"
b11110001111100101111001010110111 ,
b11110001111100101111001010110111 8
b11110001111100101111001010110111 =
b0 7
b0 0
b0 Q
b0 <"
b100000 E"
1*
0$
#25
0*
1$
#50
0"
#100
b1000 T
b1000 :"
b1000 ;"
b1000 9"
b100 +"
b100 7"
b1 _
b1 }"
1N
1^
b11110001111100101111000000000000 \
b11110001111100101111000000000000 F
b11110001111100101111000000000000 4"
0O"
0l"
0^"
0Q"
0n"
0b"
0d"
0g"
0h"
0j"
0c"
0i"
0k"
0]"
0Y"
0["
b0 [
b0 |"
0Z"
0\"
0P"
0_"
0R"
0o"
0e"
0f"
0m"
0`"
0a"
0S"
0V"
0W"
0X"
0T"
0U"
b0 P
b0 D"
b0 O
b0 C"
b11111 G
b11111 /"
b111100011111 H
b111100011111 ."
b111100000101 @
b111100000101 1"
b111110000010 I
b111110000010 -"
b11110001111100101111 ?
b11110001111100101111 2"
b10010111111110001111 E
b10010111111110001111 0"
0r"
b0 M
b0 y"
0w"
0v"
0U
0p"
0q"
b10 Z
b10 3"
b10 {"
0u"
b0 S
b0 z"
0t"
1s"
0x"
b110111 R
b110111 N"
b1111000 X
b1111000 L"
b111 Y
b111 K"
b101 B
b101 ="
b11111 A
b11111 >"
b101 D
b111100011111 V
b11110001111100101111 W
b110001100010111 ,
b110001100010111 8
b110001100010111 =
b1 7
1z
b11110001111100101111001010110111 {
b0 |
b100 0
b100 Q
b100 <"
b1 %
1"
#150
0"
#200
b1100 T
b1100 :"
b1100 ;"
b1100 9"
b1000 +"
b1000 7"
b10 _
b10 }"
b110000000000000 \
b110000000000000 F
b110000000000000 4"
0L
b11110001111100101111000000000000 J
b11110001111100101111000000000000 8"
b11110001111100101111000000000000 J"
b0 G
b0 /"
b0 H
b0 ."
b110 @
b110 1"
b11 I
b11 -"
b110 ?
b110 2"
b11000000000000 E
b11000000000000 0"
0s"
1x"
b10111 R
b10111 N"
b0 X
b0 L"
b110 Y
b110 K"
b0 B
b0 ="
b0 A
b0 >"
b110 D
b0 V
b110 W
b11110001111100101111000000000000 K
b11110001111100101111000000000000 H"
b10011 ,
b10011 8
b10011 =
b10 7
b110001100010111 {
b100 |
b0 q
0p
b0 m
b0 v
1u
1l
b1 k
b1 G"
b101 w
b11111 y
b101 x
b11110001111100101111000000000000 n
b11110001111100101111000000000000 5"
b0 t
b0 s
b0 F"
b0 r
b0 I"
b11110001111100101111001010110111 o
b0 d
1j
b1000 0
b1000 Q
b1000 <"
b10 %
1"
#250
0"
#300
b10000 T
b10000 :"
b10000 ;"
b10000 9"
b1100 +"
b1100 7"
b11 _
b11 }"
b0 \
1N
b0 F
b0 4"
b10000 Z
b10000 3"
b10000 {"
1^
1P"
b0 3
b110000000000000 K
b110000000000000 H"
b110000000000100 J
b110000000000100 8"
b110000000000100 J"
b0 @
b0 1"
b0 I
b0 -"
b0 ?
b0 2"
b0 E
b0 0"
1v"
0x"
b10011 R
b10011 N"
b0 Y
b0 K"
b0 D
b0 W
b11 7
1)"
b0 2
b0 5
b0 9
b0 a
b0 h
01
0c
1g
b101 i
b0 .
b0 4
b0 ;
b0 f
b11110001111100101111000000000000 /
b11110001111100101111000000000000 ]
b11110001111100101111000000000000 `
b0 e
b11110001111100101111001010110111 b
b10 k
b10 G"
b110 w
b0 y
b0 x
b110000000000000 n
b110000000000000 5"
b100 r
b100 I"
b110001100010111 o
b10011 {
b1000 |
b1100 0
b1100 Q
b1100 <"
b11 %
1"
#350
0"
#400
b10100 T
b10100 :"
b10100 ;"
b10100 9"
b10000 +"
b10000 7"
1L
b0 K
b0 H"
b0 J
b0 8"
b0 J"
b100 3
b11110001111100101111000000000000 ,"
b11110001111100101111000000000000 @"
b100 7
b1100 |
b11 k
b11 G"
b0 w
b0 n
b0 5"
b1000 r
b1000 I"
b10011 o
b110 i
b110000000000100 /
b110000000000100 ]
b110000000000100 `
b100 e
b110001100010111 b
0#"
b0 '"
1&"
b0 %"
b101 ("
b101 ?"
b11110001111100101111000000000000 ~
b0 $"
b11110001111100101111001010110111 !"
b10000 0
b10000 Q
b10000 <"
b100 %
1"
#450
0"
#500
b11000 T
b11000 :"
b11000 ;"
b11000 9"
b10100 +"
b10100 7"
b110000000000100 ,"
b110000000000100 @"
b0 3
b111111010000101000001010010011 ,
b111111010000101000001010010011 8
b111111010000101000001010010011 =
b101 7
b110 ("
b110 ?"
b110000000000100 ~
b100 $"
b110001100010111 !"
b0 i
b0 /
b0 ]
b0 `
b1000 e
b10011 b
b1100 r
b1100 I"
b10000 |
b10100 0
b10100 Q
b10100 <"
b101 %
1"
#550
0"
#600
b11100 T
b11100 :"
b11100 ;"
b11100 9"
b11000 +"
b11000 7"
b1111110100 \
b1111110100 F
b1111110100 4"
b11110001111100101111000000000000 P
b11110001111100101111000000000000 D"
b10100 G
b10100 /"
b1111110100 H
b1111110100 ."
b1111100101 @
b1111100101 1"
b10111110010 I
b10111110010 -"
b111111010000101000 ?
b111111010000101000 2"
b10100000111111010 E
b10100000111111010 0"
b11111 X
b11111 L"
b101 B
b101 ="
b10100 A
b10100 >"
b101 D
b1111110100 V
b111111010000101000 W
b0 ,"
b0 @"
b10011 ,
b10011 8
b10011 =
b110 7
b111111010000101000001010010011 {
b10100 |
b10000 r
b10000 I"
b1100 e
b0 ("
b0 ?"
b0 ~
b1000 $"
b10011 !"
b11000 0
b11000 Q
b11000 <"
b110 %
1"
#650
0"
#700
b100000 T
b100000 :"
b100000 ;"
b100000 9"
b11100 +"
b11100 7"
b0 \
b0 F
b0 4"
b0 P
b0 D"
b1111110100 K
b1111110100 H"
0L
b11110001111100101111001111110100 J
b11110001111100101111001111110100 8"
b11110001111100101111001111110100 J"
b0 G
b0 /"
b0 H
b0 ."
b0 @
b0 1"
b0 I
b0 -"
b0 ?
b0 2"
b0 E
b0 0"
b0 X
b0 L"
b0 B
b0 ="
b0 A
b0 >"
b0 D
b0 V
b0 W
b111 7
b1100 $"
b10000 e
b101 w
b10100 y
b101 x
b1111110100 n
b1111110100 5"
b11110001111100101111000000000000 s
b11110001111100101111000000000000 F"
b10100 r
b10100 I"
b111111010000101000001010010011 o
b10011 {
b11000 |
b11100 0
b11100 Q
b11100 <"
b111 %
1"
#750
0"
#800
b100100 T
b100100 :"
b100100 ;"
b100100 9"
b100000 +"
b100000 7"
1L
b0 K
b0 H"
b0 J
b0 8"
b0 J"
b111110100 3
b1000 7
b11100 |
b0 w
b0 y
b0 x
b0 n
b0 5"
b0 s
b0 F"
b11000 r
b11000 I"
b10011 o
b101 i
b11110001111100101111001111110100 /
b11110001111100101111001111110100 ]
b11110001111100101111001111110100 `
b10100 e
b111111010000101000001010010011 b
b10000 $"
b100000 0
b100000 Q
b100000 <"
b1000 %
1"
#850
0"
#900
b101000 T
b101000 :"
b101000 ;"
b101000 9"
b100100 +"
b100100 7"
b11110001111100101111001111110100 ,"
b11110001111100101111001111110100 @"
b0 3
b1001 7
b101 ("
b101 ?"
b11110001111100101111001111110100 ~
b10100 $"
b111111010000101000001010010011 !"
b0 i
b0 /
b0 ]
b0 `
b11000 e
b10011 b
b11100 r
b11100 I"
b100000 |
b100100 0
b100100 Q
b100100 <"
b1001 %
1"
#950
0"
#1000
b101100 T
b101100 :"
b101100 ;"
b101100 9"
b101000 +"
b101000 7"
b0 ,"
b0 @"
b10100000000000000100011 ,
b10100000000000000100011 8
b10100000000000000100011 =
b1010 7
b100100 |
b100000 r
b100000 I"
b11100 e
b0 ("
b0 ?"
b0 ~
b11000 $"
b10011 !"
b101000 0
b101000 Q
b101000 <"
b1010 %
1"
#1025
b0 !
b0 +
b0 C
b0 B"
b111 #
b111 )
b111 >
b111 A"
#1050
0"
#1100
b110000 T
b110000 :"
b110000 ;"
b110000 9"
b101100 +"
b101100 7"
0N
b11 [
b11 |"
0P"
1`"
b11110001111100101111001111110100 O
b11110001111100101111001111110100 C"
b101 G
b101 /"
b101 H
b101 ."
b10100000000 ?
b10100000000 2"
b10000000010 E
b10000000010 0"
0v"
b1000 Z
b1000 3"
b1000 {"
1U
1p"
b100011 R
b100011 N"
b101 A
b101 >"
b101 V
b10100000000 W
b10100000000000010100011 ,
b10100000000000010100011 8
b10100000000000010100011 =
b1011 7
b11100 $"
b100000 e
b100100 r
b100100 I"
b10100000000000000100011 {
b101000 |
b101100 0
b101100 Q
b101100 <"
b1011 %
1"
#1150
0"
#1200
b110100 T
b110100 :"
b110100 ;"
b110100 9"
b110000 +"
b110000 7"
b1 \
b1 F
b1 4"
b1 @
b1 1"
b10000000000 I
b10000000000 -"
b1 D
b10100000001000100100011 ,
b10100000001000100100011 8
b10100000001000100100011 =
b1100 7
b10100000000000010100011 {
b101100 |
1p
b11 m
0u
b101 y
b11110001111100101111001111110100 t
b101000 r
b101000 I"
b10100000000000000100011 o
b100100 e
b100000 $"
b110000 0
b110000 Q
b110000 <"
b1100 %
1"
#1250
0"
#1300
b111000 T
b111000 :"
b111000 ;"
b111000 9"
b110100 +"
b110100 7"
b1 [
b1 |"
b10 \
0L
b1 J
b1 8"
b1 J"
b10 F
b10 4"
0`"
1a"
b1 K
b1 H"
b10 @
b10 1"
b1 I
b1 -"
b10100000001 ?
b10100000001 2"
b110000000010 E
b110000000010 0"
b1 Y
b1 K"
b10 D
b10100000001 W
b10100000010001000100011 ,
b10100000010001000100011 8
b10100000010001000100011 =
b1101 7
b100100 $"
b11 2
b11 5
b11 9
b11 a
11
1c
0g
b11110001111100101111001111110100 .
b11110001111100101111001111110100 4
b11110001111100101111001111110100 ;
b11110001111100101111001111110100 f
b101000 e
b10100000000000000100011 b
b1 w
b1 n
b1 5"
b101100 r
b101100 I"
b10100000000000010100011 o
b10100000001000100100011 {
b110000 |
b110100 0
b110100 Q
b110100 <"
b1101 %
1"
#1350
0"
#1400
b111100 T
b111100 :"
b111100 ;"
b111100 9"
b111000 +"
b111000 7"
b0 [
b0 |"
b100 \
b100 F
b100 4"
1m"
0a"
b10 J
b10 8"
b10 J"
b100 @
b100 1"
b10 I
b10 -"
b10100000010 ?
b10100000010 2"
b1010000000010 E
b1010000000010 0"
b10 Y
b10 K"
b100 D
b10100000010 W
b10 K
b10 H"
b1 3
bx -
bx 6
bx :
b10011 ,
b10011 8
b10011 =
b1110 7
b10100000010001000100011 {
b110100 |
b1 m
b10 w
b10 n
b10 5"
b110000 r
b110000 I"
b10100000001000100100011 o
b1 i
b1 /
b1 ]
b1 `
b101100 e
b10100000000000010100011 b
1#"
0&"
b11110001111100101111001111110100 %"
b101000 $"
b10100000000000000100011 !"
b111000 0
b111000 Q
b111000 <"
b1110 %
1"
#1450
0"
#1500
b1000000 T
b1000000 :"
b1000000 ;"
b1000000 9"
b111100 +"
b111100 7"
1N
b0 \
b100 J
b100 8"
b100 J"
b0 F
b0 4"
1P"
0m"
b0 O
b0 C"
b1 ,"
b1 @"
b10 3
b100 K
b100 H"
b0 G
b0 /"
b0 H
b0 ."
b0 @
b0 1"
b0 I
b0 -"
b0 ?
b0 2"
b0 E
b0 0"
1v"
b10000 Z
b10000 3"
b10000 {"
0U
0p"
b10011 R
b10011 N"
b0 Y
b0 K"
b0 A
b0 >"
b0 D
b0 V
b0 W
b1111 7
b1 ("
b1 ?"
b1 ~
b101100 $"
b10100000000000010100011 !"
b1 2
b1 5
b1 9
b1 a
b10 i
b10 /
b10 ]
b10 `
b110000 e
b10100000001000100100011 b
b0 m
b100 w
b100 n
b100 5"
b110100 r
b110100 I"
b10100000010001000100011 o
b10011 {
b111000 |
b111100 0
b111100 Q
b111100 <"
b1111 %
1"
#1550
0"
#1600
b1000100 T
b1000100 :"
b1000100 ;"
b1000100 9"
b1000000 +"
b1000000 7"
1L
b0 J
b0 8"
b0 J"
b0 K
b0 H"
b100 3
b10 ,"
b10 @"
bx -
bx 6
bx :
b10000 7
b111100 |
0p
1u
b0 w
b0 y
b0 n
b0 5"
b0 t
b111000 r
b111000 I"
b10011 o
b0 2
b0 5
b0 9
b0 a
b100 i
b100 /
b100 ]
b100 `
b110100 e
b10100000010001000100011 b
b10 ("
b10 ?"
b10 ~
b110000 $"
b10100000001000100100011 !"
b1000000 0
b1000000 Q
b1000000 <"
b10000 %
1"
#1650
0"
#1700
b1001000 T
b1001000 :"
b1001000 ;"
b1001000 9"
b1000100 +"
b1000100 7"
b11110011111101001111010011110100 -
b11110011111101001111010011110100 6
b11110011111101001111010011110100 :
b100 ,"
b100 @"
b0 3
b10001 7
b100 ("
b100 ?"
b100 ~
b110100 $"
b10100000010001000100011 !"
01
0c
1g
b0 i
b0 .
b0 4
b0 ;
b0 f
b0 /
b0 ]
b0 `
b111000 e
b10011 b
b111100 r
b111100 I"
b1000000 |
b1000100 0
b1000100 Q
b1000100 <"
b10001 %
1"
#1750
0"
#1800
b1001100 T
b1001100 :"
b1001100 ;"
b1001100 9"
b1001000 +"
b1001000 7"
b0 ,"
b0 @"
b10000000000001110000011 ,
b10000000000001110000011 8
b10000000000001110000011 =
b10010 7
b1000100 |
b1000000 r
b1000000 I"
b111100 e
0#"
1&"
b0 %"
b0 ("
b0 ?"
b0 ~
b11110011111101001111010011110100 ""
b111000 $"
b10011 !"
b1001000 0
b1001000 Q
b1001000 <"
b10010 %
1"
#1850
0"
#1900
b1010000 T
b1010000 :"
b1010000 ;"
b1010000 9"
b1001100 +"
b1001100 7"
b11 _
b11 }"
b100 \
b11 [
b11 |"
b100 F
b100 4"
1Y"
0P"
b100 G
b100 /"
b100 H
b100 ."
b111 @
b111 1"
b10000000011 I
b10000000011 -"
b10000000000 ?
b10000000000 2"
b10 E
b10 0"
b1 M
b1 y"
1w"
0v"
b11 R
b11 N"
b100 A
b100 >"
b111 D
b100 V
b10000000000 W
b10100000000010000000011 ,
b10100000000010000000011 8
b10100000000010000000011 =
b10011 7
b111100 $"
b1000000 e
b1000100 r
b1000100 I"
b10000000000001110000011 {
b1001000 |
b1001100 0
b1001100 Q
b1001100 <"
b10011 %
1"
#1950
0"
#2000
b1010100 T
b1010100 :"
b1010100 ;"
b1010100 9"
b1010000 +"
b1010000 7"
b101 \
b101 F
b101 4"
b11110001111100101111001111110100 O
b11110001111100101111001111110100 C"
0L
b100 J
b100 8"
b100 J"
b101 G
b101 /"
b101 H
b101 ."
b1000 @
b1000 1"
b100 I
b100 -"
b10100000000 ?
b10100000000 2"
b10000000010 E
b10000000010 0"
b101 A
b101 >"
b1000 D
b101 V
b10100000000 W
b100 K
b100 H"
b11000000000010010000011 ,
b11000000000010010000011 8
b11000000000010010000011 =
b10100 7
b10100000000010000000011 {
b1001100 |
b11 m
b1 v
b111 w
b100 y
b100 n
b100 5"
b1001000 r
b1001000 I"
b10000000000001110000011 o
b1000100 e
b1000000 $"
b1010000 0
b1010000 Q
b1010000 <"
b10100 %
1"
#2050
0"
#2100
b1011000 T
b1011000 :"
b1011000 ;"
b1011000 9"
b1010100 +"
b1010100 7"
b110 \
b101 J
b101 8"
b101 J"
b110 F
b110 4"
b110000000000100 O
b110000000000100 C"
b11111111111111111111111111110100 -
b11111111111111111111111111110100 6
b11111111111111111111111111110100 :
b100 3
b101 K
b101 H"
b110 G
b110 /"
b110 H
b110 ."
b1001 @
b1001 1"
b10000000100 I
b10000000100 -"
b11000000000 ?
b11000000000 2"
b11 E
b11 0"
b110 A
b110 >"
b1001 D
b110 V
b11000000000 W
b11100000000010100000011 ,
b11100000000010100000011 8
b11100000000010100000011 =
b10101 7
b1000100 $"
b11 2
b11 5
b11 9
b11 a
b1 h
b111 i
b100 /
b100 ]
b100 `
b1001000 e
b10000000000001110000011 b
b1000 w
b101 y
b101 n
b101 5"
b11110001111100101111001111110100 t
b1001100 r
b1001100 I"
b10100000000010000000011 o
b11000000000010010000011 {
b1010000 |
b1010100 0
b1010100 Q
b1010100 <"
b10101 %
1"
#2150
0"
#2200
b1011100 T
b1011100 :"
b1011100 ;"
b1011100 9"
b1011000 +"
b1011000 7"
b111 \
b111 F
b111 4"
b0 O
b0 C"
b110 J
b110 8"
b110 J"
b11111111111111111111111111110011 -
b11111111111111111111111111110011 6
b11111111111111111111111111110011 :
b111 G
b111 /"
b111 H
b111 ."
b1010 @
b1010 1"
b101 I
b101 -"
b11100000000 ?
b11100000000 2"
b10000000011 E
b10000000011 0"
b111 A
b111 >"
b1010 D
b111 V
b11100000000 W
b110 K
b110 H"
b101 3
b11111111111111111111111111110100 ,"
b11111111111111111111111111110100 @"
b1010110000011 ,
b1010110000011 8
b1010110000011 =
b10110 7
b11100000000010100000011 {
b1010100 |
b1001 w
b110 y
b110 n
b110 5"
b110000000000100 t
b1010000 r
b1010000 I"
b11000000000010010000011 o
b1000 i
b11110001111100101111001111110100 .
b11110001111100101111001111110100 4
b11110001111100101111001111110100 ;
b11110001111100101111001111110100 f
b101 /
b101 ]
b101 `
b1001100 e
b10100000000010000000011 b
b1 '"
b111 ("
b111 ?"
b100 ~
b11111111111111111111111111110100 ""
b1001000 $"
b10000000000001110000011 !"
b1011000 0
b1011000 Q
b1011000 <"
b10110 %
1"
#2250
0"
#2300
b1100000 T
b1100000 :"
b1100000 ;"
b1100000 9"
b1011100 +"
b1011100 7"
b0 \
b1 [
b1 |"
b11111111111111111111111111110010 -
b11111111111111111111111111110010 6
b11111111111111111111111111110010 :
b111 J
b111 8"
b111 J"
b0 F
b0 4"
0Y"
1["
b11111111111111111111111111110011 ,"
b11111111111111111111111111110011 @"
b110 3
b111 K
b111 H"
b0 G
b0 /"
b0 H
b0 ."
b1011 @
b1011 1"
b10000000101 I
b10000000101 -"
b1 ?
b1 2"
b100000000000 E
b100000000000 0"
b1 Y
b1 K"
b0 A
b0 >"
b1011 D
b0 V
b1 W
b1000000001011000000011 ,
b1000000001011000000011 8
b1000000001011000000011 =
b10111 7
b0 O
b0 C"
b11111111111111111111111111110100 !
b11111111111111111111111111110100 +
b11111111111111111111111111110100 C
b11111111111111111111111111110100 B"
b11110001111100101111001111110100 %"
b1000 ("
b1000 ?"
b101 ~
b11111111111111111111111111110011 ""
b1001100 $"
b10100000000010000000011 !"
b1001 i
b110000000000100 .
b110000000000100 4
b110000000000100 ;
b110000000000100 f
b110 /
b110 ]
b110 `
b1010000 e
b11000000000010010000011 b
b1010 w
b111 y
b111 n
b111 5"
b0 t
b1010100 r
b1010100 I"
b11100000000010100000011 o
b1010110000011 {
b1011000 |
b1011100 0
b1011100 Q
b1011100 <"
b10111 %
1"
#2350
0"
