a.vcd
$date
	Fri Jun 27 21:16:01 2025
$end
$version
	Icarus Verilog
$end
$timescale
	1s
$end
$scope module sccomp_tb $end
$var wire 32 ! reg_data [31:0] $end
$var reg 1 " clk $end
$var reg 5 # reg_sel [4:0] $end
$var reg 1 $ rstn $end
$var integer 32 % counter [31:0] $end
$var integer 32 & debug_output [31:0] $end
$var integer 32 ' foutput [31:0] $end
$var integer 32 ( pc_output [31:0] $end
$scope module U_SCCOMP $end
$var wire 1 " clk $end
$var wire 5 ) reg_sel [4:0] $end
$var wire 1 * rst $end
$var wire 1 $ rstn $end
$var wire 32 + reg_data [31:0] $end
$var wire 32 , instr [31:0] $end
$var wire 32 - dm_dout [31:0] $end
$var wire 32 . dm_din [31:0] $end
$var wire 32 / dm_addr [31:0] $end
$var wire 32 0 PC [31:0] $end
$var wire 1 1 MemWrite $end
$var wire 3 2 DMType [2:0] $end
$scope module U_DM $end
$var wire 9 3 addr [8:0] $end
$var wire 1 " clk $end
$var wire 32 4 din [31:0] $end
$var wire 1 1 DMWr $end
$var wire 3 5 DMType [2:0] $end
$var reg 32 6 dout [31:0] $end
$upscope $end
$scope module U_IM $end
$var wire 30 7 addr [31:2] $end
$var wire 32 8 dout [31:0] $end
$upscope $end
$scope module U_SCPU $end
$var wire 3 9 DMType_out [2:0] $end
$var wire 32 : Data_in [31:0] $end
$var wire 32 ; Data_out [31:0] $end
$var wire 2 < GPRSel [1:0] $end
$var wire 1 " clk $end
$var wire 32 = inst_in [31:0] $end
$var wire 1 1 mem_w $end
$var wire 5 > reg_sel [4:0] $end
$var wire 1 * reset $end
$var wire 20 ? uimm [19:0] $end
$var wire 12 @ simm [11:0] $end
$var wire 5 A rs2 [4:0] $end
$var wire 5 B rs1 [4:0] $end
$var wire 32 C reg_data [31:0] $end
$var wire 5 D rd [4:0] $end
$var wire 1 E not_used $end
$var wire 20 F jimm [19:0] $end
$var wire 32 G jalr_next [31:0] $end
$var wire 32 H immout [31:0] $end
$var wire 5 I iimm_shamt [4:0] $end
$var wire 12 J iimm [11:0] $end
$var wire 12 K bimm [11:0] $end
$var wire 32 L aluout [31:0] $end
$var wire 32 M alu_B_ID [31:0] $end
$var wire 32 N alu_B [31:0] $end
$var wire 1 O Zero $end
$var wire 2 P WDSel [1:0] $end
$var wire 1 Q RegWrite $end
$var wire 32 R RD2 [31:0] $end
$var wire 32 S RD1 [31:0] $end
$var wire 32 T PC_out [31:0] $end
$var wire 7 U Op [6:0] $end
$var wire 3 V NPCOp [2:0] $end
$var wire 32 W NPC [31:0] $end
$var wire 1 X MemWrite $end
$var wire 12 Y Imm12 [11:0] $end
$var wire 20 Z IMM [19:0] $end
$var wire 7 [ Funct7 [6:0] $end
$var wire 3 \ Funct3 [2:0] $end
$var wire 6 ] EXTOp [5:0] $end
$var wire 3 ^ DMType [2:0] $end
$var wire 1 _ Can_Branch $end
$var wire 32 ` B [31:0] $end
$var wire 32 a Addr_out [31:0] $end
$var wire 1 b ALUSrc $end
$var wire 5 c ALUOp [4:0] $end
$var reg 32 d EX_MEM_ALUResult [31:0] $end
$var reg 3 e EX_MEM_DMType [2:0] $end
$var reg 32 f EX_MEM_Inst [31:0] $end
$var reg 1 g EX_MEM_MemWrite $end
$var reg 3 h EX_MEM_NPCOp [2:0] $end
$var reg 32 i EX_MEM_PC [31:0] $end
$var reg 32 j EX_MEM_RD2 [31:0] $end
$var reg 1 k EX_MEM_RegWrite $end
$var reg 2 l EX_MEM_WDSel [1:0] $end
$var reg 5 m EX_MEM_rd [4:0] $end
$var reg 1 n EX_MEM_valid $end
$var reg 5 o ID_EX_ALUOp [4:0] $end
$var reg 1 p ID_EX_ALUSrc $end
$var reg 3 q ID_EX_DMType [2:0] $end
$var reg 32 r ID_EX_Imm [31:0] $end
$var reg 32 s ID_EX_Inst [31:0] $end
$var reg 1 t ID_EX_MemWrite $end
$var reg 3 u ID_EX_NPCOp [2:0] $end
$var reg 32 v ID_EX_PC [31:0] $end
$var reg 32 w ID_EX_RD1 [31:0] $end
$var reg 32 x ID_EX_RD2 [31:0] $end
$var reg 1 y ID_EX_RegWrite $end
$var reg 2 z ID_EX_WDSel [1:0] $end
$var reg 5 { ID_EX_rd [4:0] $end
$var reg 5 | ID_EX_rs1 [4:0] $end
$var reg 5 } ID_EX_rs2 [4:0] $end
$var reg 1 ~ ID_EX_valid $end
$var reg 1 !" IF_Flush $end
$var reg 32 "" IF_ID_Inst [31:0] $end
$var reg 32 #" IF_ID_PC [31:0] $end
$var reg 1 $" IF_ID_valid $end
$var reg 32 %" MEM_WB_ALUResult [31:0] $end
$var reg 32 &" MEM_WB_Inst [31:0] $end
$var reg 32 '" MEM_WB_MemData [31:0] $end
$var reg 1 (" MEM_WB_MemWrite $end
$var reg 32 )" MEM_WB_PC [31:0] $end
$var reg 32 *" MEM_WB_RD2 [31:0] $end
$var reg 1 +" MEM_WB_RegWrite $end
$var reg 2 ," MEM_WB_WDSel [1:0] $end
$var reg 5 -" MEM_WB_rd [4:0] $end
$var reg 1 ." MEM_WB_valid $end
$var reg 3 /" True_NPCOp [2:0] $end
$var reg 32 0" True_PC_for_next [31:0] $end
$var reg 32 1" WD [31:0] $end
$scope module U_EXT $end
$var wire 12 2" bimm [11:0] $end
$var wire 12 3" iimm [11:0] $end
$var wire 5 4" iimm_shamt [4:0] $end
$var wire 20 5" jimm [19:0] $end
$var wire 12 6" simm [11:0] $end
$var wire 20 7" uimm [19:0] $end
$var wire 6 8" EXTOp [5:0] $end
$var reg 32 9" immout [31:0] $end
$upscope $end
$scope module U_Forward_unit $end
$var wire 1 :" EX_MEM_ForwardA $end
$var wire 1 ;" EX_MEM_ForwardB $end
$var wire 1 <" EX_MEM_RegWrite $end
$var wire 5 =" EX_MEM_rd [4:0] $end
$var wire 5 >" ID_EX_rs1 [4:0] $end
$var wire 5 ?" ID_EX_rs2 [4:0] $end
$var wire 1 @" MEM_WB_ForwardA $end
$var wire 1 A" MEM_WB_ForwardB $end
$var wire 1 B" MEM_WB_RegWrite $end
$var wire 5 C" MEM_WB_rd [4:0] $end
$var wire 2 D" ForwardB [1:0] $end
$var wire 2 E" ForwardA [1:0] $end
$upscope $end
$scope module U_NPC $end
$var wire 32 F" IMM [31:0] $end
$var wire 3 G" NPCOp [2:0] $end
$var wire 32 H" PC [31:0] $end
$var wire 32 I" aluout [31:0] $end
$var wire 32 J" PCPLUS4 [31:0] $end
$var reg 32 K" NPC [31:0] $end
$upscope $end
$scope module U_PC $end
$var wire 32 L" NPC [31:0] $end
$var wire 1 " clk $end
$var wire 1 * rst $end
$var reg 32 M" PC [31:0] $end
$upscope $end
$scope module U_RF $end
$var wire 5 N" A1 [4:0] $end
$var wire 5 O" A2 [4:0] $end
$var wire 5 P" A3 [4:0] $end
$var wire 1 +" RFWr $end
$var wire 32 Q" WD [31:0] $end
$var wire 1 " clk $end
$var wire 5 R" reg_sel [4:0] $end
$var wire 1 * rst $end
$var wire 32 S" reg_data [31:0] $end
$var wire 32 T" RD2 [31:0] $end
$var wire 32 U" RD1 [31:0] $end
$var integer 32 V" i [31:0] $end
$upscope $end
$scope module U_alu $end
$var wire 32 W" A [31:0] $end
$var wire 5 X" ALUOp [4:0] $end
$var wire 32 Y" B [31:0] $end
$var wire 32 Z" PC [31:0] $end
$var wire 1 O Zero $end
$var reg 32 [" C [31:0] $end
$upscope $end
$scope module U_alu_Btype $end
$var wire 32 \" A [31:0] $end
$var wire 32 ]" B [31:0] $end
$var wire 32 ^" PC [31:0] $end
$var wire 1 _ Zero $end
$var wire 5 _" ALUOp [4:0] $end
$var reg 32 `" C [31:0] $end
$upscope $end
$scope module U_ctrl $end
$var wire 1 b ALUSrc $end
$var wire 3 a" Funct3 [2:0] $end
$var wire 7 b" Funct7 [6:0] $end
$var wire 2 c" GPRSel [1:0] $end
$var wire 1 X MemWrite $end
$var wire 7 d" Op [6:0] $end
$var wire 1 Q RegWrite $end
$var wire 1 O Zero $end
$var wire 1 e" is_add $end
$var wire 1 f" is_addi $end
$var wire 1 g" is_and $end
$var wire 1 h" is_andi $end
$var wire 1 i" is_beq $end
$var wire 1 j" is_bge $end
$var wire 1 k" is_bgeu $end
$var wire 1 l" is_blt $end
$var wire 1 m" is_bltu $end
$var wire 1 n" is_bne $end
$var wire 1 o" is_lb $end
$var wire 1 p" is_lbu $end
$var wire 1 q" is_lh $end
$var wire 1 r" is_lhu $end
$var wire 1 s" is_lw $end
$var wire 1 t" is_or $end
$var wire 1 u" is_ori $end
$var wire 1 v" is_sb $end
$var wire 1 w" is_sh $end
$var wire 1 x" is_sll $end
$var wire 1 y" is_slli $end
$var wire 1 z" is_slt $end
$var wire 1 {" is_slti $end
$var wire 1 |" is_sltiu $end
$var wire 1 }" is_sltu $end
$var wire 1 ~" is_sra $end
$var wire 1 !# is_srai $end
$var wire 1 "# is_srl $end
$var wire 1 ## is_srli $end
$var wire 1 $# is_sub $end
$var wire 1 %# is_sw $end
$var wire 1 &# is_xor $end
$var wire 1 '# is_xori $end
$var wire 1 (# is_stype $end
$var wire 1 )# is_sbtype $end
$var wire 1 *# is_rtype $end
$var wire 1 +# is_lui $end
$var wire 1 ,# is_jalr $end
$var wire 1 -# is_jal $end
$var wire 1 .# is_itype_r $end
$var wire 1 /# is_itype_l $end
$var wire 1 0# is_auipc $end
$var wire 2 1# WDSel [1:0] $end
$var wire 3 2# NPCOp [2:0] $end
$var wire 6 3# EXTOp [5:0] $end
$var wire 3 4# DMType [2:0] $end
$var wire 5 5# ALUOp [4:0] $end
$upscope $end
$upscope $end
$upscope $end
$upscope $end
$enddefinitions $end
$comment Show the parameter values. $end
$dumpall
$end
#0
$dumpvars
bx 5#
bx 4#
bx 3#
bx 2#
bx 1#
x0#
x/#
x.#
x-#
x,#
x+#
x*#
x)#
x(#
x'#
x&#
x%#
x$#
x##
x"#
x!#
x~"
x}"
x|"
x{"
xz"
xy"
xx"
xw"
xv"
xu"
xt"
xs"
xr"
xq"
xp"
xo"
xn"
xm"
xl"
xk"
xj"
xi"
xh"
xg"
xf"
xe"
bx d"
bz c"
bx b"
bx a"
bx `"
bx _"
bx ^"
bx ]"
bx \"
bx ["
bx Z"
bx Y"
bx X"
bx W"
bx V"
bx U"
bx T"
bx S"
bx R"
bx Q"
bx P"
bx O"
bx N"
bx M"
bx L"
bx K"
bx J"
bx I"
bx H"
bx G"
bx F"
bx E"
bx D"
bz C"
zB"
xA"
x@"
bz ?"
bz >"
bz ="
z<"
x;"
x:"
bx 9"
bx 8"
bx 7"
bx 6"
bx 5"
bx 4"
bx 3"
bx 2"
bx 1"
bx 0"
bx /"
x."
bx -"
bx ,"
x+"
bx *"
bx )"
x("
bx '"
bx &"
bx %"
1$"
bx #"
bx ""
x!"
x~
bx }
bx |
bx {
bx z
xy
bx x
bx w
bx v
bx u
xt
bx s
bx r
bx q
xp
bx o
xn
bx m
bx l
xk
bx j
bx i
bx h
xg
bx f
bx e
bx d
bx c
xb
bx a
bx `
x_
bx ^
bx ]
bx \
bx [
bx Z
bx Y
xX
bx W
bx V
bx U
bx T
bx S
bx R
xQ
bx P
xO
bx N
bx M
bx L
bx K
bx J
bx I
bx H
bx G
bx F
xE
bx D
bx C
bx B
bx A
bx @
bx ?
bx >
bx =
bz <
bx ;
bx :
bx 9
bx 8
bx 7
bx 6
bx 5
bx 4
bx 3
bx 2
x1
bx 0
bx /
bx .
bx -
bx ,
bx +
0*
bx )
b1000 (
b10 '
b100 &
b0 %
1$
bx #
1"
bx !
$end
#5
b100 W
b100 K"
b100 L"
b0 /"
b0 G"
b100 J"
b0 0"
b0 H"
b100000000001010010011 ,
b100000000001010010011 8
b100000000001010010011 =
b0 7
b0 0
b0 T
b0 M"
b100000 V"
1*
0$
#25
0*
1$
#50
0"
#100
b1000 W
b1000 K"
b1000 L"
b1000 J"
b100 0"
b100 H"
1E
0_
b1 `"
b1 M
b1 ]"
b1 `
1Q
1b
b11 c
b11 _"
b11 5#
b1 G
b1 I"
b1 H
b1 9"
b1 F"
0!"
0e"
0$#
0t"
0g"
0&#
0x"
0z"
0}"
0~"
0"#
0y"
0!#
0##
0s"
0o"
0q"
b0 ^
b0 4#
0p"
0r"
1f"
0u"
0h"
0'#
0{"
0|"
0%#
0v"
0w"
0i"
0l"
0m"
0n"
0j"
0k"
b0 S
b0 U"
b0 \"
b1 I
b1 4"
b1 J
b1 3"
b101 @
b101 6"
b10000000010 K
b10000000010 2"
b100000000 ?
b100000000 7"
b10000000000 F
b10000000000 5"
0*#
b0 P
b0 1#
0/#
1.#
0X
0(#
0)#
b10000 ]
b10000 8"
b10000 3#
0-#
b0 V
b0 2#
0,#
0+#
00#
b10011 U
b10011 d"
b0 [
b0 b"
b0 \
b0 a"
b0 B
b0 N"
b1 A
b1 O"
b101 D
b1 Y
b100000000 Z
b100000000001100010011 ,
b100000000001100010011 8
b100000000001100010011 =
b1 7
1~
b100000000001010010011 ""
b0 #"
b0 ^"
b100 0
b100 T
b100 M"
b1 %
1"
#150
0"
#200
b1100 W
b1100 K"
b1100 L"
b1100 J"
b1000 0"
b1000 H"
0O
b1 L
b1 ["
b110 @
b110 6"
b11 K
b11 2"
b110 D
b1 N
b1 Y"
b1110010011 ,
b1110010011 8
b1110010011 =
b10 7
b100000000001100010011 ""
b100 #"
b100 ^"
b0 u
0t
b0 q
b0 z
1y
1p
b11 o
b11 X"
b101 {
b1 }
b0 |
b1 r
b0 w
b0 W"
b0 v
b0 Z"
b100000000001010010011 s
b0 h
1n
b1000 0
b1000 T
b1000 M"
b10 %
1"
#250
0"
#300
b10000 W
b10000 K"
b10000 L"
b10000 J"
b1100 0"
b1100 H"
0E
1_
b0 `"
b0 M
b0 ]"
b0 `
b0 G
b0 I"
b0 H
b0 9"
b0 F"
b0 R
b0 T"
b1 3
b0 I
b0 4"
b0 J
b0 3"
b111 @
b111 6"
b10000000011 K
b10000000011 2"
b0 ?
b0 7"
b0 F
b0 5"
b0 A
b0 O"
b111 D
b0 Y
b0 Z
b10000010011 ,
b10000010011 8
b10000010011 =
b11 7
1."
b0 2
b0 5
b0 9
b0 e
b0 l
01
0g
1k
b101 m
b1 /
b1 a
b1 d
b0 i
b100000000001010010011 f
b110 {
b100 v
b100 Z"
b100000000001100010011 s
b1110010011 ""
b1000 #"
b1000 ^"
b1100 0
b1100 T
b1100 M"
b11 %
1"
#350
0"
#400
b10100 W
b10100 K"
b10100 L"
b10100 J"
b10000 0"
b10000 H"
1O
b0 L
b0 ["
b1000 @
b1000 6"
b100 K
b100 2"
b1000 D
b0 N
b0 Y"
b1 1"
b1 Q"
b10011 ,
b10011 8
b10011 =
b100 7
b10000010011 ""
b1100 #"
b1100 ^"
b111 {
b0 }
b0 r
b0 x
b1000 v
b1000 Z"
b1110010011 s
b110 m
b100 i
b100000000001100010011 f
0("
b0 ,"
1+"
b101 -"
b101 P"
b1 %"
b0 )"
b100000000001010010011 &"
b10000 0
b10000 T
b10000 M"
b100 %
1"
#450
0"
#500
b11000 W
b11000 K"
b11000 L"
b11000 J"
b10100 0"
b10100 H"
b0 3
b0 @
b0 6"
b0 K
b0 2"
b0 D
b101 7
b110 -"
b110 P"
b100 )"
b100000000001100010011 &"
b111 m
b0 .
b0 4
b0 ;
b0 j
b0 /
b0 a
b0 d
b1000 i
b1110010011 f
b1000 {
b1100 v
b1100 Z"
b10000010011 s
b10011 ""
b10000 #"
b10000 ^"
b10100 0
b10100 T
b10100 M"
b101 %
1"
#550
0"
#600
b11100 W
b11100 K"
b11100 L"
b11100 J"
b11000 0"
b11000 H"
b0 1"
b0 Q"
b11000101000100001100011 ,
b11000101000100001100011 8
b11000101000100001100011 =
b110 7
b10100 #"
b10100 ^"
b0 {
b10000 v
b10000 Z"
b10011 s
b1000 m
b1100 i
b10000010011 f
b0 *"
b111 -"
b111 P"
b0 %"
b1000 )"
b1110010011 &"
b11000 0
b11000 T
b11000 M"
b110 %
1"
#650
0"
#700
b101000 W
b101000 K"
b101000 L"
b1 /"
b1 G"
b11100 J"
b11000 0"
b11000 H"
b10000 H
b10000 9"
b10000 F"
b1 M
b1 ]"
b1 `
0b
0Q
0E
b100 c
b100 _"
b100 5#
1_
b0 `"
0f"
1!"
b100 ]
b100 8"
b100 3#
1i"
b10001 G
b10001 I"
b1 S
b1 U"
b1 \"
b1 R
b1 T"
b110 I
b110 4"
b110 J
b110 3"
b10000 @
b10000 6"
b1000 K
b1000 2"
b11000101000 ?
b11000101000 7"
b10100000000000011 F
b10100000000000011 5"
0.#
b1 V
b1 2#
1)#
b1100011 U
b1100011 d"
b101 B
b101 N"
b110 A
b110 O"
b10000 D
b110 Y
b11000101000 Z
b101000000010000010011 ,
b101000000010000010011 8
b101000000010000010011 =
b111 7
b1000 -"
b1000 P"
b1100 )"
b10000010011 &"
b0 m
b10000 i
b10011 f
b10100 v
b10100 Z"
b11000101000100001100011 ""
b11000 #"
b11000 ^"
b11100 0
b11100 T
b11100 M"
b111 %
1"
#750
0"
#800
b0 /"
b0 G"
b101100 J"
b101000 0"
b101000 H"
0E
1_
b0 `"
1b
1Q
b11 c
b11 _"
b11 5#
b101100 W
b101100 K"
b101100 L"
b0 M
b0 ]"
b0 `
b0 H
b0 9"
b0 F"
1f"
0!"
0i"
b0 G
b0 I"
b0 S
b0 U"
b0 \"
b0 R
b0 T"
b10000 ]
b10000 8"
b10000 3#
b0 I
b0 4"
b0 J
b0 3"
b0 @
b0 6"
b0 K
b0 2"
b0 ?
b0 7"
b0 F
b0 5"
1.#
b0 V
b0 2#
0)#
b10011 U
b10011 d"
b0 B
b0 N"
b0 A
b0 O"
b0 D
b0 Y
b0 Z
b1 N
b1 Y"
1O
b0 L
b0 ["
b100111000001110010011 ,
b100111000001110010011 8
b100111000001110010011 =
b1010 7
b10011 ""
b11111111111111111111111111111111 #"
b11111111111111111111111111111111 ^"
b1 u
0y
0p
b100 o
b100 X"
b10000 {
b110 }
b101 |
b10000 r
b1 x
b1 w
b1 W"
b11000 v
b11000 Z"
b11000101000100001100011 s
b1 h
b10100 i
b0 -"
b0 P"
b10000 )"
b10011 &"
b101000 0
b101000 T
b101000 M"
b1000 %
1"
#850
0"
#900
b110000 W
b110000 K"
b110000 L"
b110000 J"
b101100 0"
b101100 H"
1E
0_
b1 `"
b1 M
b1 ]"
b1 `
b1 G
b1 I"
b1 H
b1 9"
b1 F"
b0 N
b0 Y"
1O
b0 L
b0 ["
b1 I
b1 4"
b1 J
b1 3"
b111 @
b111 6"
b10000000011 K
b10000000011 2"
b100111000 ?
b100111000 7"
b11100010000000000 F
b11100010000000000 5"
b111 B
b111 N"
b1 A
b1 O"
b111 D
b1 Y
b100111000 Z
b110000000000000001101111 ,
b110000000000000001101111 8
b110000000000000001101111 =
b1011 7
b10100 )"
0k
b10000 m
b1 .
b1 4
b1 ;
b1 j
b0 h
b11000 i
b11000101000100001100011 f
b0 u
1y
1p
b11 o
b11 X"
b0 {
b0 }
b0 |
b0 r
b0 x
b0 w
b0 W"
b11111111111111111111111111111111 v
b11111111111111111111111111111111 Z"
b10011 s
b100111000001110010011 ""
b101000 #"
b101000 ^"
b101100 0
b101100 T
b101100 M"
b1001 %
1"
#950
0"
#1000
b111000 W
b111000 K"
b111000 L"
b10 /"
b10 G"
b110000 J"
b101100 0"
b101100 H"
b0 c
b0 _"
b0 5#
0E
1_
b0 `"
b1100 M
b1100 ]"
b1100 `
0f"
1!"
b10 P
b10 1#
b1100 G
b1100 I"
b1100 H
b1100 9"
b1100 F"
0O
b1 L
b1 ["
b1100 I
b1100 4"
b1100 J
b1100 3"
b0 @
b0 6"
b0 K
b0 2"
b110000000000 ?
b110000000000 7"
b110 F
b110 5"
0.#
b10 V
b10 2#
b1 ]
b1 8"
b1 3#
1-#
b1101111 U
b1101111 d"
b0 B
b0 N"
b1100 A
b1100 O"
b0 D
b1100 Y
b110000000000 Z
b1 N
b1 Y"
b101000000010000010011 ,
b101000000010000010011 8
b101000000010000010011 =
b1100 7
b110000000000000001101111 ""
b101100 #"
b101100 ^"
b111 {
b1 }
b111 |
b1 r
b101000 v
b101000 Z"
b100111000001110010011 s
1k
b0 m
b0 .
b0 4
b0 ;
b0 j
b11111111111111111111111111111111 i
b10011 f
0+"
b1 *"
b10000 -"
b10000 P"
b11000 )"
b11000101000100001100011 &"
b110000 0
b110000 T
b110000 M"
b1010 %
1"
#1025
b0 !
b0 +
b0 C
b0 S"
b111 #
b111 )
b111 >
b111 R"
#1050
0"
#1100
b0 /"
b0 G"
b111100 J"
b111000 0"
b111000 H"
0E
1_
b0 `"
b11 c
b11 _"
b11 5#
1b
1Q
b0 M
b0 ]"
b111100 W
b111100 K"
b111100 L"
b0 `
1f"
0!"
b0 P
b0 1#
b0 G
b0 I"
b0 H
b0 9"
b0 F"
b1 3
b1100 N
b1100 Y"
1O
b0 L
b0 ["
b0 I
b0 4"
b0 J
b0 3"
b0 ?
b0 7"
b0 F
b0 5"
1.#
b0 V
b0 2#
b10000 ]
b10000 8"
b10000 3#
0-#
b10011 U
b10011 d"
b0 A
b0 O"
b0 Y
b0 Z
b100111000001110010011 ,
b100111000001110010011 8
b100111000001110010011 =
b1110 7
1+"
b0 *"
b0 -"
b0 P"
b11111111111111111111111111111111 )"
b10011 &"
b111 m
b10 h
b1 /
b1 a
b1 d
b101000 i
b100111000001110010011 f
b10 u
b10 z
b0 o
b0 X"
b0 {
b1100 }
b0 |
b1100 r
b101100 v
b101100 Z"
b110000000000000001101111 s
b10011 ""
b11111111111111111111111111111111 #"
b11111111111111111111111111111111 ^"
b111000 0
b111000 T
b111000 M"
b1011 %
1"
#1150
0"
#1200
b1000000 W
b1000000 K"
b1000000 L"
b1000000 J"
b111100 0"
b111100 H"
0E
b1 M
b1 ]"
b1 `
0_
b10 `"
b1 H
b1 9"
b1 F"
b10 G
b10 I"
b1 S
b1 U"
b1 \"
b1 I
b1 4"
b1 J
b1 3"
b111 @
b111 6"
b10000000011 K
b10000000011 2"
b100111000 ?
b100111000 7"
b11100010000000000 F
b11100010000000000 5"
b111 B
b111 N"
b1 A
b1 O"
b111 D
b1 Y
b100111000 Z
b0 N
b0 Y"
1O
b0 L
b0 ["
b0 3
b1 1"
b1 Q"
bx ,
bx 8
bx =
b1111 7
b100111000001110010011 ""
b111000 #"
b111000 ^"
b0 u
b0 z
b11 o
b11 X"
b0 }
b0 r
b11111111111111111111111111111111 v
b11111111111111111111111111111111 Z"
b10011 s
b10 l
b0 m
b0 h
b0 /
b0 a
b0 d
b101100 i
b110000000000000001101111 f
b111 -"
b111 P"
b1 %"
b101000 )"
b100111000001110010011 &"
b111100 0
b111100 T
b111100 M"
b1100 %
1"
#1250
0"
#1300
b1000100 W
b1000100 K"
b1000100 L"
b1000100 J"
b1000000 0"
b1000000 H"
xQ
xb
xE
bx M
bx ]"
bx `
bx c
bx _"
bx 5#
x_
bx `"
b0 H
b0 9"
b0 F"
xe"
x$#
xt"
xg"
x&#
xx"
xz"
x}"
x~"
x"#
xy"
x!#
x##
xs"
xo"
xq"
bx ^
bx 4#
xp"
xr"
xf"
xu"
xh"
x'#
x{"
x|"
x%#
xv"
xw"
xi"
xl"
xm"
xn"
xj"
xk"
bx G
bx I"
bx S
bx U"
bx \"
bx R
bx T"
b110000 1"
b110000 Q"
b1 N
b1 Y"
0O
b10 L
b10 ["
bx I
bx 4"
bx J
bx 3"
bx @
bx 6"
bx K
bx 2"
bx ?
bx 7"
bx F
bx 5"
x*#
bx P
bx 1#
x/#
x.#
xX
x(#
x)#
bx0xx ]
bx0xx 8"
bx0xx 3#
x-#
bx V
bx 2#
x,#
x+#
x0#
bx U
bx d"
bx [
bx b"
bx \
bx a"
bx B
bx N"
bx A
bx O"
bx D
bx Y
bx Z
b10000 7
b1 !
b1 +
b1 C
b1 S"
b10 ,"
b0 -"
b0 P"
b0 %"
b101100 )"
b110000000000000001101111 &"
b0 l
b11111111111111111111111111111111 i
b10011 f
b111 {
b1 }
b111 |
b1 r
b1 w
b1 W"
b111000 v
b111000 Z"
b100111000001110010011 s
bx ""
b111100 #"
b111100 ^"
b1000000 0
b1000000 T
b1000000 M"
b1101 %
1"
#1350
0"
#1400
b1001000 W
b1001000 K"
b1001000 L"
b1001000 J"
b1000100 0"
b1000100 H"
bx N
bx Y"
b10 3
b0 1"
b0 Q"
b10001 7
b1000000 #"
b1000000 ^"
bx u
xt
bx q
bx z
xy
xp
bx o
bx X"
bx {
bx }
bx |
b0 r
bx x
bx w
bx W"
b111100 v
b111100 Z"
bx s
b111 m
bx h
b10 /
b10 a
b10 d
b111000 i
b100111000001110010011 f
b0 ,"
b11111111111111111111111111111111 )"
b10011 &"
b1000100 0
b1000100 T
b1000100 M"
b1110 %
1"
#1450
0"
#1500
b1001100 W
b1001100 K"
b1001100 L"
b1001100 J"
b1001000 0"
b1001000 H"
b10 1"
b10 Q"
b0 -
b0 6
b0 :
b10010 7
b111 -"
b111 P"
b10 %"
b111000 )"
b100111000001110010011 &"
bx 2
bx 5
bx 9
bx e
bx l
x1
xg
xk
bx m
bx .
bx 4
bx ;
bx j
b111100 i
bx f
b1000000 v
b1000000 Z"
b1000100 #"
b1000100 ^"
b1001000 0
b1001000 T
b1001000 M"
b1111 %
1"
#1550
0"
#1600
b1010000 W
b1010000 K"
b1010000 L"
b1010000 J"
b1001100 0"
b1001100 H"
b11111111111111111111111111111111 1"
b11111111111111111111111111111111 Q"
b10 !
b10 +
b10 C
b10 S"
b10011 7
b1001000 #"
b1001000 ^"
b1000100 v
b1000100 Z"
b1000000 i
x("
bx ,"
x+"
bx *"
bx -"
bx P"
b0 '"
b111100 )"
bx &"
b1001100 0
b1001100 T
b1001100 M"
b10000 %
1"
#1650
0"
#1700
b1010100 W
b1010100 K"
b1010100 L"
b1010100 J"
b1010000 0"
b1010000 H"
b10100 7
b1000000 )"
b1000100 i
b1001000 v
b1001000 Z"
b1001100 #"
b1001100 ^"
b1010000 0
b1010000 T
b1010000 M"
b10001 %
1"
#1750
0"
#1800
b1011000 W
b1011000 K"
b1011000 L"
b1011000 J"
b1010100 0"
b1010100 H"
b10101 7
b1010000 #"
b1010000 ^"
b1001100 v
b1001100 Z"
b1001000 i
b1000100 )"
b1010100 0
b1010100 T
b1010100 M"
b10010 %
1"
#1850
0"
#1900
b1011100 W
b1011100 K"
b1011100 L"
b1011100 J"
b1011000 0"
b1011000 H"
b10110 7
b1001000 )"
b1001100 i
b1010000 v
b1010000 Z"
b1010100 #"
b1010100 ^"
b1011000 0
b1011000 T
b1011000 M"
b10011 %
1"
#1950
0"
#2000
b1100000 W
b1100000 K"
b1100000 L"
b1100000 J"
b1011100 0"
b1011100 H"
b10111 7
b1011000 #"
b1011000 ^"
b1010100 v
b1010100 Z"
b1010000 i
b1001100 )"
b1011100 0
b1011100 T
b1011100 M"
b10100 %
1"
#2050
0"
#2100
b1100100 W
b1100100 K"
b1100100 L"
b1100100 J"
b1100000 0"
b1100000 H"
b11000 7
b1010000 )"
b1010100 i
b1011000 v
b1011000 Z"
b1011100 #"
b1011100 ^"
b1100000 0
b1100000 T
b1100000 M"
b10101 %
1"
#2150
0"
#2200
b1101000 W
b1101000 K"
b1101000 L"
b1101000 J"
b1100100 0"
b1100100 H"
b11001 7
b1100000 #"
b1100000 ^"
b1011100 v
b1011100 Z"
b1011000 i
b1010100 )"
b1100100 0
b1100100 T
b1100100 M"
b10110 %
1"
#2250
0"
#2300
b1101100 W
b1101100 K"
b1101100 L"
b1101100 J"
b1101000 0"
b1101000 H"
b11010 7
b1011000 )"
b1011100 i
b1100000 v
b1100000 Z"
b1100100 #"
b1100100 ^"
b1101000 0
b1101000 T
b1101000 M"
b10111 %
1"
#2350
0"
#2400
b1110000 W
b1110000 K"
b1110000 L"
b1110000 J"
b1101100 0"
b1101100 H"
b11011 7
b1101000 #"
b1101000 ^"
b1100100 v
b1100100 Z"
b1100000 i
b1011100 )"
b1101100 0
b1101100 T
b1101100 M"
b11000 %
1"
#2450
0"
#2500
b1110100 W
b1110100 K"
b1110100 L"
b1110100 J"
b1110000 0"
b1110000 H"
b11100 7
b1100000 )"
b1100100 i
b1101000 v
b1101000 Z"
b1101100 #"
b1101100 ^"
b1110000 0
b1110000 T
b1110000 M"
b11001 %
1"
#2550
0"
#2600
b1111000 W
b1111000 K"
b1111000 L"
b1111000 J"
b1110100 0"
b1110100 H"
b11101 7
b1110000 #"
b1110000 ^"
b1101100 v
b1101100 Z"
b1101000 i
b1100100 )"
b1110100 0
b1110100 T
b1110100 M"
b11010 %
1"
#2650
0"
#2700
b1111100 W
b1111100 K"
b1111100 L"
b1111100 J"
b1111000 0"
b1111000 H"
b11110 7
b1101000 )"
b1101100 i
b1110000 v
b1110000 Z"
b1110100 #"
b1110100 ^"
b1111000 0
b1111000 T
b1111000 M"
b11011 %
1"
#2750
0"
#2800
b10000000 W
b10000000 K"
b10000000 L"
b10000000 J"
b1111100 0"
b1111100 H"
b11111 7
b1111000 #"
b1111000 ^"
b1110100 v
b1110100 Z"
b1110000 i
b1101100 )"
b1111100 0
b1111100 T
b1111100 M"
b11100 %
1"
#2850
0"
#2900
b10000100 W
b10000100 K"
b10000100 L"
b10000100 J"
b10000000 0"
b10000000 H"
b100000 7
b1110000 )"
b1110100 i
b1111000 v
b1111000 Z"
b1111100 #"
b1111100 ^"
b10000000 0
b10000000 T
b10000000 M"
b11101 %
1"
#2950
0"
#3000
b10001000 W
b10001000 K"
b10001000 L"
b10001000 J"
b10000100 0"
b10000100 H"
b100001 7
b10000000 #"
b10000000 ^"
b1111100 v
b1111100 Z"
b1111000 i
b1110100 )"
b10000100 0
b10000100 T
b10000100 M"
b11110 %
1"
#3050
0"
